{
  "data": [
    {
      "attributes": {
        "action": "addon_added",
        "date": "2016-12-12T15:45:01.407000Z",
        "params": {
          "addon": "Google Drive",
          "contributors": [],
          "params_node": {
            "id": "tp6k7",
            "title": "US Cattle Traceability Information - State Government Web Information Resource Analysis"
          },
          "params_project": null,
          "preprint_provider": null
        }
      },
      "id": "584ec5fd6c613b01fc5e4a97",
      "links": {
        "self": "http://localhost:8000/v2/logs/584ec5fd6c613b01fc5e4a97/"
      },
      "relationships": {
        "node": {
          "links": {
            "related": {
              "href": "http://localhost:8000/v2/nodes/tp6k7/",
              "meta": {}
            }
          }
        },
        "original_node": {
          "links": {
            "related": {
              "href": "http://localhost:8000/v2/nodes/tp6k7/",
              "meta": {}
            }
          }
        },
        "user": {
          "links": {
            "related": {
              "href": "http://localhost:8000/v2/users/39bsp/",
              "meta": {}
            }
          }
        }
      },
      "type": "logs"
    },
    {
      "attributes": {
        "action": "affiliated_institution_added",
        "date": "2016-12-06T16:10:47.490000Z",
        "params": {
          "contributors": [],
          "institution": {
            "id": "jhu",
            "name": "Johns Hopkins University"
          },
          "params_node": {
            "id": "rj87y",
            "title": "Codebook"
          },
          "params_project": null,
          "preprint_provider": null
        }
      },
      "id": "5846e307b83f6901fbdd27b5",
      "links": {
        "self": "http://localhost:8000/v2/logs/5846e307b83f6901fbdd27b5/"
      },
      "relationships": {
        "node": {
          "links": {
            "related": {
              "href": "http://localhost:8000/v2/nodes/rj87y/",
              "meta": {}
            }
          }
        },
        "original_node": {
          "links": {
            "related": {
              "href": "http://localhost:8000/v2/nodes/rj87y/",
              "meta": {}
            }
          }
        },
        "user": {
          "links": {
            "related": {
              "href": "http://localhost:8000/v2/users/39bsp/",
              "meta": {}
            }
          }
        }
      },
      "type": "logs"
    },
    {
      "attributes": {
        "action": "affiliated_institution_added",
        "date": "2016-12-06T16:10:47.301000Z",
        "params": {
          "contributors": [],
          "institution": {
            "id": "jhu",
            "name": "Johns Hopkins University"
          },
          "params_node": {
            "id": "tp6k7",
            "title": "US Cattle Traceability Information - State Government Web Information Resource Analysis"
          },
          "params_project": null,
          "preprint_provider": null
        }
      },
      "id": "5846e307b83f6901fbdd27b0",
      "links": {
        "self": "http://localhost:8000/v2/logs/5846e307b83f6901fbdd27b0/"
      },
      "relationships": {
        "node": {
          "links": {
            "related": {
              "href": "http://localhost:8000/v2/nodes/tp6k7/",
              "meta": {}
            }
          }
        },
        "original_node": {
          "links": {
            "related": {
              "href": "http://localhost:8000/v2/nodes/tp6k7/",
              "meta": {}
            }
          }
        },
        "user": {
          "links": {
            "related": {
              "href": "http://localhost:8000/v2/users/39bsp/",
              "meta": {}
            }
          }
        }
      },
      "type": "logs"
    },
    {
      "attributes": {
        "action": "comment_added",
        "date": "2016-08-22T19:34:24.553000Z",
        "params": {
          "contributors": [],
          "params_node": {
            "id": "tp6k7",
            "title": "US Cattle Traceability Information - State Government Web Information Resource Analysis"
          },
          "params_project": null,
          "preprint_provider": null,
          "wiki": {
            "name": "home",
            "url": "http://osf.io/jygfq/"
          }
        }
      },
      "id": "57bb53c0594d9001fec68c31",
      "links": {
        "self": "http://localhost:8000/v2/logs/57bb53c0594d9001fec68c31/"
      },
      "relationships": {
        "node": {
          "links": {
            "related": {
              "href": "http://localhost:8000/v2/nodes/tp6k7/",
              "meta": {}
            }
          }
        },
        "original_node": {
          "links": {
            "related": {
              "href": "http://localhost:8000/v2/nodes/tp6k7/",
              "meta": {}
            }
          }
        },
        "user": {
          "links": {
            "related": {
              "href": "http://localhost:8000/v2/users/39bsp/",
              "meta": {}
            }
          }
        }
      },
      "type": "logs"
    },
    {
      "attributes": {
        "action": "osf_storage_file_removed",
        "date": "2016-08-18T15:54:58.591000Z",
        "params": {
          "contributors": [],
          "params_node": {
            "id": "tp6k7",
            "title": "US Cattle Traceability Information - State Government Web Information Resource Analysis"
          },
          "params_project": null,
          "path": "/Phase 2/",
          "preprint_provider": null,
          "urls": {
            "download": "/project/tp6k7/files/osfstorage/57b5da25b83f6901e0d50077//?action=download",
            "view": "/project/tp6k7/files/osfstorage/57b5da25b83f6901e0d50077//"
          }
        }
      },
      "id": "57b5da526c613b01e353d977",
      "links": {
        "self": "http://localhost:8000/v2/logs/57b5da526c613b01e353d977/"
      },
      "relationships": {
        "node": {
          "links": {
            "related": {
              "href": "http://localhost:8000/v2/nodes/tp6k7/",
              "meta": {}
            }
          }
        },
        "original_node": {
          "links": {
            "related": {
              "href": "http://localhost:8000/v2/nodes/tp6k7/",
              "meta": {}
            }
          }
        },
        "user": {
          "links": {
            "related": {
              "href": "http://localhost:8000/v2/users/39bsp/",
              "meta": {}
            }
          }
        }
      },
      "type": "logs"
    },
    {
      "attributes": {
        "action": "osf_storage_file_removed",
        "date": "2016-08-18T15:54:54.967000Z",
        "params": {
          "contributors": [],
          "params_node": {
            "id": "tp6k7",
            "title": "US Cattle Traceability Information - State Government Web Information Resource Analysis"
          },
          "params_project": null,
          "path": "/Phase 1/",
          "preprint_provider": null,
          "urls": {
            "download": "/project/tp6k7/files/osfstorage/57b5d9829ad5a101e8228018//?action=download",
            "view": "/project/tp6k7/files/osfstorage/57b5d9829ad5a101e8228018//"
          }
        }
      },
      "id": "57b5da4e594d9001e9ccf00e",
      "links": {
        "self": "http://localhost:8000/v2/logs/57b5da4e594d9001e9ccf00e/"
      },
      "relationships": {
        "node": {
          "links": {
            "related": {
              "href": "http://localhost:8000/v2/nodes/tp6k7/",
              "meta": {}
            }
          }
        },
        "original_node": {
          "links": {
            "related": {
              "href": "http://localhost:8000/v2/nodes/tp6k7/",
              "meta": {}
            }
          }
        },
        "user": {
          "links": {
            "related": {
              "href": "http://localhost:8000/v2/users/39bsp/",
              "meta": {}
            }
          }
        }
      },
      "type": "logs"
    },
    {
      "attributes": {
        "action": "osf_storage_folder_created",
        "date": "2016-08-18T15:54:14.054000Z",
        "params": {
          "contributors": [],
          "params_node": {
            "id": "tp6k7",
            "title": "US Cattle Traceability Information - State Government Web Information Resource Analysis"
          },
          "params_project": null,
          "path": "/Phase 2/",
          "preprint_provider": null,
          "urls": {
            "download": "/project/tp6k7/files/osfstorage/57b5da25b83f6901e0d50077//?action=download",
            "view": "/project/tp6k7/files/osfstorage/57b5da25b83f6901e0d50077//"
          }
        }
      },
      "id": "57b5da266c613b01e153d932",
      "links": {
        "self": "http://localhost:8000/v2/logs/57b5da266c613b01e153d932/"
      },
      "relationships": {
        "node": {
          "links": {
            "related": {
              "href": "http://localhost:8000/v2/nodes/tp6k7/",
              "meta": {}
            }
          }
        },
        "original_node": {
          "links": {
            "related": {
              "href": "http://localhost:8000/v2/nodes/tp6k7/",
              "meta": {}
            }
          }
        },
        "user": {
          "links": {
            "related": {
              "href": "http://localhost:8000/v2/users/39bsp/",
              "meta": {}
            }
          }
        }
      },
      "type": "logs"
    },
    {
      "attributes": {
        "action": "osf_storage_folder_created",
        "date": "2016-08-18T15:51:31.062000Z",
        "params": {
          "contributors": [],
          "params_node": {
            "id": "tp6k7",
            "title": "US Cattle Traceability Information - State Government Web Information Resource Analysis"
          },
          "params_project": null,
          "path": "/Phase 1/",
          "preprint_provider": null,
          "urls": {
            "download": "/project/tp6k7/files/osfstorage/57b5d9829ad5a101e8228018//?action=download",
            "view": "/project/tp6k7/files/osfstorage/57b5d9829ad5a101e8228018//"
          }
        }
      },
      "id": "57b5d983594d9001e8ccf04d",
      "links": {
        "self": "http://localhost:8000/v2/logs/57b5d983594d9001e8ccf04d/"
      },
      "relationships": {
        "node": {
          "links": {
            "related": {
              "href": "http://localhost:8000/v2/nodes/tp6k7/",
              "meta": {}
            }
          }
        },
        "original_node": {
          "links": {
            "related": {
              "href": "http://localhost:8000/v2/nodes/tp6k7/",
              "meta": {}
            }
          }
        },
        "user": {
          "links": {
            "related": {
              "href": "http://localhost:8000/v2/users/39bsp/",
              "meta": {}
            }
          }
        }
      },
      "type": "logs"
    },
    {
      "attributes": {
        "action": "wiki_updated",
        "date": "2016-08-18T15:29:38.930000Z",
        "params": {
          "contributors": [],
          "page": "home",
          "page_id": "jygfq",
          "params_node": {
            "id": "tp6k7",
            "title": "US Cattle Traceability Information - State Government Web Information Resource Analysis"
          },
          "params_project": null,
          "preprint_provider": null,
          "version": "1"
        }
      },
      "id": "57b5d4626c613b01dd53d95b",
      "links": {
        "self": "http://localhost:8000/v2/logs/57b5d4626c613b01dd53d95b/"
      },
      "relationships": {
        "node": {
          "links": {
            "related": {
              "href": "http://localhost:8000/v2/nodes/tp6k7/",
              "meta": {}
            }
          }
        },
        "original_node": {
          "links": {
            "related": {
              "href": "http://localhost:8000/v2/nodes/tp6k7/",
              "meta": {}
            }
          }
        },
        "user": {
          "links": {
            "related": {
              "href": "http://localhost:8000/v2/users/39bsp/",
              "meta": {}
            }
          }
        }
      },
      "type": "logs"
    },
    {
      "attributes": {
        "action": "edit_description",
        "date": "2016-08-18T15:21:02.547000Z",
        "params": {
          "contributors": [],
          "params_node": {
            "id": "tp6k7",
            "title": "US Cattle Traceability Information - State Government Web Information Resource Analysis"
          },
          "params_project": null,
          "preprint_provider": null
        }
      },
      "id": "57b5d25e9ad5a101e8228010",
      "links": {
        "self": "http://localhost:8000/v2/logs/57b5d25e9ad5a101e8228010/"
      },
      "relationships": {
        "node": {
          "links": {
            "related": {
              "href": "http://localhost:8000/v2/nodes/tp6k7/",
              "meta": {}
            }
          }
        },
        "original_node": {
          "links": {
            "related": {
              "href": "http://localhost:8000/v2/nodes/tp6k7/",
              "meta": {}
            }
          }
        },
        "user": {
          "links": {
            "related": {
              "href": "http://localhost:8000/v2/users/39bsp/",
              "meta": {}
            }
          }
        }
      },
      "type": "logs"
    }
  ],
  "links": {
    "first": null,
    "last": "http://localhost:8000/v2/nodes/tp6k7/logs/?page=4",
    "next": "http://localhost:8000/v2/nodes/tp6k7/logs/?page=2",
    "prev": null,
    "self": "http://localhost:8000/v2/nodes/tp6k7/logs/"
  },
  "meta": {
    "per_page": 10,
    "total": 38
  }
}
