{
  "data": [
    {
      "relationships": {
        "node": {
          "links": {
            "related": {
              "href": "http://localhost:8000/v2/nodes/6uwzk/",
              "meta": {}
            }
          }
        },
        "original_node": {
          "links": {
            "related": {
              "href": "http://localhost:8000/v2/nodes/6uwzk/",
              "meta": {}
            }
          }
        },
        "user": {
          "links": {
            "related": {
              "href": "http://localhost:8000/v2/users/bwgcm/",
              "meta": {}
            }
          }
        },
        "contributors": {
          "links": {
            "related": {
              "href": "http://localhost:8000/v2/logs/57570a29c7950c0045ac8055/contributors/",
              "meta": {}
            }
          }
        }
      },
      "links": {
        "self": "http://localhost:8000/v2/logs/57570a29c7950c0045ac8055/"
      },
      "attributes": {
        "date": "2016-06-07T17:53:45.971000",
        "action": "project_registered",
        "params": {
          "params_node": {
            "id": "6uwzk",
            "title": "Raw Experimental Data"
          },
          "params_project": null
        }
      },
      "type": "logs",
      "id": "57570a29c7950c0045ac8055"
    },
    {
      "relationships": {
        "node": {
          "links": {
            "related": {
              "href": "http://localhost:8000/v2/nodes/3e7rd/",
              "meta": {}
            }
          }
        },
        "original_node": {
          "links": {
            "related": {
              "href": "http://localhost:8000/v2/nodes/3e7rd/",
              "meta": {}
            }
          }
        },
        "user": {
          "links": {
            "related": {
              "href": "http://localhost:8000/v2/users/bwgcm/",
              "meta": {}
            }
          }
        },
        "contributors": {
          "links": {
            "related": {
              "href": "http://localhost:8000/v2/logs/57570a29c7950c0045ac8054/contributors/",
              "meta": {}
            }
          }
        }
      },
      "links": {
        "self": "http://localhost:8000/v2/logs/57570a29c7950c0045ac8054/"
      },
      "attributes": {
        "date": "2016-06-07T17:53:45.893000",
        "action": "project_registered",
        "params": {
          "params_node": {
            "id": "3e7rd",
            "title": "Project Two"
          },
          "params_project": null
        }
      },
      "type": "logs",
      "id": "57570a29c7950c0045ac8054"
    },
    {
      "relationships": {
        "node": {
          "links": {
            "related": {
              "href": "http://localhost:8000/v2/nodes/3e7rd/",
              "meta": {}
            }
          }
        },
        "original_node": {
          "links": {
            "related": {
              "href": "http://localhost:8000/v2/nodes/3e7rd/",
              "meta": {}
            }
          }
        },
        "user": {
          "links": {
            "related": {
              "href": "http://localhost:8000/v2/users/bwgcm/",
              "meta": {}
            }
          }
        },
        "contributors": {
          "links": {
            "related": {
              "href": "http://localhost:8000/v2/logs/57570a29c7950c0045ac8053/contributors/",
              "meta": {}
            }
          }
        }
      },
      "links": {
        "self": "http://localhost:8000/v2/logs/57570a29c7950c0045ac8053/"
      },
      "attributes": {
        "date": "2016-06-07T17:53:45.878000",
        "action": "registration_approved",
        "params": {
          "params_node": {
            "id": "3e7rd",
            "title": "Project Two"
          },
          "params_project": null
        }
      },
      "type": "logs",
      "id": "57570a29c7950c0045ac8053"
    },
    {
      "relationships": {
        "node": {
          "links": {
            "related": {
              "href": "http://localhost:8000/v2/nodes/3e7rd/",
              "meta": {}
            }
          }
        },
        "original_node": {
          "links": {
            "related": {
              "href": "http://localhost:8000/v2/nodes/3e7rd/",
              "meta": {}
            }
          }
        },
        "user": {
          "links": {
            "related": {
              "href": "http://localhost:8000/v2/users/qmdz6/",
              "meta": {}
            }
          }
        },
        "contributors": {
          "links": {
            "related": {
              "href": "http://localhost:8000/v2/logs/57570a06c7950c0045ac804f/contributors/",
              "meta": {}
            }
          }
        }
      },
      "links": {
        "self": "http://localhost:8000/v2/logs/57570a06c7950c0045ac804f/"
      },
      "attributes": {
        "date": "2016-06-07T17:53:10.914000",
        "action": "registration_initiated",
        "params": {
          "params_node": {
            "id": "3e7rd",
            "title": "Project Two"
          },
          "params_project": null
        }
      },
      "type": "logs",
      "id": "57570a06c7950c0045ac804f"
    },
    {
      "relationships": {
        "node": {
          "links": {
            "related": {
              "href": "http://localhost:8000/v2/nodes/3e7rd/",
              "meta": {}
            }
          }
        },
        "original_node": {
          "links": {
            "related": {
              "href": "http://localhost:8000/v2/nodes/5w8q7/",
              "meta": {}
            }
          }
        },
        "user": {
          "links": {
            "related": {
              "href": "http://localhost:8000/v2/users/qmdz6/",
              "meta": {}
            }
          }
        },
        "contributors": {
          "links": {
            "related": {
              "href": "http://localhost:8000/v2/logs/575709d3c7950c0045ac8031/contributors/",
              "meta": {}
            }
          }
        }
      },
      "links": {
        "self": "http://localhost:8000/v2/logs/575709d3c7950c0045ac8031/"
      },
      "attributes": {
        "date": "2016-06-07T17:52:19.617000",
        "action": "node_removed",
        "params": {
          "params_node": {
            "id": "5w8q7",
            "title": "Workflow Execution"
          },
          "params_project": {
            "id": "5w8q7",
            "title": "Workflow Execution"
          }
        }
      },
      "type": "logs",
      "id": "575709d3c7950c0045ac8031"
    },
    {
      "relationships": {
        "node": {
          "links": {
            "related": {
              "href": "http://localhost:8000/v2/nodes/5w8q7/",
              "meta": {}
            }
          }
        },
        "original_node": {
          "links": {
            "related": {
              "href": "http://localhost:8000/v2/nodes/5w8q7/",
              "meta": {}
            }
          }
        },
        "user": {
          "links": {
            "related": {
              "href": "http://localhost:8000/v2/users/qmdz6/",
              "meta": {}
            }
          }
        },
        "contributors": {
          "links": {
            "related": {
              "href": "http://localhost:8000/v2/logs/575708bbc7950c0045ac8030/contributors/",
              "meta": {}
            }
          }
        }
      },
      "links": {
        "self": "http://localhost:8000/v2/logs/575708bbc7950c0045ac8030/"
      },
      "attributes": {
        "date": "2016-06-07T17:47:39.113000",
        "action": "project_registered",
        "params": {
          "params_node": {
            "id": "5w8q7",
            "title": "Workflow Execution"
          },
          "params_project": null
        }
      },
      "type": "logs",
      "id": "575708bbc7950c0045ac8030"
    },
    {
      "relationships": {
        "node": {
          "links": {
            "related": {
              "href": "http://localhost:8000/v2/nodes/6uwzk/",
              "meta": {}
            }
          }
        },
        "original_node": {
          "links": {
            "related": {
              "href": "http://localhost:8000/v2/nodes/6uwzk/",
              "meta": {}
            }
          }
        },
        "user": {
          "links": {
            "related": {
              "href": "http://localhost:8000/v2/users/qmdz6/",
              "meta": {}
            }
          }
        },
        "contributors": {
          "links": {
            "related": {
              "href": "http://localhost:8000/v2/logs/575708bbc7950c0045ac802f/contributors/",
              "meta": {}
            }
          }
        }
      },
      "links": {
        "self": "http://localhost:8000/v2/logs/575708bbc7950c0045ac802f/"
      },
      "attributes": {
        "date": "2016-06-07T17:47:39.006000",
        "action": "project_registered",
        "params": {
          "params_node": {
            "id": "6uwzk",
            "title": "Raw Experimental Data"
          },
          "params_project": null
        }
      },
      "type": "logs",
      "id": "575708bbc7950c0045ac802f"
    },
    {
      "relationships": {
        "node": {
          "links": {
            "related": {
              "href": "http://localhost:8000/v2/nodes/3e7rd/",
              "meta": {}
            }
          }
        },
        "original_node": {
          "links": {
            "related": {
              "href": "http://localhost:8000/v2/nodes/3e7rd/",
              "meta": {}
            }
          }
        },
        "user": {
          "links": {
            "related": {
              "href": "http://localhost:8000/v2/users/qmdz6/",
              "meta": {}
            }
          }
        },
        "contributors": {
          "links": {
            "related": {
              "href": "http://localhost:8000/v2/logs/575708bac7950c0045ac802e/contributors/",
              "meta": {}
            }
          }
        }
      },
      "links": {
        "self": "http://localhost:8000/v2/logs/575708bac7950c0045ac802e/"
      },
      "attributes": {
        "date": "2016-06-07T17:47:38.915000",
        "action": "project_registered",
        "params": {
          "params_node": {
            "id": "3e7rd",
            "title": "Project Two"
          },
          "params_project": null
        }
      },
      "type": "logs",
      "id": "575708bac7950c0045ac802e"
    },
    {
      "relationships": {
        "node": {
          "links": {
            "related": {
              "href": "http://localhost:8000/v2/nodes/3e7rd/",
              "meta": {}
            }
          }
        },
        "original_node": {
          "links": {
            "related": {
              "href": "http://localhost:8000/v2/nodes/3e7rd/",
              "meta": {}
            }
          }
        },
        "user": {
          "links": {
            "related": {
              "href": "http://localhost:8000/v2/users/qmdz6/",
              "meta": {}
            }
          }
        },
        "contributors": {
          "links": {
            "related": {
              "href": "http://localhost:8000/v2/logs/575708bac7950c0045ac802d/contributors/",
              "meta": {}
            }
          }
        }
      },
      "links": {
        "self": "http://localhost:8000/v2/logs/575708bac7950c0045ac802d/"
      },
      "attributes": {
        "date": "2016-06-07T17:47:38.899000",
        "action": "registration_approved",
        "params": {
          "params_node": {
            "id": "3e7rd",
            "title": "Project Two"
          },
          "params_project": null
        }
      },
      "type": "logs",
      "id": "575708bac7950c0045ac802d"
    },
    {
      "relationships": {
        "node": {
          "links": {
            "related": {
              "href": "http://localhost:8000/v2/nodes/3e7rd/",
              "meta": {}
            }
          }
        },
        "original_node": {
          "links": {
            "related": {
              "href": "http://localhost:8000/v2/nodes/3e7rd/",
              "meta": {}
            }
          }
        },
        "user": {
          "links": {
            "related": {
              "href": "http://localhost:8000/v2/users/qmdz6/",
              "meta": {}
            }
          }
        },
        "contributors": {
          "links": {
            "related": {
              "href": "http://localhost:8000/v2/logs/575705dac7950c0045ac8022/contributors/",
              "meta": {}
            }
          }
        }
      },
      "links": {
        "self": "http://localhost:8000/v2/logs/575705dac7950c0045ac8022/"
      },
      "attributes": {
        "date": "2016-06-07T17:35:22.354000",
        "action": "registration_initiated",
        "params": {
          "params_node": {
            "id": "3e7rd",
            "title": "Project Two"
          },
          "params_project": null
        }
      },
      "type": "logs",
      "id": "575705dac7950c0045ac8022"
    }
  ],
  "links": {
    "first": null,
    "last": "http://localhost:8000/v2/nodes/3e7rd/logs/?page=3",
    "prev": null,
    "next": "http://localhost:8000/v2/nodes/3e7rd/logs/?page=2",
    "meta": {
      "total": 21,
      "per_page": 10
    }
  }
}
