{
  "data": [
    {
      "attributes": {
        "action": "made_public",
        "date": "2016-12-21T19:55:59.737000Z",
        "params": {
          "contributors": [],
          "params_node": {
            "id": "3yw4y",
            "title": "OSF Online Instructional Videos and Webinars"
          },
          "params_project": {
            "id": "xv7dz",
            "title": "Tutorials and Guides from the OSF"
          },
          "preprint_provider": null
        }
      },
      "id": "585ade4f9ad5a1020acadcee",
      "links": {
        "self": "http://localhost:8000/v2/logs/585ade4f9ad5a1020acadcee/"
      },
      "relationships": {
        "node": {
          "links": {
            "related": {
              "href": "http://localhost:8000/v2/nodes/3yw4y/",
              "meta": {}
            }
          }
        },
        "original_node": {
          "links": {
            "related": {
              "href": "http://localhost:8000/v2/nodes/3yw4y/",
              "meta": {}
            }
          }
        },
        "user": {
          "links": {
            "related": {
              "href": "http://localhost:8000/v2/users/39bsp/",
              "meta": {}
            }
          }
        }
      },
      "type": "logs"
    },
    {
      "attributes": {
        "action": "made_public",
        "date": "2016-12-21T19:55:59.592000Z",
        "params": {
          "contributors": [],
          "params_node": {
            "id": "htxsn",
            "title": "OSF Step-by-Step Guides"
          },
          "params_project": {
            "id": "xv7dz",
            "title": "Tutorials and Guides from the OSF"
          },
          "preprint_provider": null
        }
      },
      "id": "585ade4f9ad5a1020acadced",
      "links": {
        "self": "http://localhost:8000/v2/logs/585ade4f9ad5a1020acadced/"
      },
      "relationships": {
        "node": {
          "links": {
            "related": {
              "href": "http://localhost:8000/v2/nodes/htxsn/",
              "meta": {}
            }
          }
        },
        "original_node": {
          "links": {
            "related": {
              "href": "http://localhost:8000/v2/nodes/htxsn/",
              "meta": {}
            }
          }
        },
        "user": {
          "links": {
            "related": {
              "href": "http://localhost:8000/v2/users/39bsp/",
              "meta": {}
            }
          }
        }
      },
      "type": "logs"
    },
    {
      "attributes": {
        "action": "made_public",
        "date": "2016-12-21T19:55:59.397000Z",
        "params": {
          "contributors": [],
          "params_node": {
            "id": "xv7dz",
            "title": "Tutorials and Guides from the OSF"
          },
          "params_project": {
            "id": "6y7vt",
            "title": "JHU OSF Researcher Road Map"
          },
          "preprint_provider": null
        }
      },
      "id": "585ade4f9ad5a1020acadcec",
      "links": {
        "self": "http://localhost:8000/v2/logs/585ade4f9ad5a1020acadcec/"
      },
      "relationships": {
        "node": {
          "links": {
            "related": {
              "href": "http://localhost:8000/v2/nodes/xv7dz/",
              "meta": {}
            }
          }
        },
        "original_node": {
          "links": {
            "related": {
              "href": "http://localhost:8000/v2/nodes/xv7dz/",
              "meta": {}
            }
          }
        },
        "user": {
          "links": {
            "related": {
              "href": "http://localhost:8000/v2/users/39bsp/",
              "meta": {}
            }
          }
        }
      },
      "type": "logs"
    },
    {
      "attributes": {
        "action": "made_public",
        "date": "2016-12-21T19:55:59.246000Z",
        "params": {
          "contributors": [],
          "params_node": {
            "id": "3ws3u",
            "title": "Using the OSF at JHU - a guide to getting started (Coming soon...)"
          },
          "params_project": {
            "id": "xv7dz",
            "title": "Tutorials and Guides from the OSF"
          },
          "preprint_provider": null
        }
      },
      "id": "585ade4f9ad5a1020acadceb",
      "links": {
        "self": "http://localhost:8000/v2/logs/585ade4f9ad5a1020acadceb/"
      },
      "relationships": {
        "node": {
          "links": {
            "related": {
              "href": "http://localhost:8000/v2/nodes/3ws3u/",
              "meta": {}
            }
          }
        },
        "original_node": {
          "links": {
            "related": {
              "href": "http://localhost:8000/v2/nodes/3ws3u/",
              "meta": {}
            }
          }
        },
        "user": {
          "links": {
            "related": {
              "href": "http://localhost:8000/v2/users/39bsp/",
              "meta": {}
            }
          }
        }
      },
      "type": "logs"
    },
    {
      "attributes": {
        "action": "wiki_updated",
        "date": "2016-12-21T19:55:18.281000Z",
        "params": {
          "contributors": [],
          "page": "home",
          "page_id": "cmdnx",
          "params_node": {
            "id": "sva3p",
            "title": "Ideas and Examples"
          },
          "params_project": {
            "id": "6y7vt",
            "title": "JHU OSF Researcher Road Map"
          },
          "preprint_provider": null,
          "version": "1"
        }
      },
      "id": "585ade269ad5a10205ba665c",
      "links": {
        "self": "http://localhost:8000/v2/logs/585ade269ad5a10205ba665c/"
      },
      "relationships": {
        "node": {
          "links": {
            "related": {
              "href": "http://localhost:8000/v2/nodes/sva3p/",
              "meta": {}
            }
          }
        },
        "original_node": {
          "links": {
            "related": {
              "href": "http://localhost:8000/v2/nodes/sva3p/",
              "meta": {}
            }
          }
        },
        "user": {
          "links": {
            "related": {
              "href": "http://localhost:8000/v2/users/39bsp/",
              "meta": {}
            }
          }
        }
      },
      "type": "logs"
    },
    {
      "attributes": {
        "action": "wiki_updated",
        "date": "2016-12-21T19:06:15.352000Z",
        "params": {
          "contributors": [],
          "page": "home",
          "page_id": "rwc4w",
          "params_node": {
            "id": "3yw4y",
            "title": "OSF Online Instructional Videos and Webinars"
          },
          "params_project": {
            "id": "xv7dz",
            "title": "Tutorials and Guides from the OSF"
          },
          "preprint_provider": null,
          "version": "4"
        }
      },
      "id": "585ad2a7594d9001faa44674",
      "links": {
        "self": "http://localhost:8000/v2/logs/585ad2a7594d9001faa44674/"
      },
      "relationships": {
        "node": {
          "links": {
            "related": {
              "href": "http://localhost:8000/v2/nodes/3yw4y/",
              "meta": {}
            }
          }
        },
        "original_node": {
          "links": {
            "related": {
              "href": "http://localhost:8000/v2/nodes/3yw4y/",
              "meta": {}
            }
          }
        },
        "user": {
          "links": {
            "related": {
              "href": "http://localhost:8000/v2/users/39bsp/",
              "meta": {}
            }
          }
        }
      },
      "type": "logs"
    },
    {
      "attributes": {
        "action": "edit_title",
        "date": "2016-12-21T19:05:51.883000Z",
        "params": {
          "contributors": [],
          "params_node": {
            "id": "3yw4y",
            "title": "OSF Online Instructional Videos and Webinars"
          },
          "params_project": null,
          "preprint_provider": null,
          "title_new": "OSF Online Instructional Videos and Webinars",
          "title_original": "OSF YouTube Instructional Videos and Webinars"
        }
      },
      "id": "585ad28f6c613b01f3e9a39c",
      "links": {
        "self": "http://localhost:8000/v2/logs/585ad28f6c613b01f3e9a39c/"
      },
      "relationships": {
        "node": {
          "links": {
            "related": {
              "href": "http://localhost:8000/v2/nodes/3yw4y/",
              "meta": {}
            }
          }
        },
        "original_node": {
          "links": {
            "related": {
              "href": "http://localhost:8000/v2/nodes/3yw4y/",
              "meta": {}
            }
          }
        },
        "user": {
          "links": {
            "related": {
              "href": "http://localhost:8000/v2/users/39bsp/",
              "meta": {}
            }
          }
        }
      },
      "type": "logs"
    },
    {
      "attributes": {
        "action": "tag_added",
        "date": "2016-12-21T19:00:41.558000Z",
        "params": {
          "contributors": [],
          "params_node": {
            "id": "3yw4y",
            "title": "OSF Online Instructional Videos and Webinars"
          },
          "params_project": null,
          "preprint_provider": null,
          "tag": "YouTube"
        }
      },
      "id": "585ad159b83f6901fd456e4c",
      "links": {
        "self": "http://localhost:8000/v2/logs/585ad159b83f6901fd456e4c/"
      },
      "relationships": {
        "node": {
          "links": {
            "related": {
              "href": "http://localhost:8000/v2/nodes/3yw4y/",
              "meta": {}
            }
          }
        },
        "original_node": {
          "links": {
            "related": {
              "href": "http://localhost:8000/v2/nodes/3yw4y/",
              "meta": {}
            }
          }
        },
        "user": {
          "links": {
            "related": {
              "href": "http://localhost:8000/v2/users/39bsp/",
              "meta": {}
            }
          }
        }
      },
      "type": "logs"
    },
    {
      "attributes": {
        "action": "tag_added",
        "date": "2016-12-21T19:00:33.752000Z",
        "params": {
          "contributors": [],
          "params_node": {
            "id": "3yw4y",
            "title": "OSF Online Instructional Videos and Webinars"
          },
          "params_project": null,
          "preprint_provider": null,
          "tag": "video list"
        }
      },
      "id": "585ad151594d900201a4477e",
      "links": {
        "self": "http://localhost:8000/v2/logs/585ad151594d900201a4477e/"
      },
      "relationships": {
        "node": {
          "links": {
            "related": {
              "href": "http://localhost:8000/v2/nodes/3yw4y/",
              "meta": {}
            }
          }
        },
        "original_node": {
          "links": {
            "related": {
              "href": "http://localhost:8000/v2/nodes/3yw4y/",
              "meta": {}
            }
          }
        },
        "user": {
          "links": {
            "related": {
              "href": "http://localhost:8000/v2/users/39bsp/",
              "meta": {}
            }
          }
        }
      },
      "type": "logs"
    },
    {
      "attributes": {
        "action": "wiki_updated",
        "date": "2016-12-21T19:00:05.073000Z",
        "params": {
          "contributors": [],
          "page": "home",
          "page_id": "g8r4h",
          "params_node": {
            "id": "3yw4y",
            "title": "OSF Online Instructional Videos and Webinars"
          },
          "params_project": {
            "id": "xv7dz",
            "title": "Tutorials and Guides from the OSF"
          },
          "preprint_provider": null,
          "version": "3"
        }
      },
      "id": "585ad1356c613b01f7e9a242",
      "links": {
        "self": "http://localhost:8000/v2/logs/585ad1356c613b01f7e9a242/"
      },
      "relationships": {
        "node": {
          "links": {
            "related": {
              "href": "http://localhost:8000/v2/nodes/3yw4y/",
              "meta": {}
            }
          }
        },
        "original_node": {
          "links": {
            "related": {
              "href": "http://localhost:8000/v2/nodes/3yw4y/",
              "meta": {}
            }
          }
        },
        "user": {
          "links": {
            "related": {
              "href": "http://localhost:8000/v2/users/39bsp/",
              "meta": {}
            }
          }
        }
      },
      "type": "logs"
    }
  ],
  "links": {
    "first": null,
    "last": "http://localhost:8000/v2/nodes/6y7vt/logs/?page=8",
    "next": "http://localhost:8000/v2/nodes/6y7vt/logs/?page=2",
    "prev": null,
    "self": "http://localhost:8000/v2/nodes/6y7vt/logs/"
  },
  "meta": {
    "per_page": 10,
    "total": 76
  }
}
