{
  "data": [
    {
      "attributes": {
        "action": "affiliated_institution_added",
        "date": "2016-07-01T19:49:26.533000Z",
        "params": {
          "contributors": [],
          "institution": {
            "id": "uva",
            "name": "University of Virginia"
          },
          "params_node": {
            "id": "j32ke",
            "title": "Slides"
          },
          "params_project": null,
          "preprint_provider": null
        }
      },
      "id": "5776c946594d9002160045eb",
      "links": {
        "self": "http://localhost:8000/v2/logs/5776c946594d9002160045eb/"
      },
      "relationships": {
        "node": {
          "links": {
            "related": {
              "href": "http://localhost:8000/v2/nodes/j32ke/",
              "meta": {}
            }
          }
        },
        "original_node": {
          "links": {
            "related": {
              "href": "http://localhost:8000/v2/nodes/j32ke/",
              "meta": {}
            }
          }
        },
        "user": {
          "links": {
            "related": {
              "href": "http://localhost:8000/v2/users/kwd2j/",
              "meta": {}
            }
          }
        }
      },
      "type": "logs"
    },
    {
      "attributes": {
        "action": "affiliated_institution_added",
        "date": "2016-07-01T19:49:26.513000Z",
        "params": {
          "contributors": [],
          "institution": {
            "id": "uva",
            "name": "University of Virginia"
          },
          "params_node": {
            "id": "26i3n",
            "title": "Dataverse COS Ambassador Presentation"
          },
          "params_project": null,
          "preprint_provider": null
        }
      },
      "id": "5776c946594d9002160045ea",
      "links": {
        "self": "http://localhost:8000/v2/logs/5776c946594d9002160045ea/"
      },
      "relationships": {
        "node": {
          "links": {
            "related": {
              "href": "http://localhost:8000/v2/nodes/26i3n/",
              "meta": {}
            }
          }
        },
        "original_node": {
          "links": {
            "related": {
              "href": "http://localhost:8000/v2/nodes/26i3n/",
              "meta": {}
            }
          }
        },
        "user": {
          "links": {
            "related": {
              "href": "http://localhost:8000/v2/users/kwd2j/",
              "meta": {}
            }
          }
        }
      },
      "type": "logs"
    },
    {
      "attributes": {
        "action": "edit_description",
        "date": "2015-06-11T14:55:14.324000Z",
        "params": {
          "contributors": [],
          "params_node": {
            "id": "26i3n",
            "title": "Dataverse COS Ambassador Presentation"
          },
          "params_project": null,
          "preprint_provider": null
        }
      },
      "id": "5579a1528c5e4a610bddc03c",
      "links": {
        "self": "http://localhost:8000/v2/logs/5579a1528c5e4a610bddc03c/"
      },
      "relationships": {
        "node": {
          "links": {
            "related": {
              "href": "http://localhost:8000/v2/nodes/26i3n/",
              "meta": {}
            }
          }
        },
        "original_node": {
          "links": {
            "related": {
              "href": "http://localhost:8000/v2/nodes/26i3n/",
              "meta": {}
            }
          }
        },
        "user": {
          "links": {
            "related": {
              "href": "http://localhost:8000/v2/users/5ju9e/",
              "meta": {}
            }
          }
        }
      },
      "type": "logs"
    },
    {
      "attributes": {
        "action": "node_removed",
        "date": "2015-06-11T01:31:50.637000Z",
        "params": {
          "contributors": [],
          "params_node": {
            "id": "5mext",
            "title": "Images"
          },
          "params_project": {
            "id": "5mext",
            "title": "Images"
          },
          "preprint_provider": null
        }
      },
      "id": "57188f0a9ad5a1035aee71f6",
      "links": {
        "self": "http://localhost:8000/v2/logs/57188f0a9ad5a1035aee71f6/"
      },
      "relationships": {
        "node": {
          "links": {
            "related": {
              "href": "http://localhost:8000/v2/nodes/26i3n/",
              "meta": {}
            }
          }
        },
        "original_node": {
          "links": {
            "related": {
              "href": "http://localhost:8000/v2/nodes/5mext/",
              "meta": {}
            }
          }
        },
        "user": {
          "links": {
            "related": {
              "href": "http://localhost:8000/v2/users/5ju9e/",
              "meta": {}
            }
          }
        }
      },
      "type": "logs"
    },
    {
      "attributes": {
        "action": "made_public",
        "date": "2015-06-11T01:30:44.856000Z",
        "params": {
          "contributors": [],
          "params_node": {
            "id": "j32ke",
            "title": "Slides"
          },
          "params_project": {
            "id": "26i3n",
            "title": "Dataverse COS Ambassador Presentation"
          },
          "preprint_provider": null
        }
      },
      "id": "5578e4c48c5e4a6103dd56d6",
      "links": {
        "self": "http://localhost:8000/v2/logs/5578e4c48c5e4a6103dd56d6/"
      },
      "relationships": {
        "node": {
          "links": {
            "related": {
              "href": "http://localhost:8000/v2/nodes/j32ke/",
              "meta": {}
            }
          }
        },
        "original_node": {
          "links": {
            "related": {
              "href": "http://localhost:8000/v2/nodes/j32ke/",
              "meta": {}
            }
          }
        },
        "user": {
          "links": {
            "related": {
              "href": "http://localhost:8000/v2/users/5ju9e/",
              "meta": {}
            }
          }
        }
      },
      "type": "logs"
    },
    {
      "attributes": {
        "action": "made_public",
        "date": "2015-06-11T01:29:14.253000Z",
        "params": {
          "contributors": [],
          "params_node": {
            "id": "26i3n",
            "title": "Dataverse COS Ambassador Presentation"
          },
          "params_project": null,
          "preprint_provider": null
        }
      },
      "id": "5578e46a8c5e4a6103dd56c5",
      "links": {
        "self": "http://localhost:8000/v2/logs/5578e46a8c5e4a6103dd56c5/"
      },
      "relationships": {
        "node": {
          "links": {
            "related": {
              "href": "http://localhost:8000/v2/nodes/26i3n/",
              "meta": {}
            }
          }
        },
        "original_node": {
          "links": {
            "related": {
              "href": "http://localhost:8000/v2/nodes/26i3n/",
              "meta": {}
            }
          }
        },
        "user": {
          "links": {
            "related": {
              "href": "http://localhost:8000/v2/users/5ju9e/",
              "meta": {}
            }
          }
        }
      },
      "type": "logs"
    },
    {
      "attributes": {
        "action": "osf_storage_file_added",
        "date": "2015-06-11T01:28:59.831000Z",
        "params": {
          "contributors": [],
          "params_node": {
            "id": "j32ke",
            "title": "Slides"
          },
          "params_project": {
            "id": "26i3n",
            "title": "Dataverse COS Ambassador Presentation"
          },
          "path": "/COS Overview SHL - Notes.docx",
          "preprint_provider": null,
          "urls": {
            "download": "/project/j32ke/files/osfstorage/5578e45b8c5e4a610bdd6e3d/?action=download",
            "view": "/project/j32ke/files/osfstorage/5578e45b8c5e4a610bdd6e3d/"
          }
        }
      },
      "id": "5578e45b8c5e4a6103dd56c3",
      "links": {
        "self": "http://localhost:8000/v2/logs/5578e45b8c5e4a6103dd56c3/"
      },
      "relationships": {
        "node": {
          "links": {
            "related": {
              "href": "http://localhost:8000/v2/nodes/j32ke/",
              "meta": {}
            }
          }
        },
        "original_node": {
          "links": {
            "related": {
              "href": "http://localhost:8000/v2/nodes/j32ke/",
              "meta": {}
            }
          }
        },
        "user": {
          "links": {
            "related": {
              "href": "http://localhost:8000/v2/users/5ju9e/",
              "meta": {}
            }
          }
        }
      },
      "type": "logs"
    },
    {
      "attributes": {
        "action": "osf_storage_file_updated",
        "date": "2015-06-11T01:28:47.137000Z",
        "params": {
          "contributors": [],
          "params_node": {
            "id": "j32ke",
            "title": "Slides"
          },
          "params_project": {
            "id": "26i3n",
            "title": "Dataverse COS Ambassador Presentation"
          },
          "path": "/COS Overview SHL.pptx",
          "preprint_provider": null,
          "urls": {
            "download": "/project/j32ke/files/osfstorage/556fac488c5e4a4380c6dc5c/?action=download",
            "view": "/project/j32ke/files/osfstorage/556fac488c5e4a4380c6dc5c/"
          }
        }
      },
      "id": "5578e44f8c5e4a6103dd56c1",
      "links": {
        "self": "http://localhost:8000/v2/logs/5578e44f8c5e4a6103dd56c1/"
      },
      "relationships": {
        "node": {
          "links": {
            "related": {
              "href": "http://localhost:8000/v2/nodes/j32ke/",
              "meta": {}
            }
          }
        },
        "original_node": {
          "links": {
            "related": {
              "href": "http://localhost:8000/v2/nodes/j32ke/",
              "meta": {}
            }
          }
        },
        "user": {
          "links": {
            "related": {
              "href": "http://localhost:8000/v2/users/5ju9e/",
              "meta": {}
            }
          }
        }
      },
      "type": "logs"
    },
    {
      "attributes": {
        "action": "osf_storage_file_updated",
        "date": "2015-06-10T19:44:57.452000Z",
        "params": {
          "contributors": [],
          "params_node": {
            "id": "j32ke",
            "title": "Slides"
          },
          "params_project": {
            "id": "26i3n",
            "title": "Dataverse COS Ambassador Presentation"
          },
          "path": "/COS Overview SHL.pptx",
          "preprint_provider": null,
          "urls": {
            "download": "/project/j32ke/files/osfstorage/556fac488c5e4a4380c6dc5c/?action=download",
            "view": "/project/j32ke/files/osfstorage/556fac488c5e4a4380c6dc5c/"
          }
        }
      },
      "id": "557893b98c5e4a6109dd495b",
      "links": {
        "self": "http://localhost:8000/v2/logs/557893b98c5e4a6109dd495b/"
      },
      "relationships": {
        "node": {
          "links": {
            "related": {
              "href": "http://localhost:8000/v2/nodes/j32ke/",
              "meta": {}
            }
          }
        },
        "original_node": {
          "links": {
            "related": {
              "href": "http://localhost:8000/v2/nodes/j32ke/",
              "meta": {}
            }
          }
        },
        "user": {
          "links": {
            "related": {
              "href": "http://localhost:8000/v2/users/5ju9e/",
              "meta": {}
            }
          }
        }
      },
      "type": "logs"
    },
    {
      "attributes": {
        "action": "osf_storage_file_updated",
        "date": "2015-06-08T01:09:05.411000Z",
        "params": {
          "contributors": [],
          "params_node": {
            "id": "j32ke",
            "title": "Slides"
          },
          "params_project": {
            "id": "26i3n",
            "title": "Dataverse COS Ambassador Presentation"
          },
          "path": "/COS Overview SHL.pptx",
          "preprint_provider": null,
          "urls": {
            "download": "/project/j32ke/files/osfstorage/556fac488c5e4a4380c6dc5c/?action=download",
            "view": "/project/j32ke/files/osfstorage/556fac488c5e4a4380c6dc5c/"
          }
        }
      },
      "id": "5574eb318c5e4a1a577a1809",
      "links": {
        "self": "http://localhost:8000/v2/logs/5574eb318c5e4a1a577a1809/"
      },
      "relationships": {
        "node": {
          "links": {
            "related": {
              "href": "http://localhost:8000/v2/nodes/j32ke/",
              "meta": {}
            }
          }
        },
        "original_node": {
          "links": {
            "related": {
              "href": "http://localhost:8000/v2/nodes/j32ke/",
              "meta": {}
            }
          }
        },
        "user": {
          "links": {
            "related": {
              "href": "http://localhost:8000/v2/users/5ju9e/",
              "meta": {}
            }
          }
        }
      },
      "type": "logs"
    }
  ],
  "links": {
    "first": null,
    "last": "http://localhost:8000/v2/nodes/26i3n/logs/?page=12",
    "next": "http://localhost:8000/v2/nodes/26i3n/logs/?page=2",
    "prev": null,
    "self": "http://localhost:8000/v2/nodes/26i3n/logs/"
  },
  "meta": {
    "per_page": 10,
    "total": 112
  }
}
