{
  "data": [
    {
      "attributes": {
        "bibliographic": true,
        "index": 0,
        "permission": "admin",
        "unregistered_contributor": null
      },
      "embeds": {
        "users": {
          "data": {
            "attributes": {
              "active": true,
              "date_registered": "2014-03-19T17:37:44.674000Z",
              "family_name": "Bowman",
              "full_name": "Sara Bowman",
              "given_name": "Sara",
              "locale": "en_US",
              "middle_names": "D.",
              "suffix": "",
              "timezone": "America/New_York"
            },
            "id": "d9ehg",
            "links": {
              "html": "http://osf.io/d9ehg/",
              "profile_image": "http://secure.gravatar.com/avatar/897cc7db063d509c2d385534d27b1a51?d=identicon",
              "self": "http://localhost:8000/v2/users/d9ehg/"
            },
            "relationships": {
              "institutions": {
                "links": {
                  "related": {
                    "href": "http://localhost:8000/v2/users/d9ehg/institutions/",
                    "meta": {}
                  },
                  "self": {
                    "href": "http://localhost:8000/v2/users/d9ehg/relationships/institutions/",
                    "meta": {}
                  }
                }
              },
              "nodes": {
                "links": {
                  "related": {
                    "href": "http://localhost:8000/v2/users/d9ehg/nodes/",
                    "meta": {}
                  }
                }
              }
            },
            "type": "users"
          }
        }
      },
      "id": "zvp8k-d9ehg",
      "links": {
        "self": "http://localhost:8000/v2/nodes/zvp8k/contributors/d9ehg/"
      },
      "relationships": {
        "node": {
          "links": {
            "related": {
              "href": "http://localhost:8000/v2/nodes/zvp8k/",
              "meta": {}
            }
          }
        },
        "users": {
          "links": {
            "related": {
              "href": "http://localhost:8000/v2/users/d9ehg/",
              "meta": {}
            }
          }
        }
      },
      "type": "contributors"
    },
    {
      "attributes": {
        "bibliographic": true,
        "index": 1,
        "permission": "write",
        "unregistered_contributor": null
      },
      "embeds": {
        "users": {
          "data": {
            "attributes": {
              "active": true,
              "date_registered": "2013-07-11T17:05:58.257000Z",
              "family_name": "陈",
              "full_name": "Nan Chen",
              "given_name": "楠",
              "locale": "en_US",
              "middle_names": "",
              "suffix": "",
              "timezone": "America/New_York"
            },
            "id": "v7bph",
            "links": {
              "html": "http://osf.io/v7bph/",
              "profile_image": "http://secure.gravatar.com/avatar/9183eaedb899a355b34ea8a75bda2d9b?d=identicon",
              "self": "http://localhost:8000/v2/users/v7bph/"
            },
            "relationships": {
              "institutions": {
                "links": {
                  "related": {
                    "href": "http://localhost:8000/v2/users/v7bph/institutions/",
                    "meta": {}
                  },
                  "self": {
                    "href": "http://localhost:8000/v2/users/v7bph/relationships/institutions/",
                    "meta": {}
                  }
                }
              },
              "nodes": {
                "links": {
                  "related": {
                    "href": "http://localhost:8000/v2/users/v7bph/nodes/",
                    "meta": {}
                  }
                }
              }
            },
            "type": "users"
          }
        }
      },
      "id": "zvp8k-v7bph",
      "links": {
        "self": "http://localhost:8000/v2/nodes/zvp8k/contributors/v7bph/"
      },
      "relationships": {
        "node": {
          "links": {
            "related": {
              "href": "http://localhost:8000/v2/nodes/zvp8k/",
              "meta": {}
            }
          }
        },
        "users": {
          "links": {
            "related": {
              "href": "http://localhost:8000/v2/users/v7bph/",
              "meta": {}
            }
          }
        }
      },
      "type": "contributors"
    },
    {
      "attributes": {
        "bibliographic": true,
        "index": 2,
        "permission": "admin",
        "unregistered_contributor": null
      },
      "embeds": {
        "users": {
          "data": {
            "attributes": {
              "active": true,
              "date_registered": "2014-03-18T20:21:49.234000Z",
              "family_name": "Chrisinger",
              "full_name": "Sam Chrisinger",
              "given_name": "Sam",
              "locale": "en_US",
              "middle_names": "",
              "suffix": "",
              "timezone": "America/New_York"
            },
            "id": "4ur7b",
            "links": {
              "html": "http://osf.io/4ur7b/",
              "profile_image": "http://secure.gravatar.com/avatar/474539e4281a2712b321cd5c433fe2f9?d=identicon",
              "self": "http://localhost:8000/v2/users/4ur7b/"
            },
            "relationships": {
              "institutions": {
                "links": {
                  "related": {
                    "href": "http://localhost:8000/v2/users/4ur7b/institutions/",
                    "meta": {}
                  },
                  "self": {
                    "href": "http://localhost:8000/v2/users/4ur7b/relationships/institutions/",
                    "meta": {}
                  }
                }
              },
              "nodes": {
                "links": {
                  "related": {
                    "href": "http://localhost:8000/v2/users/4ur7b/nodes/",
                    "meta": {}
                  }
                }
              }
            },
            "type": "users"
          }
        }
      },
      "id": "zvp8k-4ur7b",
      "links": {
        "self": "http://localhost:8000/v2/nodes/zvp8k/contributors/4ur7b/"
      },
      "relationships": {
        "node": {
          "links": {
            "related": {
              "href": "http://localhost:8000/v2/nodes/zvp8k/",
              "meta": {}
            }
          }
        },
        "users": {
          "links": {
            "related": {
              "href": "http://localhost:8000/v2/users/4ur7b/",
              "meta": {}
            }
          }
        }
      },
      "type": "contributors"
    },
    {
      "attributes": {
        "bibliographic": true,
        "index": 3,
        "permission": "admin",
        "unregistered_contributor": null
      },
      "embeds": {
        "users": {
          "data": {
            "attributes": {
              "active": true,
              "date_registered": "2013-04-22T21:14:00.581000Z",
              "family_name": "Cohoon",
              "full_name": "Johanna Cohoon",
              "given_name": "Johanna",
              "locale": "en_US",
              "middle_names": "",
              "suffix": "",
              "timezone": "America/Chicago"
            },
            "id": "edb8y",
            "links": {
              "html": "http://osf.io/edb8y/",
              "profile_image": "http://secure.gravatar.com/avatar/a5aa8c1f84985c038f9f1e6197580fe4?d=identicon",
              "self": "http://localhost:8000/v2/users/edb8y/"
            },
            "relationships": {
              "institutions": {
                "links": {
                  "related": {
                    "href": "http://localhost:8000/v2/users/edb8y/institutions/",
                    "meta": {}
                  },
                  "self": {
                    "href": "http://localhost:8000/v2/users/edb8y/relationships/institutions/",
                    "meta": {}
                  }
                }
              },
              "nodes": {
                "links": {
                  "related": {
                    "href": "http://localhost:8000/v2/users/edb8y/nodes/",
                    "meta": {}
                  }
                }
              }
            },
            "type": "users"
          }
        }
      },
      "id": "zvp8k-edb8y",
      "links": {
        "self": "http://localhost:8000/v2/nodes/zvp8k/contributors/edb8y/"
      },
      "relationships": {
        "node": {
          "links": {
            "related": {
              "href": "http://localhost:8000/v2/nodes/zvp8k/",
              "meta": {}
            }
          }
        },
        "users": {
          "links": {
            "related": {
              "href": "http://localhost:8000/v2/users/edb8y/",
              "meta": {}
            }
          }
        }
      },
      "type": "contributors"
    },
    {
      "attributes": {
        "bibliographic": true,
        "index": 4,
        "permission": "admin",
        "unregistered_contributor": null
      },
      "embeds": {
        "users": {
          "data": {
            "attributes": {
              "active": true,
              "date_registered": "2013-10-11T18:42:20.133000Z",
              "family_name": "Errington",
              "full_name": "Tim Errington",
              "given_name": "Timothy",
              "locale": "en_us",
              "middle_names": "M.",
              "suffix": "",
              "timezone": "America/New_York"
            },
            "id": "alh38",
            "links": {
              "html": "http://osf.io/alh38/",
              "profile_image": "http://secure.gravatar.com/avatar/20937c7cc6bf128d50569282d8daecb0?d=identicon",
              "self": "http://localhost:8000/v2/users/alh38/"
            },
            "relationships": {
              "institutions": {
                "links": {
                  "related": {
                    "href": "http://localhost:8000/v2/users/alh38/institutions/",
                    "meta": {}
                  },
                  "self": {
                    "href": "http://localhost:8000/v2/users/alh38/relationships/institutions/",
                    "meta": {}
                  }
                }
              },
              "nodes": {
                "links": {
                  "related": {
                    "href": "http://localhost:8000/v2/users/alh38/nodes/",
                    "meta": {}
                  }
                }
              }
            },
            "type": "users"
          }
        }
      },
      "id": "zvp8k-alh38",
      "links": {
        "self": "http://localhost:8000/v2/nodes/zvp8k/contributors/alh38/"
      },
      "relationships": {
        "node": {
          "links": {
            "related": {
              "href": "http://localhost:8000/v2/nodes/zvp8k/",
              "meta": {}
            }
          }
        },
        "users": {
          "links": {
            "related": {
              "href": "http://localhost:8000/v2/users/alh38/",
              "meta": {}
            }
          }
        }
      },
      "type": "contributors"
    },
    {
      "attributes": {
        "bibliographic": true,
        "index": 5,
        "permission": "admin",
        "unregistered_contributor": null
      },
      "embeds": {
        "users": {
          "data": {
            "attributes": {
              "active": true,
              "date_registered": "2013-07-02T21:12:32.034000Z",
              "family_name": "Fitzgerald",
              "full_name": "Cailey Fitzgerald",
              "given_name": "Cailey",
              "locale": "en_US",
              "middle_names": "Elizabeth",
              "suffix": "",
              "timezone": "America/New_York"
            },
            "id": "rgc49",
            "links": {
              "html": "http://osf.io/rgc49/",
              "profile_image": "http://secure.gravatar.com/avatar/e3ebd789d64381b9abc68c709e8a4784?d=identicon",
              "self": "http://localhost:8000/v2/users/rgc49/"
            },
            "relationships": {
              "institutions": {
                "links": {
                  "related": {
                    "href": "http://localhost:8000/v2/users/rgc49/institutions/",
                    "meta": {}
                  },
                  "self": {
                    "href": "http://localhost:8000/v2/users/rgc49/relationships/institutions/",
                    "meta": {}
                  }
                }
              },
              "nodes": {
                "links": {
                  "related": {
                    "href": "http://localhost:8000/v2/users/rgc49/nodes/",
                    "meta": {}
                  }
                }
              }
            },
            "type": "users"
          }
        }
      },
      "id": "zvp8k-rgc49",
      "links": {
        "self": "http://localhost:8000/v2/nodes/zvp8k/contributors/rgc49/"
      },
      "relationships": {
        "node": {
          "links": {
            "related": {
              "href": "http://localhost:8000/v2/nodes/zvp8k/",
              "meta": {}
            }
          }
        },
        "users": {
          "links": {
            "related": {
              "href": "http://localhost:8000/v2/users/rgc49/",
              "meta": {}
            }
          }
        }
      },
      "type": "contributors"
    },
    {
      "attributes": {
        "bibliographic": true,
        "index": 6,
        "permission": "admin",
        "unregistered_contributor": null
      },
      "embeds": {
        "users": {
          "data": {
            "attributes": {
              "active": true,
              "date_registered": "2014-03-18T19:11:57.252000Z",
              "family_name": "Geiger",
              "full_name": "Brian J. Geiger",
              "given_name": "Brian",
              "locale": "en_us",
              "middle_names": "J.",
              "suffix": "",
              "timezone": "America/New_York"
            },
            "id": "typ46",
            "links": {
              "html": "http://osf.io/typ46/",
              "profile_image": "http://secure.gravatar.com/avatar/3dd8757ba100b8406413706886243811?d=identicon",
              "self": "http://localhost:8000/v2/users/typ46/"
            },
            "relationships": {
              "institutions": {
                "links": {
                  "related": {
                    "href": "http://localhost:8000/v2/users/typ46/institutions/",
                    "meta": {}
                  },
                  "self": {
                    "href": "http://localhost:8000/v2/users/typ46/relationships/institutions/",
                    "meta": {}
                  }
                }
              },
              "nodes": {
                "links": {
                  "related": {
                    "href": "http://localhost:8000/v2/users/typ46/nodes/",
                    "meta": {}
                  }
                }
              }
            },
            "type": "users"
          }
        }
      },
      "id": "zvp8k-typ46",
      "links": {
        "self": "http://localhost:8000/v2/nodes/zvp8k/contributors/typ46/"
      },
      "relationships": {
        "node": {
          "links": {
            "related": {
              "href": "http://localhost:8000/v2/nodes/zvp8k/",
              "meta": {}
            }
          }
        },
        "users": {
          "links": {
            "related": {
              "href": "http://localhost:8000/v2/users/typ46/",
              "meta": {}
            }
          }
        }
      },
      "type": "contributors"
    },
    {
      "attributes": {
        "bibliographic": true,
        "index": 7,
        "permission": "admin",
        "unregistered_contributor": null
      },
      "embeds": {
        "users": {
          "data": {
            "attributes": {
              "active": true,
              "date_registered": "2013-04-03T00:31:17.790000Z",
              "family_name": "Holman",
              "full_name": "Denise Holman",
              "given_name": "Denise",
              "locale": "en_US",
              "middle_names": "",
              "suffix": "",
              "timezone": "America/New_York"
            },
            "id": "f9xpl",
            "links": {
              "html": "http://osf.io/f9xpl/",
              "profile_image": "http://secure.gravatar.com/avatar/84bea368096d52c710abc8cbffb34986?d=identicon",
              "self": "http://localhost:8000/v2/users/f9xpl/"
            },
            "relationships": {
              "institutions": {
                "links": {
                  "related": {
                    "href": "http://localhost:8000/v2/users/f9xpl/institutions/",
                    "meta": {}
                  },
                  "self": {
                    "href": "http://localhost:8000/v2/users/f9xpl/relationships/institutions/",
                    "meta": {}
                  }
                }
              },
              "nodes": {
                "links": {
                  "related": {
                    "href": "http://localhost:8000/v2/users/f9xpl/nodes/",
                    "meta": {}
                  }
                }
              }
            },
            "type": "users"
          }
        }
      },
      "id": "zvp8k-f9xpl",
      "links": {
        "self": "http://localhost:8000/v2/nodes/zvp8k/contributors/f9xpl/"
      },
      "relationships": {
        "node": {
          "links": {
            "related": {
              "href": "http://localhost:8000/v2/nodes/zvp8k/",
              "meta": {}
            }
          }
        },
        "users": {
          "links": {
            "related": {
              "href": "http://localhost:8000/v2/users/f9xpl/",
              "meta": {}
            }
          }
        }
      },
      "type": "contributors"
    },
    {
      "attributes": {
        "bibliographic": true,
        "index": 8,
        "permission": "admin",
        "unregistered_contributor": null
      },
      "embeds": {
        "users": {
          "data": {
            "attributes": {
              "active": true,
              "date_registered": "2014-02-28T03:39:07.125000Z",
              "family_name": "Jungersen",
              "full_name": "Kurtis Jungersen",
              "given_name": "Kurtis",
              "locale": "en_US",
              "middle_names": "",
              "suffix": "",
              "timezone": "America/New_York"
            },
            "id": "q36he",
            "links": {
              "html": "http://osf.io/q36he/",
              "profile_image": "http://secure.gravatar.com/avatar/b3761a957bafde55f553663c9fa9ebc7?d=identicon",
              "self": "http://localhost:8000/v2/users/q36he/"
            },
            "relationships": {
              "institutions": {
                "links": {
                  "related": {
                    "href": "http://localhost:8000/v2/users/q36he/institutions/",
                    "meta": {}
                  },
                  "self": {
                    "href": "http://localhost:8000/v2/users/q36he/relationships/institutions/",
                    "meta": {}
                  }
                }
              },
              "nodes": {
                "links": {
                  "related": {
                    "href": "http://localhost:8000/v2/users/q36he/nodes/",
                    "meta": {}
                  }
                }
              }
            },
            "type": "users"
          }
        }
      },
      "id": "zvp8k-q36he",
      "links": {
        "self": "http://localhost:8000/v2/nodes/zvp8k/contributors/q36he/"
      },
      "relationships": {
        "node": {
          "links": {
            "related": {
              "href": "http://localhost:8000/v2/nodes/zvp8k/",
              "meta": {}
            }
          }
        },
        "users": {
          "links": {
            "related": {
              "href": "http://localhost:8000/v2/users/q36he/",
              "meta": {}
            }
          }
        }
      },
      "type": "contributors"
    },
    {
      "attributes": {
        "bibliographic": true,
        "index": 9,
        "permission": "admin",
        "unregistered_contributor": null
      },
      "embeds": {
        "users": {
          "data": {
            "attributes": {
              "active": true,
              "date_registered": "2014-04-19T16:05:30.393000Z",
              "family_name": "Kidwell",
              "full_name": "Mallory C. Kidwell",
              "given_name": "Mallory",
              "locale": "en_US",
              "middle_names": "",
              "suffix": "",
              "timezone": "America/Denver"
            },
            "id": "z2u9w",
            "links": {
              "html": "http://osf.io/z2u9w/",
              "profile_image": "http://secure.gravatar.com/avatar/ca22b60b67c74f659e8b3f7c03283579?d=identicon",
              "self": "http://localhost:8000/v2/users/z2u9w/"
            },
            "relationships": {
              "institutions": {
                "links": {
                  "related": {
                    "href": "http://localhost:8000/v2/users/z2u9w/institutions/",
                    "meta": {}
                  },
                  "self": {
                    "href": "http://localhost:8000/v2/users/z2u9w/relationships/institutions/",
                    "meta": {}
                  }
                }
              },
              "nodes": {
                "links": {
                  "related": {
                    "href": "http://localhost:8000/v2/users/z2u9w/nodes/",
                    "meta": {}
                  }
                }
              }
            },
            "type": "users"
          }
        }
      },
      "id": "zvp8k-z2u9w",
      "links": {
        "self": "http://localhost:8000/v2/nodes/zvp8k/contributors/z2u9w/"
      },
      "relationships": {
        "node": {
          "links": {
            "related": {
              "href": "http://localhost:8000/v2/nodes/zvp8k/",
              "meta": {}
            }
          }
        },
        "users": {
          "links": {
            "related": {
              "href": "http://localhost:8000/v2/users/z2u9w/",
              "meta": {}
            }
          }
        }
      },
      "type": "contributors"
    }
  ],
  "links": {
    "first": null,
    "last": "http://localhost:8000/v2/nodes/zvp8k/contributors/?page=10",
    "next": "http://localhost:8000/v2/nodes/zvp8k/contributors/?page=2",
    "prev": null,
    "self": "http://localhost:8000/v2/nodes/zvp8k/contributors/"
  },
  "meta": {
    "per_page": 10,
    "total": 91,
    "total_bibliographic": 91
  }
}
