{
    "data": [
        {
            "relationships": {
                "nodes": {
                    "links": {
                        "related": {
                            "href": "http://192.168.99.100:8000/v2/logs/5719238ecfa27c0045ec7cc8/nodes/",
                            "meta": {

                            }
                        }
                    }
                },
                "user": {
                    "links": {
                        "related": {
                            "href": "http://192.168.99.100:8000/v2/users/a3q2g/",
                            "meta": {

                            }
                        }
                    }
                },
                "contributors": {
                    "links": {
                        "related": {
                            "href": "http://192.168.99.100:8000/v2/logs/5719238ecfa27c0045ec7cc8/contributors/",
                            "meta": {

                            }
                        }
                    }
                }
            },
            "links": {
                "self": "http://192.168.99.100:8000/v2/logs/5719238ecfa27c0045ec7cc8/"
            },
            "attributes": {
                "date": "2016-04-21T19:01:34.098000",
                "action": "license_changed",
                "params": {
                    "view_url": null,
                    "params_node": {
                        "id": "v8x57",
                        "title": "Raw Data"
                    },
                    "params_project": {

                    }
                }
            },
            "type": "logs",
            "id": "5719238ecfa27c0045ec7cc8"
        },
        {
            "relationships": {
                "nodes": {
                    "links": {
                        "related": {
                            "href": "http://192.168.99.100:8000/v2/logs/5716db78cfa27c0045ec7cc4/nodes/",
                            "meta": {

                            }
                        }
                    }
                },
                "user": {
                    "links": {
                        "related": {
                            "href": "http://192.168.99.100:8000/v2/users/a3q2g/",
                            "meta": {

                            }
                        }
                    }
                },
                "contributors": {
                    "links": {
                        "related": {
                            "href": "http://192.168.99.100:8000/v2/logs/5716db78cfa27c0045ec7cc4/contributors/",
                            "meta": {

                            }
                        }
                    }
                }
            },
            "links": {
                "self": "http://192.168.99.100:8000/v2/logs/5716db78cfa27c0045ec7cc4/"
            },
            "attributes": {
                "date": "2016-04-20T01:29:28.730000",
                "action": "license_changed",
                "params": {
                    "view_url": null,
                    "params_node": {
                        "id": "r5s4u",
                        "title": "First Proj"
                    },
                    "params_project": {

                    }
                }
            },
            "type": "logs",
            "id": "5716db78cfa27c0045ec7cc4"
        },
        {
            "relationships": {
                "nodes": {
                    "links": {
                        "related": {
                            "href": "http://192.168.99.100:8000/v2/logs/571639b5cfa27c0045ec7cc1/nodes/",
                            "meta": {

                            }
                        }
                    }
                },
                "user": {
                    "links": {
                        "related": {
                            "href": "http://192.168.99.100:8000/v2/users/a3q2g/",
                            "meta": {

                            }
                        }
                    }
                },
                "contributors": {
                    "links": {
                        "related": {
                            "href": "http://192.168.99.100:8000/v2/logs/571639b5cfa27c0045ec7cc1/contributors/",
                            "meta": {

                            }
                        }
                    }
                }
            },
            "links": {
                "self": "http://192.168.99.100:8000/v2/logs/571639b5cfa27c0045ec7cc1/"
            },
            "attributes": {
                "date": "2016-04-19T13:59:17.116000",
                "action": "project_registered",
                "params": {
                    "view_url": null,
                    "params_node": {
                        "id": "v8x57",
                        "title": "Raw Data"
                    },
                    "params_project": {

                    }
                }
            },
            "type": "logs",
            "id": "571639b5cfa27c0045ec7cc1"
        },
        {
            "relationships": {
                "nodes": {
                    "links": {
                        "related": {
                            "href": "http://192.168.99.100:8000/v2/logs/571639b5cfa27c0045ec7cc0/nodes/",
                            "meta": {

                            }
                        }
                    }
                },
                "user": {
                    "links": {
                        "related": {
                            "href": "http://192.168.99.100:8000/v2/users/a3q2g/",
                            "meta": {

                            }
                        }
                    }
                },
                "contributors": {
                    "links": {
                        "related": {
                            "href": "http://192.168.99.100:8000/v2/logs/571639b5cfa27c0045ec7cc0/contributors/",
                            "meta": {

                            }
                        }
                    }
                }
            },
            "links": {
                "self": "http://192.168.99.100:8000/v2/logs/571639b5cfa27c0045ec7cc0/"
            },
            "attributes": {
                "date": "2016-04-19T13:59:17.087000",
                "action": "project_registered",
                "params": {
                    "view_url": null,
                    "params_node": {
                        "id": "r5s4u",
                        "title": "First Proj"
                    },
                    "params_project": {

                    }
                }
            },
            "type": "logs",
            "id": "571639b5cfa27c0045ec7cc0"
        },
        {
            "relationships": {
                "nodes": {
                    "links": {
                        "related": {
                            "href": "http://192.168.99.100:8000/v2/logs/571639b5cfa27c0045ec7cbf/nodes/",
                            "meta": {

                            }
                        }
                    }
                },
                "user": {
                    "links": {
                        "related": {
                            "href": "http://192.168.99.100:8000/v2/users/a3q2g/",
                            "meta": {

                            }
                        }
                    }
                },
                "contributors": {
                    "links": {
                        "related": {
                            "href": "http://192.168.99.100:8000/v2/logs/571639b5cfa27c0045ec7cbf/contributors/",
                            "meta": {

                            }
                        }
                    }
                }
            },
            "links": {
                "self": "http://192.168.99.100:8000/v2/logs/571639b5cfa27c0045ec7cbf/"
            },
            "attributes": {
                "date": "2016-04-19T13:59:17.081000",
                "action": "registration_approved",
                "params": {
                    "view_url": null,
                    "params_node": {
                        "id": "r5s4u",
                        "title": "First Proj"
                    },
                    "params_project": {

                    }
                }
            },
            "type": "logs",
            "id": "571639b5cfa27c0045ec7cbf"
        },
        {
            "relationships": {
                "nodes": {
                    "links": {
                        "related": {
                            "href": "http://192.168.99.100:8000/v2/logs/57163993cfa27c0045ec7cbc/nodes/",
                            "meta": {

                            }
                        }
                    }
                },
                "user": {
                    "links": {
                        "related": {
                            "href": "http://192.168.99.100:8000/v2/users/a3q2g/",
                            "meta": {

                            }
                        }
                    }
                },
                "contributors": {
                    "links": {
                        "related": {
                            "href": "http://192.168.99.100:8000/v2/logs/57163993cfa27c0045ec7cbc/contributors/",
                            "meta": {

                            }
                        }
                    }
                }
            },
            "links": {
                "self": "http://192.168.99.100:8000/v2/logs/57163993cfa27c0045ec7cbc/"
            },
            "attributes": {
                "date": "2016-04-19T13:58:43.335000",
                "action": "registration_initiated",
                "params": {
                    "view_url": null,
                    "params_node": {
                        "id": "t8kjy",
                        "title": "First Proj"
                    },
                    "params_project": {

                    }
                }
            },
            "type": "logs",
            "id": "57163993cfa27c0045ec7cbc"
        },
        {
            "relationships": {
                "nodes": {
                    "links": {
                        "related": {
                            "href": "http://192.168.99.100:8000/v2/logs/57163222cfa27c0045ec7caf/nodes/",
                            "meta": {

                            }
                        }
                    }
                },
                "user": {
                    "links": {
                        "related": {
                            "href": "http://192.168.99.100:8000/v2/users/a3q2g/",
                            "meta": {

                            }
                        }
                    }
                },
                "contributors": {
                    "links": {
                        "related": {
                            "href": "http://192.168.99.100:8000/v2/logs/57163222cfa27c0045ec7caf/contributors/",
                            "meta": {

                            }
                        }
                    }
                }
            },
            "links": {
                "self": "http://192.168.99.100:8000/v2/logs/57163222cfa27c0045ec7caf/"
            },
            "attributes": {
                "date": "2016-04-19T13:26:58.888000",
                "action": "tag_added",
                "params": {
                    "view_url": null,
                    "params_node": {
                        "id": "r5s4u",
                        "title": "First Proj"
                    },
                    "tag": "newbie",
                    "params_project": {

                    }
                }
            },
            "type": "logs",
            "id": "57163222cfa27c0045ec7caf"
        },
        {
            "relationships": {
                "nodes": {
                    "links": {
                        "related": {
                            "href": "http://192.168.99.100:8000/v2/logs/57163221cfa27c0045ec7cae/nodes/",
                            "meta": {

                            }
                        }
                    }
                },
                "user": {
                    "links": {
                        "related": {
                            "href": "http://192.168.99.100:8000/v2/users/a3q2g/",
                            "meta": {

                            }
                        }
                    }
                },
                "contributors": {
                    "links": {
                        "related": {
                            "href": "http://192.168.99.100:8000/v2/logs/57163221cfa27c0045ec7cae/contributors/",
                            "meta": {

                            }
                        }
                    }
                }
            },
            "links": {
                "self": "http://192.168.99.100:8000/v2/logs/57163221cfa27c0045ec7cae/"
            },
            "attributes": {
                "date": "2016-04-19T13:26:57.304000",
                "action": "tag_added",
                "params": {
                    "view_url": null,
                    "params_node": {
                        "id": "r5s4u",
                        "title": "First Proj"
                    },
                    "tag": "firstproject",
                    "params_project": {

                    }
                }
            },
            "type": "logs",
            "id": "57163221cfa27c0045ec7cae"
        },
        {
            "relationships": {
                "nodes": {
                    "links": {
                        "related": {
                            "href": "http://192.168.99.100:8000/v2/logs/5716311ecfa27c0045ec7cad/nodes/",
                            "meta": {

                            }
                        }
                    }
                },
                "user": {
                    "links": {
                        "related": {
                            "href": "http://192.168.99.100:8000/v2/users/a3q2g/",
                            "meta": {

                            }
                        }
                    }
                },
                "contributors": {
                    "links": {
                        "related": {
                            "href": "http://192.168.99.100:8000/v2/logs/5716311ecfa27c0045ec7cad/contributors/",
                            "meta": {

                            }
                        }
                    }
                }
            },
            "links": {
                "self": "http://192.168.99.100:8000/v2/logs/5716311ecfa27c0045ec7cad/"
            },
            "attributes": {
                "date": "2016-04-19T13:22:38.117000",
                "action": "osf_storage_file_added",
                "params": {
                    "path": "/porsche.jpg",
                    "params_node": {
                        "id": "v8x57",
                        "title": "Raw Data"
                    },
                    "params_project": {
                        "id": "r5s4u",
                        "title": "First Proj"
                    },
                    "view_url": "/project/v8x57/files/osfstorage/5716311dcfa27c0045ec7cab/"
                }
            },
            "type": "logs",
            "id": "5716311ecfa27c0045ec7cad"
        },
        {
            "relationships": {
                "nodes": {
                    "links": {
                        "related": {
                            "href": "http://192.168.99.100:8000/v2/logs/57162de0cfa27c004857a453/nodes/",
                            "meta": {

                            }
                        }
                    }
                },
                "user": {
                    "links": {
                        "related": {
                            "href": "http://192.168.99.100:8000/v2/users/a3q2g/",
                            "meta": {

                            }
                        }
                    }
                },
                "contributors": {
                    "links": {
                        "related": {
                            "href": "http://192.168.99.100:8000/v2/logs/57162de0cfa27c004857a453/contributors/",
                            "meta": {

                            }
                        }
                    }
                }
            },
            "links": {
                "self": "http://192.168.99.100:8000/v2/logs/57162de0cfa27c004857a453/"
            },
            "attributes": {
                "date": "2016-04-19T13:08:48.512000",
                "action": "wiki_updated",
                "params": {
                    "params_project": {
                        "id": "r5s4u",
                        "title": "First Proj"
                    },
                    "view_url": null,
                    "params_node": {
                        "id": "v8x57",
                        "title": "Raw Data"
                    },
                    "version": "1",
                    "page_id": "2qxhe",
                    "page": "home"
                }
            },
            "type": "logs",
            "id": "57162de0cfa27c004857a453"
        }
    ],
    "links": {
        "first": "http://192.168.99.100:8000/v2/nodes/r5s4u/logs/",
        "last": "http://192.168.99.100:8000/v2/nodes/r5s4u/logs/?page=3",
        "prev": "http://192.168.99.100:8000/v2/nodes/r5s4u/logs/",
        "next": "http://192.168.99.100:8000/v2/nodes/r5s4u/logs/?page=3",
        "meta": {
            "total": 23,
            "per_page": 10
        }
    }
}
