{
  "data": [
    {
      "attributes": {
        "bibliographic": true,
        "index": 0,
        "permission": "admin",
        "unregistered_contributor": null
      },
      "embeds": {
        "users": {
          "data": {
            "attributes": {
              "active": true,
              "date_registered": "2014-03-19T17:37:44.674000Z",
              "family_name": "Bowman",
              "full_name": "Sara Bowman",
              "given_name": "Sara",
              "locale": "en_US",
              "middle_names": "D.",
              "suffix": "",
              "timezone": "America/New_York"
            },
            "id": "d9ehg",
            "links": {
              "html": "http://osf.io/d9ehg/",
              "profile_image": "http://secure.gravatar.com/avatar/897cc7db063d509c2d385534d27b1a51?d=identicon",
              "self": "http://localhost:8000/v2/users/d9ehg/"
            },
            "relationships": {
              "institutions": {
                "links": {
                  "related": {
                    "href": "http://localhost:8000/v2/users/d9ehg/institutions/",
                    "meta": {}
                  },
                  "self": {
                    "href": "http://localhost:8000/v2/users/d9ehg/relationships/institutions/",
                    "meta": {}
                  }
                }
              },
              "nodes": {
                "links": {
                  "related": {
                    "href": "http://localhost:8000/v2/users/d9ehg/nodes/",
                    "meta": {}
                  }
                }
              }
            },
            "type": "users"
          }
        }
      },
      "id": "bs23x-d9ehg",
      "links": {
        "self": "http://localhost:8000/v2/nodes/bs23x/contributors/d9ehg/"
      },
      "relationships": {
        "node": {
          "links": {
            "related": {
              "href": "http://localhost:8000/v2/nodes/bs23x/",
              "meta": {}
            }
          }
        },
        "users": {
          "links": {
            "related": {
              "href": "http://localhost:8000/v2/users/d9ehg/",
              "meta": {}
            }
          }
        }
      },
      "type": "contributors"
    },
    {
      "attributes": {
        "bibliographic": true,
        "index": 1,
        "permission": "admin",
        "unregistered_contributor": null
      },
      "embeds": {
        "users": {
          "data": {
            "attributes": {
              "active": true,
              "date_registered": "2012-05-31T05:29:01.320000Z",
              "family_name": "Nosek",
              "full_name": "Brian A. Nosek",
              "given_name": "Brian",
              "locale": "en_US",
              "middle_names": "A.",
              "suffix": "",
              "timezone": "America/New_York"
            },
            "id": "cdi38",
            "links": {
              "html": "http://osf.io/cdi38/",
              "profile_image": "http://secure.gravatar.com/avatar/37fc491096861dae49fe23ba665af56b?d=identicon",
              "self": "http://localhost:8000/v2/users/cdi38/"
            },
            "relationships": {
              "institutions": {
                "links": {
                  "related": {
                    "href": "http://localhost:8000/v2/users/cdi38/institutions/",
                    "meta": {}
                  },
                  "self": {
                    "href": "http://localhost:8000/v2/users/cdi38/relationships/institutions/",
                    "meta": {}
                  }
                }
              },
              "nodes": {
                "links": {
                  "related": {
                    "href": "http://localhost:8000/v2/users/cdi38/nodes/",
                    "meta": {}
                  }
                }
              }
            },
            "type": "users"
          }
        }
      },
      "id": "bs23x-cdi38",
      "links": {
        "self": "http://localhost:8000/v2/nodes/bs23x/contributors/cdi38/"
      },
      "relationships": {
        "node": {
          "links": {
            "related": {
              "href": "http://localhost:8000/v2/nodes/bs23x/",
              "meta": {}
            }
          }
        },
        "users": {
          "links": {
            "related": {
              "href": "http://localhost:8000/v2/users/cdi38/",
              "meta": {}
            }
          }
        }
      },
      "type": "contributors"
    },
    {
      "attributes": {
        "bibliographic": true,
        "index": 2,
        "permission": "admin",
        "unregistered_contributor": null
      },
      "embeds": {
        "users": {
          "data": {
            "attributes": {
              "active": true,
              "date_registered": "2014-03-31T02:51:26.443000Z",
              "family_name": "Sallans",
              "full_name": "Andrew Sallans",
              "given_name": "Andrew",
              "locale": "en_US",
              "middle_names": "",
              "suffix": "",
              "timezone": "America/New_York"
            },
            "id": "ruiy4",
            "links": {
              "html": "http://osf.io/ruiy4/",
              "profile_image": "http://secure.gravatar.com/avatar/36a8e5c3555550bb7684b657a7f6e39d?d=identicon",
              "self": "http://localhost:8000/v2/users/ruiy4/"
            },
            "relationships": {
              "institutions": {
                "links": {
                  "related": {
                    "href": "http://localhost:8000/v2/users/ruiy4/institutions/",
                    "meta": {}
                  },
                  "self": {
                    "href": "http://localhost:8000/v2/users/ruiy4/relationships/institutions/",
                    "meta": {}
                  }
                }
              },
              "nodes": {
                "links": {
                  "related": {
                    "href": "http://localhost:8000/v2/users/ruiy4/nodes/",
                    "meta": {}
                  }
                }
              }
            },
            "type": "users"
          }
        }
      },
      "id": "bs23x-ruiy4",
      "links": {
        "self": "http://localhost:8000/v2/nodes/bs23x/contributors/ruiy4/"
      },
      "relationships": {
        "node": {
          "links": {
            "related": {
              "href": "http://localhost:8000/v2/nodes/bs23x/",
              "meta": {}
            }
          }
        },
        "users": {
          "links": {
            "related": {
              "href": "http://localhost:8000/v2/users/ruiy4/",
              "meta": {}
            }
          }
        }
      },
      "type": "contributors"
    },
    {
      "attributes": {
        "bibliographic": true,
        "index": 3,
        "permission": "write",
        "unregistered_contributor": null
      },
      "embeds": {
        "users": {
          "data": {
            "attributes": {
              "active": true,
              "date_registered": "2014-05-16T20:44:11.624000Z",
              "family_name": "Christensen",
              "full_name": "Garret Christensen",
              "given_name": "Garret",
              "locale": "en_US",
              "middle_names": "",
              "suffix": "",
              "timezone": "America/Los_Angeles"
            },
            "id": "9nsep",
            "links": {
              "html": "http://osf.io/9nsep/",
              "profile_image": "http://secure.gravatar.com/avatar/8a39fd62c515d45bfa25e664d260200f?d=identicon",
              "self": "http://localhost:8000/v2/users/9nsep/"
            },
            "relationships": {
              "institutions": {
                "links": {
                  "related": {
                    "href": "http://localhost:8000/v2/users/9nsep/institutions/",
                    "meta": {}
                  },
                  "self": {
                    "href": "http://localhost:8000/v2/users/9nsep/relationships/institutions/",
                    "meta": {}
                  }
                }
              },
              "nodes": {
                "links": {
                  "related": {
                    "href": "http://localhost:8000/v2/users/9nsep/nodes/",
                    "meta": {}
                  }
                }
              }
            },
            "type": "users"
          }
        }
      },
      "id": "bs23x-9nsep",
      "links": {
        "self": "http://localhost:8000/v2/nodes/bs23x/contributors/9nsep/"
      },
      "relationships": {
        "node": {
          "links": {
            "related": {
              "href": "http://localhost:8000/v2/nodes/bs23x/",
              "meta": {}
            }
          }
        },
        "users": {
          "links": {
            "related": {
              "href": "http://localhost:8000/v2/users/9nsep/",
              "meta": {}
            }
          }
        }
      },
      "type": "contributors"
    },
    {
      "attributes": {
        "bibliographic": true,
        "index": 4,
        "permission": "write",
        "unregistered_contributor": null
      },
      "embeds": {
        "users": {
          "data": {
            "attributes": {
              "active": true,
              "date_registered": "2012-10-08T20:22:32.112000Z",
              "family_name": "Lakens",
              "full_name": "Daniel Lakens",
              "given_name": "Daniel",
              "locale": "nl",
              "middle_names": "",
              "suffix": "",
              "timezone": "Europe/Berlin"
            },
            "id": "pct7w",
            "links": {
              "html": "http://osf.io/pct7w/",
              "profile_image": "http://secure.gravatar.com/avatar/e89fa11e15aec1caadf4bf4e5d6453f9?d=identicon",
              "self": "http://localhost:8000/v2/users/pct7w/"
            },
            "relationships": {
              "institutions": {
                "links": {
                  "related": {
                    "href": "http://localhost:8000/v2/users/pct7w/institutions/",
                    "meta": {}
                  },
                  "self": {
                    "href": "http://localhost:8000/v2/users/pct7w/relationships/institutions/",
                    "meta": {}
                  }
                }
              },
              "nodes": {
                "links": {
                  "related": {
                    "href": "http://localhost:8000/v2/users/pct7w/nodes/",
                    "meta": {}
                  }
                }
              }
            },
            "type": "users"
          }
        }
      },
      "id": "bs23x-pct7w",
      "links": {
        "self": "http://localhost:8000/v2/nodes/bs23x/contributors/pct7w/"
      },
      "relationships": {
        "node": {
          "links": {
            "related": {
              "href": "http://localhost:8000/v2/nodes/bs23x/",
              "meta": {}
            }
          }
        },
        "users": {
          "links": {
            "related": {
              "href": "http://localhost:8000/v2/users/pct7w/",
              "meta": {}
            }
          }
        }
      },
      "type": "contributors"
    },
    {
      "attributes": {
        "bibliographic": true,
        "index": 5,
        "permission": "write",
        "unregistered_contributor": null
      },
      "embeds": {
        "users": {
          "data": {
            "attributes": {
              "active": true,
              "date_registered": "2012-10-11T22:09:28.427000Z",
              "family_name": "IJzerman",
              "full_name": "Hans IJzerman",
              "given_name": "Hans",
              "locale": "en_US",
              "middle_names": "",
              "suffix": "",
              "timezone": "Europe/Amsterdam"
            },
            "id": "3hsfj",
            "links": {
              "html": "http://osf.io/3hsfj/",
              "profile_image": "http://secure.gravatar.com/avatar/05233cb84957b5c73b0bd6c8f2c73c73?d=identicon",
              "self": "http://localhost:8000/v2/users/3hsfj/"
            },
            "relationships": {
              "institutions": {
                "links": {
                  "related": {
                    "href": "http://localhost:8000/v2/users/3hsfj/institutions/",
                    "meta": {}
                  },
                  "self": {
                    "href": "http://localhost:8000/v2/users/3hsfj/relationships/institutions/",
                    "meta": {}
                  }
                }
              },
              "nodes": {
                "links": {
                  "related": {
                    "href": "http://localhost:8000/v2/users/3hsfj/nodes/",
                    "meta": {}
                  }
                }
              }
            },
            "type": "users"
          }
        }
      },
      "id": "bs23x-3hsfj",
      "links": {
        "self": "http://localhost:8000/v2/nodes/bs23x/contributors/3hsfj/"
      },
      "relationships": {
        "node": {
          "links": {
            "related": {
              "href": "http://localhost:8000/v2/nodes/bs23x/",
              "meta": {}
            }
          }
        },
        "users": {
          "links": {
            "related": {
              "href": "http://localhost:8000/v2/users/3hsfj/",
              "meta": {}
            }
          }
        }
      },
      "type": "contributors"
    },
    {
      "attributes": {
        "bibliographic": true,
        "index": 6,
        "permission": "write",
        "unregistered_contributor": null
      },
      "embeds": {
        "users": {
          "data": {
            "attributes": {
              "active": true,
              "date_registered": "2012-09-29T02:15:53.697000Z",
              "family_name": "Grahe",
              "full_name": "Jon Grahe",
              "given_name": "Jon",
              "locale": "en_US",
              "middle_names": "E.",
              "suffix": "",
              "timezone": "America/Los_Angeles"
            },
            "id": "ul4gx",
            "links": {
              "html": "http://osf.io/ul4gx/",
              "profile_image": "http://secure.gravatar.com/avatar/b9c67cc5788caf24fab808408307d31d?d=identicon",
              "self": "http://localhost:8000/v2/users/ul4gx/"
            },
            "relationships": {
              "institutions": {
                "links": {
                  "related": {
                    "href": "http://localhost:8000/v2/users/ul4gx/institutions/",
                    "meta": {}
                  },
                  "self": {
                    "href": "http://localhost:8000/v2/users/ul4gx/relationships/institutions/",
                    "meta": {}
                  }
                }
              },
              "nodes": {
                "links": {
                  "related": {
                    "href": "http://localhost:8000/v2/users/ul4gx/nodes/",
                    "meta": {}
                  }
                }
              }
            },
            "type": "users"
          }
        }
      },
      "id": "bs23x-ul4gx",
      "links": {
        "self": "http://localhost:8000/v2/nodes/bs23x/contributors/ul4gx/"
      },
      "relationships": {
        "node": {
          "links": {
            "related": {
              "href": "http://localhost:8000/v2/nodes/bs23x/",
              "meta": {}
            }
          }
        },
        "users": {
          "links": {
            "related": {
              "href": "http://localhost:8000/v2/users/ul4gx/",
              "meta": {}
            }
          }
        }
      },
      "type": "contributors"
    },
    {
      "attributes": {
        "bibliographic": true,
        "index": 7,
        "permission": "write",
        "unregistered_contributor": null
      },
      "embeds": {
        "users": {
          "data": {
            "attributes": {
              "active": true,
              "date_registered": "2014-06-10T17:19:33.317000Z",
              "family_name": "Baranski",
              "full_name": "Erica Baranski",
              "given_name": "Erica",
              "locale": "en_US",
              "middle_names": "",
              "suffix": "",
              "timezone": "America/Los_Angeles"
            },
            "id": "gqx2h",
            "links": {
              "html": "http://osf.io/gqx2h/",
              "profile_image": "http://secure.gravatar.com/avatar/7f2994bfa0332012e59fedda8cd17196?d=identicon",
              "self": "http://localhost:8000/v2/users/gqx2h/"
            },
            "relationships": {
              "institutions": {
                "links": {
                  "related": {
                    "href": "http://localhost:8000/v2/users/gqx2h/institutions/",
                    "meta": {}
                  },
                  "self": {
                    "href": "http://localhost:8000/v2/users/gqx2h/relationships/institutions/",
                    "meta": {}
                  }
                }
              },
              "nodes": {
                "links": {
                  "related": {
                    "href": "http://localhost:8000/v2/users/gqx2h/nodes/",
                    "meta": {}
                  }
                }
              }
            },
            "type": "users"
          }
        }
      },
      "id": "bs23x-gqx2h",
      "links": {
        "self": "http://localhost:8000/v2/nodes/bs23x/contributors/gqx2h/"
      },
      "relationships": {
        "node": {
          "links": {
            "related": {
              "href": "http://localhost:8000/v2/nodes/bs23x/",
              "meta": {}
            }
          }
        },
        "users": {
          "links": {
            "related": {
              "href": "http://localhost:8000/v2/users/gqx2h/",
              "meta": {}
            }
          }
        }
      },
      "type": "contributors"
    },
    {
      "attributes": {
        "bibliographic": true,
        "index": 8,
        "permission": "write",
        "unregistered_contributor": null
      },
      "embeds": {
        "users": {
          "data": {
            "attributes": {
              "active": true,
              "date_registered": "2012-06-15T19:55:27.446000Z",
              "family_name": "Fiedler",
              "full_name": "Susann Fiedler",
              "given_name": "Susann",
              "locale": "en_US",
              "middle_names": "",
              "suffix": "",
              "timezone": "Europe/Berlin"
            },
            "id": "acfnb",
            "links": {
              "html": "http://osf.io/acfnb/",
              "profile_image": "http://secure.gravatar.com/avatar/29bce3b4bcb719b5e589db3e5405244b?d=identicon",
              "self": "http://localhost:8000/v2/users/acfnb/"
            },
            "relationships": {
              "institutions": {
                "links": {
                  "related": {
                    "href": "http://localhost:8000/v2/users/acfnb/institutions/",
                    "meta": {}
                  },
                  "self": {
                    "href": "http://localhost:8000/v2/users/acfnb/relationships/institutions/",
                    "meta": {}
                  }
                }
              },
              "nodes": {
                "links": {
                  "related": {
                    "href": "http://localhost:8000/v2/users/acfnb/nodes/",
                    "meta": {}
                  }
                }
              }
            },
            "type": "users"
          }
        }
      },
      "id": "bs23x-acfnb",
      "links": {
        "self": "http://localhost:8000/v2/nodes/bs23x/contributors/acfnb/"
      },
      "relationships": {
        "node": {
          "links": {
            "related": {
              "href": "http://localhost:8000/v2/nodes/bs23x/",
              "meta": {}
            }
          }
        },
        "users": {
          "links": {
            "related": {
              "href": "http://localhost:8000/v2/users/acfnb/",
              "meta": {}
            }
          }
        }
      },
      "type": "contributors"
    },
    {
      "attributes": {
        "bibliographic": true,
        "index": 9,
        "permission": "admin",
        "unregistered_contributor": null
      },
      "embeds": {
        "users": {
          "data": {
            "attributes": {
              "active": true,
              "date_registered": "2013-10-11T18:42:20.133000Z",
              "family_name": "Errington",
              "full_name": "Tim Errington",
              "given_name": "Timothy",
              "locale": "en_us",
              "middle_names": "M.",
              "suffix": "",
              "timezone": "America/New_York"
            },
            "id": "alh38",
            "links": {
              "html": "http://osf.io/alh38/",
              "profile_image": "http://secure.gravatar.com/avatar/20937c7cc6bf128d50569282d8daecb0?d=identicon",
              "self": "http://localhost:8000/v2/users/alh38/"
            },
            "relationships": {
              "institutions": {
                "links": {
                  "related": {
                    "href": "http://localhost:8000/v2/users/alh38/institutions/",
                    "meta": {}
                  },
                  "self": {
                    "href": "http://localhost:8000/v2/users/alh38/relationships/institutions/",
                    "meta": {}
                  }
                }
              },
              "nodes": {
                "links": {
                  "related": {
                    "href": "http://localhost:8000/v2/users/alh38/nodes/",
                    "meta": {}
                  }
                }
              }
            },
            "type": "users"
          }
        }
      },
      "id": "bs23x-alh38",
      "links": {
        "self": "http://localhost:8000/v2/nodes/bs23x/contributors/alh38/"
      },
      "relationships": {
        "node": {
          "links": {
            "related": {
              "href": "http://localhost:8000/v2/nodes/bs23x/",
              "meta": {}
            }
          }
        },
        "users": {
          "links": {
            "related": {
              "href": "http://localhost:8000/v2/users/alh38/",
              "meta": {}
            }
          }
        }
      },
      "type": "contributors"
    }
  ],
  "links": {
    "first": null,
    "last": "http://localhost:8000/v2/nodes/bs23x/contributors/?page=12",
    "next": "http://localhost:8000/v2/nodes/bs23x/contributors/?page=2",
    "prev": null,
    "self": "http://localhost:8000/v2/nodes/bs23x/contributors/"
  },
  "meta": {
    "per_page": 10,
    "total": 111,
    "total_bibliographic": 111
  }
}
