{
  "data": [
    {
      "relationships": {
        "node": {
          "links": {
            "related": {
              "href": "http://localhost:8000/v2/registrations/2gqca/",
              "meta": {}
            }
          }
        },
        "original_node": {
          "links": {
            "related": {
              "href": "http://localhost:8000/v2/nodes/6uwzk/",
              "meta": {}
            }
          }
        },
        "user": {
          "links": {
            "related": {
              "href": "http://localhost:8000/v2/users/qmdz6/",
              "meta": {}
            }
          }
        },
        "contributors": {
          "links": {
            "related": {
              "href": "http://localhost:8000/v2/logs/575705dac7950c0045ac8010/contributors/",
              "meta": {}
            }
          }
        }
      },
      "links": {
        "self": "http://localhost:8000/v2/logs/575705dac7950c0045ac8010/"
      },
      "attributes": {
        "date": "2016-06-07T17:33:39.732000",
        "action": "osf_storage_file_added",
        "params": {
          "path": "/output.log",
          "params_node": {
            "id": "6uwzk",
            "title": "Raw Experimental Data"
          },
          "urls": {
            "download": "/project/6uwzk/files/osfstorage/57570573c7950c0045ac7fe2/?action=download",
            "view": "/project/6uwzk/files/osfstorage/57570573c7950c0045ac7fe2/"
          },
          "params_project": {
            "id": "3e7rd",
            "title": "Project Two"
          }
        }
      },
      "type": "logs",
      "id": "575705dac7950c0045ac8010"
    },
    {
      "relationships": {
        "node": {
          "links": {
            "related": {
              "href": "http://localhost:8000/v2/registrations/4r6s7/",
              "meta": {}
            }
          }
        },
        "original_node": {
          "links": {
            "related": {
              "href": "http://localhost:8000/v2/nodes/5w8q7/",
              "meta": {}
            }
          }
        },
        "user": {
          "links": {
            "related": {
              "href": "http://localhost:8000/v2/users/qmdz6/",
              "meta": {}
            }
          }
        },
        "contributors": {
          "links": {
            "related": {
              "href": "http://localhost:8000/v2/logs/575705dac7950c0045ac8018/contributors/",
              "meta": {}
            }
          }
        }
      },
      "links": {
        "self": "http://localhost:8000/v2/logs/575705dac7950c0045ac8018/"
      },
      "attributes": {
        "date": "2016-06-07T17:33:33.188000",
        "action": "osf_storage_file_added",
        "params": {
          "path": "/jq-osx-amd64",
          "params_node": {
            "id": "5w8q7",
            "title": "Workflow Execution"
          },
          "urls": {
            "download": "/project/5w8q7/files/osfstorage/5757056dc7950c0045ac7fdf/?action=download",
            "view": "/project/5w8q7/files/osfstorage/5757056dc7950c0045ac7fdf/"
          },
          "params_project": {
            "id": "3e7rd",
            "title": "Project Two"
          }
        }
      },
      "type": "logs",
      "id": "575705dac7950c0045ac8018"
    },
    {
      "relationships": {
        "node": {
          "links": {
            "related": {
              "href": "http://localhost:8000/v2/registrations/x2mjh/",
              "meta": {}
            }
          }
        },
        "original_node": {
          "links": {
            "related": {
              "href": "http://localhost:8000/v2/nodes/3e7rd/",
              "meta": {}
            }
          }
        },
        "user": {
          "links": {
            "related": {
              "href": "http://localhost:8000/v2/users/qmdz6/",
              "meta": {}
            }
          }
        },
        "contributors": {
          "links": {
            "related": {
              "href": "http://localhost:8000/v2/logs/575705dac7950c0045ac800a/contributors/",
              "meta": {}
            }
          }
        }
      },
      "links": {
        "self": "http://localhost:8000/v2/logs/575705dac7950c0045ac800a/"
      },
      "attributes": {
        "date": "2016-06-07T15:09:10.611000",
        "action": "comment_added",
        "params": {
          "params_node": {
            "id": "3e7rd",
            "title": "Project Two"
          },
          "params_project": null
        }
      },
      "type": "logs",
      "id": "575705dac7950c0045ac800a"
    },
    {
      "relationships": {
        "node": {
          "links": {
            "related": {
              "href": "http://localhost:8000/v2/registrations/4r6s7/",
              "meta": {}
            }
          }
        },
        "original_node": {
          "links": {
            "related": {
              "href": "http://localhost:8000/v2/nodes/5w8q7/",
              "meta": {}
            }
          }
        },
        "user": {
          "links": {
            "related": {
              "href": "http://localhost:8000/v2/users/qmdz6/",
              "meta": {}
            }
          }
        },
        "contributors": {
          "links": {
            "related": {
              "href": "http://localhost:8000/v2/logs/575705dac7950c0045ac8017/contributors/",
              "meta": {}
            }
          }
        }
      },
      "links": {
        "self": "http://localhost:8000/v2/logs/575705dac7950c0045ac8017/"
      },
      "attributes": {
        "date": "2016-06-07T14:48:45.312000",
        "action": "project_created",
        "params": {
          "params_node": {
            "id": "5w8q7",
            "title": "Workflow Execution"
          },
          "params_project": null
        }
      },
      "type": "logs",
      "id": "575705dac7950c0045ac8017"
    },
    {
      "relationships": {
        "node": {
          "links": {
            "related": {
              "href": "http://localhost:8000/v2/registrations/x2mjh/",
              "meta": {}
            }
          }
        },
        "original_node": {
          "links": {
            "related": {
              "href": "http://localhost:8000/v2/nodes/3e7rd/",
              "meta": {}
            }
          }
        },
        "user": {
          "links": {
            "related": {
              "href": "http://localhost:8000/v2/users/qmdz6/",
              "meta": {}
            }
          }
        },
        "contributors": {
          "links": {
            "related": {
              "href": "http://localhost:8000/v2/logs/575705dac7950c0045ac8009/contributors/",
              "meta": {}
            }
          }
        }
      },
      "links": {
        "self": "http://localhost:8000/v2/logs/575705dac7950c0045ac8009/"
      },
      "attributes": {
        "date": "2016-06-07T14:47:26.476000",
        "action": "wiki_updated",
        "params": {
          "params_node": {
            "id": "3e7rd",
            "title": "Project Two"
          },
          "version": "1",
          "page_id": "jmfd3",
          "page": "home",
          "params_project": null
        }
      },
      "type": "logs",
      "id": "575705dac7950c0045ac8009"
    },
    {
      "relationships": {
        "node": {
          "links": {
            "related": {
              "href": "http://localhost:8000/v2/registrations/x2mjh/",
              "meta": {}
            }
          }
        },
        "original_node": {
          "links": {
            "related": {
              "href": "http://localhost:8000/v2/nodes/3e7rd/",
              "meta": {}
            }
          }
        },
        "user": {
          "links": {
            "related": {
              "href": "http://localhost:8000/v2/users/qmdz6/",
              "meta": {}
            }
          }
        },
        "contributors": {
          "links": {
            "related": {
              "href": "http://localhost:8000/v2/logs/575705d9c7950c0045ac8008/contributors/",
              "meta": {}
            }
          }
        }
      },
      "links": {
        "self": "http://localhost:8000/v2/logs/575705d9c7950c0045ac8008/"
      },
      "attributes": {
        "date": "2016-06-07T14:47:01.078000",
        "action": "license_changed",
        "params": {
          "params_node": {
            "id": "3e7rd",
            "title": "Project Two"
          },
          "params_project": null
        }
      },
      "type": "logs",
      "id": "575705d9c7950c0045ac8008"
    },
    {
      "relationships": {
        "node": {
          "links": {
            "related": {
              "href": "http://localhost:8000/v2/registrations/2gqca/",
              "meta": {}
            }
          }
        },
        "original_node": {
          "links": {
            "related": {
              "href": "http://localhost:8000/v2/nodes/6uwzk/",
              "meta": {}
            }
          }
        },
        "user": {
          "links": {
            "related": {
              "href": "http://localhost:8000/v2/users/qmdz6/",
              "meta": {}
            }
          }
        },
        "contributors": {
          "links": {
            "related": {
              "href": "http://localhost:8000/v2/logs/575705dac7950c0045ac800f/contributors/",
              "meta": {}
            }
          }
        }
      },
      "links": {
        "self": "http://localhost:8000/v2/logs/575705dac7950c0045ac800f/"
      },
      "attributes": {
        "date": "2016-06-07T14:46:14.778000",
        "action": "project_created",
        "params": {
          "params_node": {
            "id": "6uwzk",
            "title": "Raw Experimental Data"
          },
          "params_project": null
        }
      },
      "type": "logs",
      "id": "575705dac7950c0045ac800f"
    },
    {
      "relationships": {
        "node": {
          "links": {
            "related": {
              "href": "http://localhost:8000/v2/registrations/x2mjh/",
              "meta": {}
            }
          }
        },
        "original_node": {
          "links": {
            "related": {
              "href": "http://localhost:8000/v2/nodes/3e7rd/",
              "meta": {}
            }
          }
        },
        "user": {
          "links": {
            "related": {
              "href": "http://localhost:8000/v2/users/qmdz6/",
              "meta": {}
            }
          }
        },
        "contributors": {
          "links": {
            "related": {
              "href": "http://localhost:8000/v2/logs/575705d9c7950c0045ac8007/contributors/",
              "meta": {}
            }
          }
        }
      },
      "links": {
        "self": "http://localhost:8000/v2/logs/575705d9c7950c0045ac8007/"
      },
      "attributes": {
        "date": "2016-06-07T14:46:05.134000",
        "action": "tag_added",
        "params": {
          "params_node": {
            "id": "3e7rd",
            "title": "Project Two"
          },
          "tag": "newtag",
          "params_project": null
        }
      },
      "type": "logs",
      "id": "575705d9c7950c0045ac8007"
    },
    {
      "relationships": {
        "node": {
          "links": {
            "related": {
              "href": "http://localhost:8000/v2/registrations/x2mjh/",
              "meta": {}
            }
          }
        },
        "original_node": {
          "links": {
            "related": {
              "href": "http://localhost:8000/v2/nodes/3e7rd/",
              "meta": {}
            }
          }
        },
        "user": {
          "links": {
            "related": {
              "href": "http://localhost:8000/v2/users/qmdz6/",
              "meta": {}
            }
          }
        },
        "contributors": {
          "links": {
            "related": {
              "href": "http://localhost:8000/v2/logs/575705d9c7950c0045ac8006/contributors/",
              "meta": {}
            }
          }
        }
      },
      "links": {
        "self": "http://localhost:8000/v2/logs/575705d9c7950c0045ac8006/"
      },
      "attributes": {
        "date": "2016-06-03T18:01:28.511000",
        "action": "made_contributor_invisible",
        "params": {
          "params_node": {
            "id": "3e7rd",
            "title": "Project Two"
          },
          "params_project": null
        }
      },
      "type": "logs",
      "id": "575705d9c7950c0045ac8006"
    },
    {
      "relationships": {
        "node": {
          "links": {
            "related": {
              "href": "http://localhost:8000/v2/registrations/x2mjh/",
              "meta": {}
            }
          }
        },
        "original_node": {
          "links": {
            "related": {
              "href": "http://localhost:8000/v2/nodes/3e7rd/",
              "meta": {}
            }
          }
        },
        "user": {
          "links": {
            "related": {
              "href": "http://localhost:8000/v2/users/qmdz6/",
              "meta": {}
            }
          }
        },
        "contributors": {
          "links": {
            "related": {
              "href": "http://localhost:8000/v2/logs/575705d9c7950c0045ac8005/contributors/",
              "meta": {}
            }
          }
        }
      },
      "links": {
        "self": "http://localhost:8000/v2/logs/575705d9c7950c0045ac8005/"
      },
      "attributes": {
        "date": "2016-06-03T18:01:15.812000",
        "action": "contributor_added",
        "params": {
          "params_node": {
            "id": "3e7rd",
            "title": "Project Two"
          },
          "params_project": null
        }
      },
      "type": "logs",
      "id": "575705d9c7950c0045ac8005"
    }
  ],
  "links": {
    "first": null,
    "last": "http://localhost:8000/v2/registrations/x2mjh/logs/?page=2",
    "prev": null,
    "next": "http://localhost:8000/v2/registrations/x2mjh/logs/?page=2",
    "meta": {
      "total": 11,
      "per_page": 10
    }
  }
}
