{
  "data": [
    {
      "attributes": {
        "action": "tag_added",
        "date": "2017-01-04T19:58:08.846000Z",
        "params": {
          "contributors": [],
          "params_node": {
            "id": "gp9fn",
            "title": "NGS2 Sample Project"
          },
          "params_project": null,
          "preprint_provider": null,
          "tag": "Next Generation Social Science"
        }
      },
      "id": "586d53d0b83f6901fd065722",
      "links": {
        "self": "http://localhost:8000/v2/logs/586d53d0b83f6901fd065722/"
      },
      "relationships": {
        "node": {
          "links": {
            "related": {
              "href": "http://localhost:8000/v2/nodes/gp9fn/",
              "meta": {}
            }
          }
        },
        "original_node": {
          "links": {
            "related": {
              "href": "http://localhost:8000/v2/nodes/gp9fn/",
              "meta": {}
            }
          }
        },
        "user": {
          "links": {
            "related": {
              "href": "http://localhost:8000/v2/users/yc53f/",
              "meta": {}
            }
          }
        }
      },
      "type": "logs"
    },
    {
      "attributes": {
        "action": "tag_added",
        "date": "2017-01-04T19:57:57.316000Z",
        "params": {
          "contributors": [],
          "params_node": {
            "id": "gp9fn",
            "title": "NGS2 Sample Project"
          },
          "params_project": null,
          "preprint_provider": null,
          "tag": "NGS2"
        }
      },
      "id": "586d53c5594d9001fc01ecdb",
      "links": {
        "self": "http://localhost:8000/v2/logs/586d53c5594d9001fc01ecdb/"
      },
      "relationships": {
        "node": {
          "links": {
            "related": {
              "href": "http://localhost:8000/v2/nodes/gp9fn/",
              "meta": {}
            }
          }
        },
        "original_node": {
          "links": {
            "related": {
              "href": "http://localhost:8000/v2/nodes/gp9fn/",
              "meta": {}
            }
          }
        },
        "user": {
          "links": {
            "related": {
              "href": "http://localhost:8000/v2/users/yc53f/",
              "meta": {}
            }
          }
        }
      },
      "type": "logs"
    },
    {
      "attributes": {
        "action": "external_ids_added",
        "date": "2017-01-04T19:57:31.709000Z",
        "params": {
          "contributors": [],
          "identifiers": {
            "ark": "c7605/osf.io/gp9fn",
            "doi": "10.17605/OSF.IO/GP9FN"
          },
          "params_node": {
            "id": "gp9fn",
            "title": "NGS2 Sample Project"
          },
          "params_project": null,
          "preprint_provider": null
        }
      },
      "id": "586d53ab594d9001f901ec6c",
      "links": {
        "self": "http://localhost:8000/v2/logs/586d53ab594d9001f901ec6c/"
      },
      "relationships": {
        "node": {
          "links": {
            "related": {
              "href": "http://localhost:8000/v2/nodes/gp9fn/",
              "meta": {}
            }
          }
        },
        "original_node": {
          "links": {
            "related": {
              "href": "http://localhost:8000/v2/nodes/gp9fn/",
              "meta": {}
            }
          }
        },
        "user": {
          "links": {
            "related": {
              "href": "http://localhost:8000/v2/users/yc53f/",
              "meta": {}
            }
          }
        }
      },
      "type": "logs"
    },
    {
      "attributes": {
        "action": "made_public",
        "date": "2017-01-04T19:57:12.108000Z",
        "params": {
          "contributors": [],
          "params_node": {
            "id": "e84gf",
            "title": "Analysis"
          },
          "params_project": {
            "id": "33s5k",
            "title": "Experiment 1"
          },
          "preprint_provider": null
        }
      },
      "id": "586d5398594d90020a3aee24",
      "links": {
        "self": "http://localhost:8000/v2/logs/586d5398594d90020a3aee24/"
      },
      "relationships": {
        "node": {
          "links": {
            "related": {
              "href": "http://localhost:8000/v2/nodes/e84gf/",
              "meta": {}
            }
          }
        },
        "original_node": {
          "links": {
            "related": {
              "href": "http://localhost:8000/v2/nodes/e84gf/",
              "meta": {}
            }
          }
        },
        "user": {
          "links": {
            "related": {
              "href": "http://localhost:8000/v2/users/yc53f/",
              "meta": {}
            }
          }
        }
      },
      "type": "logs"
    },
    {
      "attributes": {
        "action": "made_public",
        "date": "2017-01-04T19:57:11.981000Z",
        "params": {
          "contributors": [],
          "params_node": {
            "id": "pnxb7",
            "title": "Experiment 2"
          },
          "params_project": {
            "id": "m5ct4",
            "title": "Cycle 1"
          },
          "preprint_provider": null
        }
      },
      "id": "586d5397594d90020a3aee22",
      "links": {
        "self": "http://localhost:8000/v2/logs/586d5397594d90020a3aee22/"
      },
      "relationships": {
        "node": {
          "links": {
            "related": {
              "href": "http://localhost:8000/v2/nodes/pnxb7/",
              "meta": {}
            }
          }
        },
        "original_node": {
          "links": {
            "related": {
              "href": "http://localhost:8000/v2/nodes/pnxb7/",
              "meta": {}
            }
          }
        },
        "user": {
          "links": {
            "related": {
              "href": "http://localhost:8000/v2/users/yc53f/",
              "meta": {}
            }
          }
        }
      },
      "type": "logs"
    },
    {
      "attributes": {
        "action": "made_public",
        "date": "2017-01-04T19:57:11.792000Z",
        "params": {
          "contributors": [],
          "params_node": {
            "id": "w3fqg",
            "title": "Data"
          },
          "params_project": {
            "id": "33s5k",
            "title": "Experiment 1"
          },
          "preprint_provider": null
        }
      },
      "id": "586d5397594d90020a3aee20",
      "links": {
        "self": "http://localhost:8000/v2/logs/586d5397594d90020a3aee20/"
      },
      "relationships": {
        "node": {
          "links": {
            "related": {
              "href": "http://localhost:8000/v2/nodes/w3fqg/",
              "meta": {}
            }
          }
        },
        "original_node": {
          "links": {
            "related": {
              "href": "http://localhost:8000/v2/nodes/w3fqg/",
              "meta": {}
            }
          }
        },
        "user": {
          "links": {
            "related": {
              "href": "http://localhost:8000/v2/users/yc53f/",
              "meta": {}
            }
          }
        }
      },
      "type": "logs"
    },
    {
      "attributes": {
        "action": "made_public",
        "date": "2017-01-04T19:57:11.643000Z",
        "params": {
          "contributors": [],
          "params_node": {
            "id": "4s826",
            "title": "Predictive Modeling"
          },
          "params_project": {
            "id": "33s5k",
            "title": "Experiment 1"
          },
          "preprint_provider": null
        }
      },
      "id": "586d5397594d90020a3aee1e",
      "links": {
        "self": "http://localhost:8000/v2/logs/586d5397594d90020a3aee1e/"
      },
      "relationships": {
        "node": {
          "links": {
            "related": {
              "href": "http://localhost:8000/v2/nodes/4s826/",
              "meta": {}
            }
          }
        },
        "original_node": {
          "links": {
            "related": {
              "href": "http://localhost:8000/v2/nodes/4s826/",
              "meta": {}
            }
          }
        },
        "user": {
          "links": {
            "related": {
              "href": "http://localhost:8000/v2/users/yc53f/",
              "meta": {}
            }
          }
        }
      },
      "type": "logs"
    },
    {
      "attributes": {
        "action": "made_public",
        "date": "2017-01-04T19:57:11.500000Z",
        "params": {
          "contributors": [],
          "params_node": {
            "id": "33s5k",
            "title": "Experiment 1"
          },
          "params_project": {
            "id": "m5ct4",
            "title": "Cycle 1"
          },
          "preprint_provider": null
        }
      },
      "id": "586d5397594d90020a3aee1c",
      "links": {
        "self": "http://localhost:8000/v2/logs/586d5397594d90020a3aee1c/"
      },
      "relationships": {
        "node": {
          "links": {
            "related": {
              "href": "http://localhost:8000/v2/nodes/33s5k/",
              "meta": {}
            }
          }
        },
        "original_node": {
          "links": {
            "related": {
              "href": "http://localhost:8000/v2/nodes/33s5k/",
              "meta": {}
            }
          }
        },
        "user": {
          "links": {
            "related": {
              "href": "http://localhost:8000/v2/users/yc53f/",
              "meta": {}
            }
          }
        }
      },
      "type": "logs"
    },
    {
      "attributes": {
        "action": "made_public",
        "date": "2017-01-04T19:57:11.339000Z",
        "params": {
          "contributors": [],
          "params_node": {
            "id": "e23vu",
            "title": "Technical Details"
          },
          "params_project": {
            "id": "gp9fn",
            "title": "NGS2 Sample Project"
          },
          "preprint_provider": null
        }
      },
      "id": "586d5397594d90020a3aee1a",
      "links": {
        "self": "http://localhost:8000/v2/logs/586d5397594d90020a3aee1a/"
      },
      "relationships": {
        "node": {
          "links": {
            "related": {
              "href": "http://localhost:8000/v2/nodes/e23vu/",
              "meta": {}
            }
          }
        },
        "original_node": {
          "links": {
            "related": {
              "href": "http://localhost:8000/v2/nodes/e23vu/",
              "meta": {}
            }
          }
        },
        "user": {
          "links": {
            "related": {
              "href": "http://localhost:8000/v2/users/yc53f/",
              "meta": {}
            }
          }
        }
      },
      "type": "logs"
    },
    {
      "attributes": {
        "action": "made_public",
        "date": "2017-01-04T19:57:11.153000Z",
        "params": {
          "contributors": [],
          "params_node": {
            "id": "wq92y",
            "title": "Study Materials"
          },
          "params_project": {
            "id": "33s5k",
            "title": "Experiment 1"
          },
          "preprint_provider": null
        }
      },
      "id": "586d5397594d90020a3aee18",
      "links": {
        "self": "http://localhost:8000/v2/logs/586d5397594d90020a3aee18/"
      },
      "relationships": {
        "node": {
          "links": {
            "related": {
              "href": "http://localhost:8000/v2/nodes/wq92y/",
              "meta": {}
            }
          }
        },
        "original_node": {
          "links": {
            "related": {
              "href": "http://localhost:8000/v2/nodes/wq92y/",
              "meta": {}
            }
          }
        },
        "user": {
          "links": {
            "related": {
              "href": "http://localhost:8000/v2/users/yc53f/",
              "meta": {}
            }
          }
        }
      },
      "type": "logs"
    }
  ],
  "links": {
    "first": null,
    "last": "http://localhost:8000/v2/nodes/gp9fn/logs/?page=16",
    "next": "http://localhost:8000/v2/nodes/gp9fn/logs/?page=2",
    "prev": null,
    "self": "http://localhost:8000/v2/nodes/gp9fn/logs/"
  },
  "meta": {
    "per_page": 10,
    "total": 154
  }
}
