{
  "data": [
    {
      "attributes": {
        "action": "made_public",
        "date": "2016-12-06T17:58:52.720000Z",
        "params": {
          "contributors": [],
          "params_node": {
            "id": "3dhmx",
            "title": "Transcripts"
          },
          "params_project": {
            "id": "y9mpx",
            "title": "Container Strategies for Data and Software Preservation Workshop"
          },
          "preprint_provider": null
        }
      },
      "id": "5846fc5cb83f6901fe0a27d1",
      "links": {
        "self": "http://localhost:8000/v2/logs/5846fc5cb83f6901fe0a27d1/"
      },
      "relationships": {
        "node": {
          "links": {
            "related": {
              "href": "http://localhost:8000/v2/nodes/3dhmx/",
              "meta": {}
            }
          }
        },
        "original_node": {
          "links": {
            "related": {
              "href": "http://localhost:8000/v2/nodes/3dhmx/",
              "meta": {}
            }
          }
        },
        "user": {
          "links": {
            "related": {
              "href": "http://localhost:8000/v2/users/a45nu/",
              "meta": {}
            }
          }
        }
      },
      "type": "logs"
    },
    {
      "attributes": {
        "action": "tag_added",
        "date": "2016-08-28T05:57:22.375000Z",
        "params": {
          "contributors": [],
          "params_node": {
            "id": "3dhmx",
            "title": "Transcripts"
          },
          "params_project": null,
          "preprint_provider": null,
          "tag": "CRC"
        }
      },
      "id": "57c27d42594d900209358c75",
      "links": {
        "self": "http://localhost:8000/v2/logs/57c27d42594d900209358c75/"
      },
      "relationships": {
        "node": {
          "links": {
            "related": {
              "href": "http://localhost:8000/v2/nodes/3dhmx/",
              "meta": {}
            }
          }
        },
        "original_node": {
          "links": {
            "related": {
              "href": "http://localhost:8000/v2/nodes/3dhmx/",
              "meta": {}
            }
          }
        },
        "user": {
          "links": {
            "related": {
              "href": "http://localhost:8000/v2/users/a45nu/",
              "meta": {}
            }
          }
        }
      },
      "type": "logs"
    },
    {
      "attributes": {
        "action": "tag_added",
        "date": "2016-08-28T05:57:15.365000Z",
        "params": {
          "contributors": [],
          "params_node": {
            "id": "3dhmx",
            "title": "Transcripts"
          },
          "params_project": null,
          "preprint_provider": null,
          "tag": "National Data Service"
        }
      },
      "id": "57c27d3b6c613b01f78d690e",
      "links": {
        "self": "http://localhost:8000/v2/logs/57c27d3b6c613b01f78d690e/"
      },
      "relationships": {
        "node": {
          "links": {
            "related": {
              "href": "http://localhost:8000/v2/nodes/3dhmx/",
              "meta": {}
            }
          }
        },
        "original_node": {
          "links": {
            "related": {
              "href": "http://localhost:8000/v2/nodes/3dhmx/",
              "meta": {}
            }
          }
        },
        "user": {
          "links": {
            "related": {
              "href": "http://localhost:8000/v2/users/a45nu/",
              "meta": {}
            }
          }
        }
      },
      "type": "logs"
    },
    {
      "attributes": {
        "action": "tag_added",
        "date": "2016-08-28T05:57:08.698000Z",
        "params": {
          "contributors": [],
          "params_node": {
            "id": "3dhmx",
            "title": "Transcripts"
          },
          "params_project": null,
          "preprint_provider": null,
          "tag": "umbrella"
        }
      },
      "id": "57c27d34b83f6901fdc4a7cf",
      "links": {
        "self": "http://localhost:8000/v2/logs/57c27d34b83f6901fdc4a7cf/"
      },
      "relationships": {
        "node": {
          "links": {
            "related": {
              "href": "http://localhost:8000/v2/nodes/3dhmx/",
              "meta": {}
            }
          }
        },
        "original_node": {
          "links": {
            "related": {
              "href": "http://localhost:8000/v2/nodes/3dhmx/",
              "meta": {}
            }
          }
        },
        "user": {
          "links": {
            "related": {
              "href": "http://localhost:8000/v2/users/a45nu/",
              "meta": {}
            }
          }
        }
      },
      "type": "logs"
    },
    {
      "attributes": {
        "action": "tag_added",
        "date": "2016-08-28T05:57:02.526000Z",
        "params": {
          "contributors": [],
          "params_node": {
            "id": "3dhmx",
            "title": "Transcripts"
          },
          "params_project": null,
          "preprint_provider": null,
          "tag": "reprozip"
        }
      },
      "id": "57c27d2eb83f690202c4a7c6",
      "links": {
        "self": "http://localhost:8000/v2/logs/57c27d2eb83f690202c4a7c6/"
      },
      "relationships": {
        "node": {
          "links": {
            "related": {
              "href": "http://localhost:8000/v2/nodes/3dhmx/",
              "meta": {}
            }
          }
        },
        "original_node": {
          "links": {
            "related": {
              "href": "http://localhost:8000/v2/nodes/3dhmx/",
              "meta": {}
            }
          }
        },
        "user": {
          "links": {
            "related": {
              "href": "http://localhost:8000/v2/users/a45nu/",
              "meta": {}
            }
          }
        }
      },
      "type": "logs"
    },
    {
      "attributes": {
        "action": "tag_added",
        "date": "2016-08-28T05:56:57.816000Z",
        "params": {
          "contributors": [],
          "params_node": {
            "id": "3dhmx",
            "title": "Transcripts"
          },
          "params_project": null,
          "preprint_provider": null,
          "tag": "docker"
        }
      },
      "id": "57c27d29b83f6901ffc4abb4",
      "links": {
        "self": "http://localhost:8000/v2/logs/57c27d29b83f6901ffc4abb4/"
      },
      "relationships": {
        "node": {
          "links": {
            "related": {
              "href": "http://localhost:8000/v2/nodes/3dhmx/",
              "meta": {}
            }
          }
        },
        "original_node": {
          "links": {
            "related": {
              "href": "http://localhost:8000/v2/nodes/3dhmx/",
              "meta": {}
            }
          }
        },
        "user": {
          "links": {
            "related": {
              "href": "http://localhost:8000/v2/users/a45nu/",
              "meta": {}
            }
          }
        }
      },
      "type": "logs"
    },
    {
      "attributes": {
        "action": "tag_added",
        "date": "2016-08-28T05:56:55.652000Z",
        "params": {
          "contributors": [],
          "params_node": {
            "id": "3dhmx",
            "title": "Transcripts"
          },
          "params_project": null,
          "preprint_provider": null,
          "tag": "software containers"
        }
      },
      "id": "57c27d279ad5a1020c4c8ef5",
      "links": {
        "self": "http://localhost:8000/v2/logs/57c27d279ad5a1020c4c8ef5/"
      },
      "relationships": {
        "node": {
          "links": {
            "related": {
              "href": "http://localhost:8000/v2/nodes/3dhmx/",
              "meta": {}
            }
          }
        },
        "original_node": {
          "links": {
            "related": {
              "href": "http://localhost:8000/v2/nodes/3dhmx/",
              "meta": {}
            }
          }
        },
        "user": {
          "links": {
            "related": {
              "href": "http://localhost:8000/v2/users/a45nu/",
              "meta": {}
            }
          }
        }
      },
      "type": "logs"
    },
    {
      "attributes": {
        "action": "tag_added",
        "date": "2016-08-28T05:56:51.177000Z",
        "params": {
          "contributors": [],
          "params_node": {
            "id": "3dhmx",
            "title": "Transcripts"
          },
          "params_project": null,
          "preprint_provider": null,
          "tag": "daspos"
        }
      },
      "id": "57c27d23b83f6901fcc4a7f9",
      "links": {
        "self": "http://localhost:8000/v2/logs/57c27d23b83f6901fcc4a7f9/"
      },
      "relationships": {
        "node": {
          "links": {
            "related": {
              "href": "http://localhost:8000/v2/nodes/3dhmx/",
              "meta": {}
            }
          }
        },
        "original_node": {
          "links": {
            "related": {
              "href": "http://localhost:8000/v2/nodes/3dhmx/",
              "meta": {}
            }
          }
        },
        "user": {
          "links": {
            "related": {
              "href": "http://localhost:8000/v2/users/a45nu/",
              "meta": {}
            }
          }
        }
      },
      "type": "logs"
    },
    {
      "attributes": {
        "action": "tag_added",
        "date": "2016-08-28T05:56:49.070000Z",
        "params": {
          "contributors": [],
          "params_node": {
            "id": "3dhmx",
            "title": "Transcripts"
          },
          "params_project": null,
          "preprint_provider": null,
          "tag": "transcripts"
        }
      },
      "id": "57c27d21594d900207358d54",
      "links": {
        "self": "http://localhost:8000/v2/logs/57c27d21594d900207358d54/"
      },
      "relationships": {
        "node": {
          "links": {
            "related": {
              "href": "http://localhost:8000/v2/nodes/3dhmx/",
              "meta": {}
            }
          }
        },
        "original_node": {
          "links": {
            "related": {
              "href": "http://localhost:8000/v2/nodes/3dhmx/",
              "meta": {}
            }
          }
        },
        "user": {
          "links": {
            "related": {
              "href": "http://localhost:8000/v2/users/a45nu/",
              "meta": {}
            }
          }
        }
      },
      "type": "logs"
    },
    {
      "attributes": {
        "action": "wiki_updated",
        "date": "2016-08-28T05:56:15.306000Z",
        "params": {
          "contributors": [],
          "page": "home",
          "page_id": "3nd42",
          "params_node": {
            "id": "3dhmx",
            "title": "Transcripts"
          },
          "params_project": {
            "id": "y9mpx",
            "title": "Container Strategies for Data and Software Preservation Workshop"
          },
          "preprint_provider": null,
          "version": "1"
        }
      },
      "id": "57c27cff594d900207358d53",
      "links": {
        "self": "http://localhost:8000/v2/logs/57c27cff594d900207358d53/"
      },
      "relationships": {
        "node": {
          "links": {
            "related": {
              "href": "http://localhost:8000/v2/nodes/3dhmx/",
              "meta": {}
            }
          }
        },
        "original_node": {
          "links": {
            "related": {
              "href": "http://localhost:8000/v2/nodes/3dhmx/",
              "meta": {}
            }
          }
        },
        "user": {
          "links": {
            "related": {
              "href": "http://localhost:8000/v2/users/a45nu/",
              "meta": {}
            }
          }
        }
      },
      "type": "logs"
    }
  ],
  "links": {
    "first": null,
    "last": "http://localhost:8000/v2/nodes/3dhmx/logs/?page=2",
    "next": "http://localhost:8000/v2/nodes/3dhmx/logs/?page=2",
    "prev": null,
    "self": "http://localhost:8000/v2/nodes/3dhmx/logs/"
  },
  "meta": {
    "per_page": 10,
    "total": 19
  }
}
