{
  "data": {
    "relationships": {
      "files": {
        "links": {
          "related": {
            "href": "http://192.168.99.100:8000/v2/nodes/r5s4u/files/",
            "meta": {
            }
          }
        }
      },
      "logs": {
        "links": {
          "related": {
            "href": "http://192.168.99.100:8000/v2/nodes/r5s4u/logs/",
            "meta": {
            }
          }
        }
      },
      "primary_institution": {
        "links": {
          "self": {
            "href": "http://192.168.99.100:8000/v2/nodes/r5s4u/relationships/institution/",
            "meta": {
            }
          },
          "related": {
            "href": "http://192.168.99.100:8000/v2/nodes/r5s4u/institution/",
            "meta": {
            }
          }
        }
      },
      "comments": {
        "links": {
          "related": {
            "href": "http://192.168.99.100:8000/v2/nodes/r5s4u/comments/",
            "meta": {
            }
          }
        }
      },
      "registrations": {
        "links": {
          "related": {
            "href": "http://192.168.99.100:8000/v2/nodes/r5s4u/registrations/",
            "meta": {
            }
          }
        }
      },
      "node_links": {
        "links": {
          "related": {
            "href": "http://192.168.99.100:8000/v2/nodes/r5s4u/node_links/",
            "meta": {
            }
          }
        }
      },
      "contributors": {
        "links": {
          "related": {
            "href": "http://192.168.99.100:8000/v2/nodes/r5s4u/contributors/",
            "meta": {
            }
          }
        },
        "data": [
          {
            "type": "contributors",
            "id": "a3q2g"
          }
        ]
      },
      "root": {
        "links": {
          "related": {
            "href": "http://192.168.99.100:8000/v2/nodes/r5s4u/",
            "meta": {
            }
          }
        },
        "data": {
          "type": "nodes",
          "id": "r5s4u"
        }
      },
      "children": {
        "links": {
          "related": "http://192.168.99.100:8000/v2/nodes/r5s4u/children/",
          "first": "http://192.168.99.100:8000/v2/nodes/r5s4u/children/?page=1",
          "last": "http://192.168.99.100:8000/v2/nodes/r5s4u/children/?page=10",
          "prev": null,
          "next": "http://192.168.99.100:8000/v2/nodes/r5s4u/children/?page=2",
          "meta": {
            "total": 100,
            "per_page": 10
          }
        },
        "data": [
          {
            "type": "nodes",
            "id": "v8x57"
          }
        ]
      }
    },
    "links": {
      "self": "http://192.168.99.100:8000/v2/nodes/r5s4u/",
      "html": "http://192.168.99.100:5000/r5s4u/"
    },
    "attributes": {
      "category": "project",
      "fork": false,
      "description": "My first project created through the OSF UI",
      "current_user_permissions": [
        "read",
        "write",
        "admin"
      ],
      "date_modified": "2016-04-20T01:29:28.730000",
      "title": "First Proj",
      "collection": false,
      "registration": false,
      "date_created": "2016-04-19T13:06:25.038000",
      "public": false,
      "tags": [
        "firstproject",
        "newbie"
      ]
    },
    "type": "nodes",
    "id": "r5s4u"
  },
  "includes": [
    {
      "type": "contributors",
      "id": "a3q2g",
      "attributes": {
        "bibliographic": true,
        "permission": "admin"
      },
      "links": {
        "self": "http://192.168.99.100:8000/v2/nodes/r5s4u/contributors/a3q2g/",
        "user": "http://192.168.99.100:8000/v2/users/a3q2g/"
      },
      "data": {
        "type": "users",
        "id": "a3q2g"
      }
    },
    {
      "type": "users",
      "id": "a3q2g",
      "relationships": {
        "nodes": {
          "links": {
            "related": {
              "href": "http://192.168.99.100:8000/v2/users/a3q2g/nodes/",
              "meta": {
              }
            }
          }
        },
        "institutions": {
          "links": {
            "self": {
              "href": "http://192.168.99.100:8000/v2/users/a3q2g/relationships/institutions/",
              "meta": {
              }
            },
            "related": {
              "href": "http://192.168.99.100:8000/v2/users/a3q2g/institutions/",
              "meta": {
              }
            }
          }
        },
        "registrations": {
          "links": {
            "related": {
              "href": "http://192.168.99.100:8000/v2/users/a3q2g/registrations/",
              "meta": {
              }
            }
          }
        }
      },
      "links": {
        "self": "http://192.168.99.100:8000/v2/users/a3q2g/",
        "html": "http://192.168.99.100:5000/a3q2g/",
        "profile_image": "https://secure.gravatar.com/avatar/90bbc2cb7740b04be9acee67f2ea5169?d=identicon"
      },
      "attributes": {
        "family_name": "Metsger",
        "gitHub": "",
        "suffix": "",
        "personal_website": "",
        "academiaInstitution": "",
        "baiduScholar": "",
        "twitter": "",
        "locale": "en_US",
        "linkedIn": "",
        "date_registered": "2016-04-19T13:05:36.232000",
        "orcid": "",
        "middle_names": "",
        "researcherId": "",
        "given_name": "Elliot",
        "full_name": "Elliot Metsger",
        "timezone": "Etc/UTC",
        "active": true,
        "academiaProfileID": "",
        "researchGate": "",
        "impactStory": "",
        "scholar": ""
      }
    },
    {
      "type": "nodes",
      "id": "v8x57",
      "links": {
        "self": "http://192.168.99.100:8000/v2/nodes/v8x57/",
        "html": "http://192.168.99.100:5000/v8x57/"
      },
      "relationships": {
        "files": {
          "links": {
            "related": {
              "href": "http://192.168.99.100:8000/v2/nodes/v8x57/files/",
              "meta": {
              }
            }
          }
        },
        "contributors": {
          "links": {
            "related": {
              "href": "http://192.168.99.100:8000/v2/nodes/v8x57/contributors/",
              "meta": {
              }
            }
          }
        },
        "parent": {
          "links": {
            "related": {
              "href": "http://192.168.99.100:8000/v2/nodes/r5s4u/",
              "meta": {
              }
            }
          }
        },
        "comments": {
          "links": {
            "related": {
              "href": "http://192.168.99.100:8000/v2/nodes/v8x57/comments/",
              "meta": {
              }
            }
          }
        },
        "registrations": {
          "links": {
            "related": {
              "href": "http://192.168.99.100:8000/v2/nodes/v8x57/registrations/",
              "meta": {
              }
            }
          }
        },
        "node_links": {
          "links": {
            "related": {
              "href": "http://192.168.99.100:8000/v2/nodes/v8x57/node_links/",
              "meta": {
              }
            }
          }
        },
        "primary_institution": {
          "links": {
            "self": {
              "href": "http://192.168.99.100:8000/v2/nodes/v8x57/relationships/institution/",
              "meta": {
              }
            },
            "related": {
              "href": "http://192.168.99.100:8000/v2/nodes/v8x57/institution/",
              "meta": {
              }
            }
          }
        },
        "root": {
          "links": {
            "related": {
              "href": "http://192.168.99.100:8000/v2/nodes/r5s4u/",
              "meta": {
              }
            }
          }
        },
        "children": {
          "links": {
            "related": {
              "href": "http://192.168.99.100:8000/v2/nodes/v8x57/children/",
              "meta": {
              }
            }
          }
        },
        "logs": {
          "links": {
            "related": {
              "href": "http://192.168.99.100:8000/v2/nodes/v8x57/logs/",
              "meta": {
              }
            }
          }
        }
      },
      "attributes": {
        "category": "data",
        "fork": false,
        "description": null,
        "current_user_permissions": [
          "read",
          "write",
          "admin"
        ],
        "date_modified": "2016-04-21T19:01:34.098000",
        "title": "Raw Data",
        "collection": false,
        "registration": false,
        "date_created": "2016-04-19T13:08:24.039000",
        "public": false,
        "tags": [
        ]
      }
    }
  ]
}