{
  "data": [
    {
      "attributes": {
        "bibliographic": true,
        "index": 0,
        "permission": "write",
        "unregistered_contributor": null
      },
      "embeds": {
        "users": {
          "data": {
            "attributes": {
              "active": true,
              "date_registered": "2015-12-09T17:50:38.284000Z",
              "family_name": "Meng",
              "full_name": "Haiyan Meng",
              "given_name": "Haiyan",
              "locale": "en_US",
              "middle_names": "",
              "suffix": "",
              "timezone": "America/New_York"
            },
            "id": "w8g7u",
            "links": {
              "html": "http://osf.io/w8g7u/",
              "profile_image": "http://secure.gravatar.com/avatar/bf44411ab6d7b3f15c0c94b0be897d83?d=identicon",
              "self": "http://localhost:8000/v2/users/w8g7u/"
            },
            "relationships": {
              "institutions": {
                "links": {
                  "related": {
                    "href": "http://localhost:8000/v2/users/w8g7u/institutions/",
                    "meta": {}
                  },
                  "self": {
                    "href": "http://localhost:8000/v2/users/w8g7u/relationships/institutions/",
                    "meta": {}
                  }
                }
              },
              "nodes": {
                "links": {
                  "related": {
                    "href": "http://localhost:8000/v2/users/w8g7u/nodes/",
                    "meta": {}
                  }
                }
              }
            },
            "type": "users"
          }
        }
      },
      "id": "adcjz-w8g7u",
      "links": {
        "self": "http://localhost:8000/v2/nodes/adcjz/contributors/w8g7u/"
      },
      "relationships": {
        "node": {
          "links": {
            "related": {
              "href": "http://localhost:8000/v2/nodes/adcjz/",
              "meta": {}
            }
          }
        },
        "users": {
          "links": {
            "related": {
              "href": "http://localhost:8000/v2/users/w8g7u/",
              "meta": {}
            }
          }
        }
      },
      "type": "contributors"
    },
    {
      "attributes": {
        "bibliographic": true,
        "index": 1,
        "permission": "write",
        "unregistered_contributor": null
      },
      "embeds": {
        "users": {
          "data": {
            "attributes": {
              "active": true,
              "date_registered": "2015-06-30T18:35:42.391000Z",
              "family_name": "Vyushkov",
              "full_name": "Alexander Vyushkov",
              "given_name": "Alexander",
              "locale": "en_US",
              "middle_names": "",
              "suffix": "",
              "timezone": "America/Indianapolis"
            },
            "id": "kh4n3",
            "links": {
              "html": "http://osf.io/kh4n3/",
              "profile_image": "http://secure.gravatar.com/avatar/983e045ce4893a664ae92b8ebce05d18?d=identicon",
              "self": "http://localhost:8000/v2/users/kh4n3/"
            },
            "relationships": {
              "institutions": {
                "links": {
                  "related": {
                    "href": "http://localhost:8000/v2/users/kh4n3/institutions/",
                    "meta": {}
                  },
                  "self": {
                    "href": "http://localhost:8000/v2/users/kh4n3/relationships/institutions/",
                    "meta": {}
                  }
                }
              },
              "nodes": {
                "links": {
                  "related": {
                    "href": "http://localhost:8000/v2/users/kh4n3/nodes/",
                    "meta": {}
                  }
                }
              }
            },
            "type": "users"
          }
        }
      },
      "id": "adcjz-kh4n3",
      "links": {
        "self": "http://localhost:8000/v2/nodes/adcjz/contributors/kh4n3/"
      },
      "relationships": {
        "node": {
          "links": {
            "related": {
              "href": "http://localhost:8000/v2/nodes/adcjz/",
              "meta": {}
            }
          }
        },
        "users": {
          "links": {
            "related": {
              "href": "http://localhost:8000/v2/users/kh4n3/",
              "meta": {}
            }
          }
        }
      },
      "type": "contributors"
    },
    {
      "attributes": {
        "bibliographic": true,
        "index": 2,
        "permission": "write",
        "unregistered_contributor": "Douglas Thain"
      },
      "embeds": {
        "users": {
          "data": {
            "attributes": {
              "active": false,
              "date_registered": "2016-05-05T16:22:39.640000Z",
              "family_name": "Thain",
              "full_name": "Douglas Thain",
              "given_name": "Douglas",
              "locale": "en_US",
              "middle_names": "",
              "suffix": "",
              "timezone": "Etc/UTC"
            },
            "id": "na2rw",
            "links": {
              "html": "http://osf.io/na2rw/",
              "profile_image": "http://secure.gravatar.com/avatar/bab71c85fc036e0aa68dc4a9b0d86078?d=identicon",
              "self": null
            },
            "relationships": {
              "institutions": {
                "links": {
                  "related": {
                    "href": "http://localhost:8000/v2/users/na2rw/institutions/",
                    "meta": {}
                  },
                  "self": {
                    "href": "http://localhost:8000/v2/users/na2rw/relationships/institutions/",
                    "meta": {}
                  }
                }
              },
              "nodes": {
                "links": {
                  "related": {
                    "href": "http://localhost:8000/v2/users/na2rw/nodes/",
                    "meta": {}
                  }
                }
              }
            },
            "type": "users"
          }
        }
      },
      "id": "adcjz-na2rw",
      "links": {
        "self": "http://localhost:8000/v2/nodes/adcjz/contributors/na2rw/"
      },
      "relationships": {
        "node": {
          "links": {
            "related": {
              "href": "http://localhost:8000/v2/nodes/adcjz/",
              "meta": {}
            }
          }
        },
        "users": {
          "links": {
            "related": {
              "href": "http://localhost:8000/v2/users/na2rw/",
              "meta": {}
            }
          }
        }
      },
      "type": "contributors"
    },
    {
      "attributes": {
        "bibliographic": false,
        "index": 3,
        "permission": "admin",
        "unregistered_contributor": null
      },
      "embeds": {
        "users": {
          "data": {
            "attributes": {
              "active": true,
              "date_registered": "2014-03-19T17:37:44.674000Z",
              "family_name": "Bowman",
              "full_name": "Sara Bowman",
              "given_name": "Sara",
              "locale": "en_US",
              "middle_names": "D.",
              "suffix": "",
              "timezone": "America/New_York"
            },
            "id": "d9ehg",
            "links": {
              "html": "http://osf.io/d9ehg/",
              "profile_image": "http://secure.gravatar.com/avatar/897cc7db063d509c2d385534d27b1a51?d=identicon",
              "self": "http://localhost:8000/v2/users/d9ehg/"
            },
            "relationships": {
              "institutions": {
                "links": {
                  "related": {
                    "href": "http://localhost:8000/v2/users/d9ehg/institutions/",
                    "meta": {}
                  },
                  "self": {
                    "href": "http://localhost:8000/v2/users/d9ehg/relationships/institutions/",
                    "meta": {}
                  }
                }
              },
              "nodes": {
                "links": {
                  "related": {
                    "href": "http://localhost:8000/v2/users/d9ehg/nodes/",
                    "meta": {}
                  }
                }
              }
            },
            "type": "users"
          }
        }
      },
      "id": "adcjz-d9ehg",
      "links": {
        "self": "http://localhost:8000/v2/nodes/adcjz/contributors/d9ehg/"
      },
      "relationships": {
        "node": {
          "links": {
            "related": {
              "href": "http://localhost:8000/v2/nodes/adcjz/",
              "meta": {}
            }
          }
        },
        "users": {
          "links": {
            "related": {
              "href": "http://localhost:8000/v2/users/d9ehg/",
              "meta": {}
            }
          }
        }
      },
      "type": "contributors"
    },
    {
      "attributes": {
        "bibliographic": false,
        "index": 4,
        "permission": "admin",
        "unregistered_contributor": null
      },
      "embeds": {
        "users": {
          "data": {
            "attributes": {
              "active": true,
              "date_registered": "2015-02-18T20:48:49.095000Z",
              "family_name": "Meyers",
              "full_name": "Natalie Meyers",
              "given_name": "Natalie",
              "locale": "en_US",
              "middle_names": "K",
              "suffix": "",
              "timezone": "America/Indianapolis"
            },
            "id": "a45nu",
            "links": {
              "html": "http://osf.io/a45nu/",
              "profile_image": "http://secure.gravatar.com/avatar/89b4cfe4617a5e7d330989ba93d6fce1?d=identicon",
              "self": "http://localhost:8000/v2/users/a45nu/"
            },
            "relationships": {
              "institutions": {
                "links": {
                  "related": {
                    "href": "http://localhost:8000/v2/users/a45nu/institutions/",
                    "meta": {}
                  },
                  "self": {
                    "href": "http://localhost:8000/v2/users/a45nu/relationships/institutions/",
                    "meta": {}
                  }
                }
              },
              "nodes": {
                "links": {
                  "related": {
                    "href": "http://localhost:8000/v2/users/a45nu/nodes/",
                    "meta": {}
                  }
                }
              }
            },
            "type": "users"
          }
        }
      },
      "id": "adcjz-a45nu",
      "links": {
        "self": "http://localhost:8000/v2/nodes/adcjz/contributors/a45nu/"
      },
      "relationships": {
        "node": {
          "links": {
            "related": {
              "href": "http://localhost:8000/v2/nodes/adcjz/",
              "meta": {}
            }
          }
        },
        "users": {
          "links": {
            "related": {
              "href": "http://localhost:8000/v2/users/a45nu/",
              "meta": {}
            }
          }
        }
      },
      "type": "contributors"
    },
    {
      "attributes": {
        "bibliographic": false,
        "index": 5,
        "permission": "admin",
        "unregistered_contributor": null
      },
      "embeds": {
        "users": {
          "data": {
            "attributes": {
              "active": true,
              "date_registered": "2016-03-01T19:09:05.900000Z",
              "family_name": "O'Connell",
              "full_name": "Kallie O'Connell",
              "given_name": "Kallie",
              "locale": "en_US",
              "middle_names": "",
              "suffix": "",
              "timezone": "America/Indianapolis"
            },
            "id": "zcdsa",
            "links": {
              "html": "http://osf.io/zcdsa/",
              "profile_image": "http://secure.gravatar.com/avatar/35a9e849c95c1a76103d5248a3dc72dd?d=identicon",
              "self": "http://localhost:8000/v2/users/zcdsa/"
            },
            "relationships": {
              "institutions": {
                "links": {
                  "related": {
                    "href": "http://localhost:8000/v2/users/zcdsa/institutions/",
                    "meta": {}
                  },
                  "self": {
                    "href": "http://localhost:8000/v2/users/zcdsa/relationships/institutions/",
                    "meta": {}
                  }
                }
              },
              "nodes": {
                "links": {
                  "related": {
                    "href": "http://localhost:8000/v2/users/zcdsa/nodes/",
                    "meta": {}
                  }
                }
              }
            },
            "type": "users"
          }
        }
      },
      "id": "adcjz-zcdsa",
      "links": {
        "self": "http://localhost:8000/v2/nodes/adcjz/contributors/zcdsa/"
      },
      "relationships": {
        "node": {
          "links": {
            "related": {
              "href": "http://localhost:8000/v2/nodes/adcjz/",
              "meta": {}
            }
          }
        },
        "users": {
          "links": {
            "related": {
              "href": "http://localhost:8000/v2/users/zcdsa/",
              "meta": {}
            }
          }
        }
      },
      "type": "contributors"
    },
    {
      "attributes": {
        "bibliographic": false,
        "index": 6,
        "permission": "write",
        "unregistered_contributor": "Michael Hildreth"
      },
      "embeds": {
        "users": {
          "data": {
            "attributes": {
              "active": false,
              "date_registered": "2016-05-05T17:08:50.207000Z",
              "family_name": "Hildreth",
              "full_name": "Michael Hildreth",
              "given_name": "Michael",
              "locale": "en_US",
              "middle_names": "",
              "suffix": "",
              "timezone": "Etc/UTC"
            },
            "id": "d72aq",
            "links": {
              "html": "http://osf.io/d72aq/",
              "profile_image": "http://secure.gravatar.com/avatar/668f672c420463425227ed7d99d9dbd7?d=identicon",
              "self": null
            },
            "relationships": {
              "institutions": {
                "links": {
                  "related": {
                    "href": "http://localhost:8000/v2/users/d72aq/institutions/",
                    "meta": {}
                  },
                  "self": {
                    "href": "http://localhost:8000/v2/users/d72aq/relationships/institutions/",
                    "meta": {}
                  }
                }
              },
              "nodes": {
                "links": {
                  "related": {
                    "href": "http://localhost:8000/v2/users/d72aq/nodes/",
                    "meta": {}
                  }
                }
              }
            },
            "type": "users"
          }
        }
      },
      "id": "adcjz-d72aq",
      "links": {
        "self": "http://localhost:8000/v2/nodes/adcjz/contributors/d72aq/"
      },
      "relationships": {
        "node": {
          "links": {
            "related": {
              "href": "http://localhost:8000/v2/nodes/adcjz/",
              "meta": {}
            }
          }
        },
        "users": {
          "links": {
            "related": {
              "href": "http://localhost:8000/v2/users/d72aq/",
              "meta": {}
            }
          }
        }
      },
      "type": "contributors"
    },
    {
      "attributes": {
        "bibliographic": false,
        "index": 7,
        "permission": "write",
        "unregistered_contributor": null
      },
      "embeds": {
        "users": {
          "data": {
            "attributes": {
              "active": true,
              "date_registered": "2015-09-10T13:29:01.535000Z",
              "family_name": "Taylor",
              "full_name": "Ian Taylor",
              "given_name": "Ian",
              "locale": "en_US",
              "middle_names": "",
              "suffix": "",
              "timezone": "America/New_York"
            },
            "id": "ufhbc",
            "links": {
              "html": "http://osf.io/ufhbc/",
              "profile_image": "http://secure.gravatar.com/avatar/959afa332cdf858b8a331523feee9d2e?d=identicon",
              "self": "http://localhost:8000/v2/users/ufhbc/"
            },
            "relationships": {
              "institutions": {
                "links": {
                  "related": {
                    "href": "http://localhost:8000/v2/users/ufhbc/institutions/",
                    "meta": {}
                  },
                  "self": {
                    "href": "http://localhost:8000/v2/users/ufhbc/relationships/institutions/",
                    "meta": {}
                  }
                }
              },
              "nodes": {
                "links": {
                  "related": {
                    "href": "http://localhost:8000/v2/users/ufhbc/nodes/",
                    "meta": {}
                  }
                }
              }
            },
            "type": "users"
          }
        }
      },
      "id": "adcjz-ufhbc",
      "links": {
        "self": "http://localhost:8000/v2/nodes/adcjz/contributors/ufhbc/"
      },
      "relationships": {
        "node": {
          "links": {
            "related": {
              "href": "http://localhost:8000/v2/nodes/adcjz/",
              "meta": {}
            }
          }
        },
        "users": {
          "links": {
            "related": {
              "href": "http://localhost:8000/v2/users/ufhbc/",
              "meta": {}
            }
          }
        }
      },
      "type": "contributors"
    },
    {
      "attributes": {
        "bibliographic": false,
        "index": 8,
        "permission": "admin",
        "unregistered_contributor": null
      },
      "embeds": {
        "users": {
          "data": {
            "attributes": {
              "active": true,
              "date_registered": "2015-09-08T13:06:17.799000Z",
              "family_name": "Suhovecky",
              "full_name": "Mark Suhovecky",
              "given_name": "Mark",
              "locale": "en_US",
              "middle_names": "",
              "suffix": "",
              "timezone": "America/Indianapolis"
            },
            "id": "9qeg4",
            "links": {
              "html": "http://osf.io/9qeg4/",
              "profile_image": "http://secure.gravatar.com/avatar/790b2f144fe208e1be2635a29080454e?d=identicon",
              "self": "http://localhost:8000/v2/users/9qeg4/"
            },
            "relationships": {
              "institutions": {
                "links": {
                  "related": {
                    "href": "http://localhost:8000/v2/users/9qeg4/institutions/",
                    "meta": {}
                  },
                  "self": {
                    "href": "http://localhost:8000/v2/users/9qeg4/relationships/institutions/",
                    "meta": {}
                  }
                }
              },
              "nodes": {
                "links": {
                  "related": {
                    "href": "http://localhost:8000/v2/users/9qeg4/nodes/",
                    "meta": {}
                  }
                }
              }
            },
            "type": "users"
          }
        }
      },
      "id": "adcjz-9qeg4",
      "links": {
        "self": "http://localhost:8000/v2/nodes/adcjz/contributors/9qeg4/"
      },
      "relationships": {
        "node": {
          "links": {
            "related": {
              "href": "http://localhost:8000/v2/nodes/adcjz/",
              "meta": {}
            }
          }
        },
        "users": {
          "links": {
            "related": {
              "href": "http://localhost:8000/v2/users/9qeg4/",
              "meta": {}
            }
          }
        }
      },
      "type": "contributors"
    },
    {
      "attributes": {
        "bibliographic": false,
        "index": 9,
        "permission": "write",
        "unregistered_contributor": null
      },
      "embeds": {
        "users": {
          "data": {
            "attributes": {
              "active": true,
              "date_registered": "2016-03-08T17:34:14.376000Z",
              "family_name": "Gesing",
              "full_name": "Sandra Gesing",
              "given_name": "Sandra",
              "locale": "en_US",
              "middle_names": "",
              "suffix": "",
              "timezone": "America/New_York"
            },
            "id": "d7eqj",
            "links": {
              "html": "http://osf.io/d7eqj/",
              "profile_image": "http://secure.gravatar.com/avatar/c1f1d415c90796f3450ddc2cf2c4f041?d=identicon",
              "self": "http://localhost:8000/v2/users/d7eqj/"
            },
            "relationships": {
              "institutions": {
                "links": {
                  "related": {
                    "href": "http://localhost:8000/v2/users/d7eqj/institutions/",
                    "meta": {}
                  },
                  "self": {
                    "href": "http://localhost:8000/v2/users/d7eqj/relationships/institutions/",
                    "meta": {}
                  }
                }
              },
              "nodes": {
                "links": {
                  "related": {
                    "href": "http://localhost:8000/v2/users/d7eqj/nodes/",
                    "meta": {}
                  }
                }
              }
            },
            "type": "users"
          }
        }
      },
      "id": "adcjz-d7eqj",
      "links": {
        "self": "http://localhost:8000/v2/nodes/adcjz/contributors/d7eqj/"
      },
      "relationships": {
        "node": {
          "links": {
            "related": {
              "href": "http://localhost:8000/v2/nodes/adcjz/",
              "meta": {}
            }
          }
        },
        "users": {
          "links": {
            "related": {
              "href": "http://localhost:8000/v2/users/d7eqj/",
              "meta": {}
            }
          }
        }
      },
      "type": "contributors"
    }
  ],
  "links": {
    "first": null,
    "last": "http://localhost:8000/v2/nodes/adcjz/contributors/?page=2",
    "next": "http://localhost:8000/v2/nodes/adcjz/contributors/?page=2",
    "prev": null,
    "self": "http://localhost:8000/v2/nodes/adcjz/contributors/"
  },
  "meta": {
    "per_page": 10,
    "total": 13,
    "total_bibliographic": 3
  }
}
