{
  "data": [
    {
      "relationships": {
        "nodes": {
          "links": {
            "related": {
              "href": "http://localhost:8000/v2/logs/574de82ac39efa004f0cf296/nodes/",
              "meta": {}
            }
          }
        },
        "user": {
          "links": {
            "related": {
              "href": "http://localhost:8000/v2/users/a3q2g/",
              "meta": {}
            }
          }
        },
        "contributors": {
          "links": {
            "related": {
              "href": "http://localhost:8000/v2/logs/574de82ac39efa004f0cf296/contributors/",
              "meta": {}
            }
          }
        }
      },
      "links": {
        "self": "http://localhost:8000/v2/logs/574de82ac39efa004f0cf296/"
      },
      "attributes": {
        "date": "2016-05-31T19:38:18.983000",
        "action": "comment_added",
        "params": {
          "view_url": null,
          "params_node": {
            "id": "r5s4u",
            "title": "First Proj"
          },
          "params_project": {}
        }
      },
      "type": "logs",
      "id": "574de82ac39efa004f0cf296"
    },
    {
      "relationships": {
        "nodes": {
          "links": {
            "related": {
              "href": "http://localhost:8000/v2/logs/574de6eccfa27c004a161789/nodes/",
              "meta": {}
            }
          }
        },
        "user": {
          "links": {
            "related": {
              "href": "http://localhost:8000/v2/users/a3q2g/",
              "meta": {}
            }
          }
        },
        "contributors": {
          "links": {
            "related": {
              "href": "http://localhost:8000/v2/logs/574de6eccfa27c004a161789/contributors/",
              "meta": {}
            }
          }
        }
      },
      "links": {
        "self": "http://localhost:8000/v2/logs/574de6eccfa27c004a161789/"
      },
      "attributes": {
        "date": "2016-05-31T19:33:00.806000",
        "action": "osf_storage_file_removed",
        "params": {
          "path": "/moo/",
          "params_node": {
            "id": "v8x57",
            "title": "Raw Data"
          },
          "params_project": {
            "id": "r5s4u",
            "title": "First Proj"
          },
          "view_url": "/project/v8x57/files/osfstorage/5731e69ecfa27c0047716290//"
        }
      },
      "type": "logs",
      "id": "574de6eccfa27c004a161789"
    },
    {
      "relationships": {
        "nodes": {
          "links": {
            "related": {
              "href": "http://localhost:8000/v2/logs/5731e7c3cfa27c0045d051e3/nodes/",
              "meta": {}
            }
          }
        },
        "user": {
          "links": {
            "related": {
              "href": "http://localhost:8000/v2/users/a3q2g/",
              "meta": {}
            }
          }
        },
        "contributors": {
          "links": {
            "related": {
              "href": "http://localhost:8000/v2/logs/5731e7c3cfa27c0045d051e3/contributors/",
              "meta": {}
            }
          }
        }
      },
      "links": {
        "self": "http://localhost:8000/v2/logs/5731e7c3cfa27c0045d051e3/"
      },
      "attributes": {
        "date": "2016-05-10T13:53:07.886000",
        "action": "osf_storage_file_added",
        "params": {
          "path": "/moo/sah/Screen Shot 2016-05-03 at 10.39.05 PM.png",
          "params_node": {
            "id": "v8x57",
            "title": "Raw Data"
          },
          "params_project": {
            "id": "r5s4u",
            "title": "First Proj"
          },
          "view_url": "/project/v8x57/files/osfstorage/5731e7c3cfa27c0045d051e1/"
        }
      },
      "type": "logs",
      "id": "5731e7c3cfa27c0045d051e3"
    },
    {
      "relationships": {
        "nodes": {
          "links": {
            "related": {
              "href": "http://localhost:8000/v2/logs/5731e7becfa27c0045d051e0/nodes/",
              "meta": {}
            }
          }
        },
        "user": {
          "links": {
            "related": {
              "href": "http://localhost:8000/v2/users/a3q2g/",
              "meta": {}
            }
          }
        },
        "contributors": {
          "links": {
            "related": {
              "href": "http://localhost:8000/v2/logs/5731e7becfa27c0045d051e0/contributors/",
              "meta": {}
            }
          }
        }
      },
      "links": {
        "self": "http://localhost:8000/v2/logs/5731e7becfa27c0045d051e0/"
      },
      "attributes": {
        "date": "2016-05-10T13:53:02.052000",
        "action": "osf_storage_folder_created",
        "params": {
          "path": "/moo/sah/",
          "params_node": {
            "id": "v8x57",
            "title": "Raw Data"
          },
          "params_project": {
            "id": "r5s4u",
            "title": "First Proj"
          },
          "view_url": "/project/v8x57/files/osfstorage/5731e7becfa27c0045d051df//"
        }
      },
      "type": "logs",
      "id": "5731e7becfa27c0045d051e0"
    },
    {
      "relationships": {
        "nodes": {
          "links": {
            "related": {
              "href": "http://localhost:8000/v2/logs/5731e6e0cfa27c0045d051de/nodes/",
              "meta": {}
            }
          }
        },
        "user": {
          "links": {
            "related": {
              "href": "http://localhost:8000/v2/users/a3q2g/",
              "meta": {}
            }
          }
        },
        "contributors": {
          "links": {
            "related": {
              "href": "http://localhost:8000/v2/logs/5731e6e0cfa27c0045d051de/contributors/",
              "meta": {}
            }
          }
        }
      },
      "links": {
        "self": "http://localhost:8000/v2/logs/5731e6e0cfa27c0045d051de/"
      },
      "attributes": {
        "date": "2016-05-10T13:49:20.699000",
        "action": "osf_storage_file_added",
        "params": {
          "path": "/moo/osf-gui.png",
          "params_node": {
            "id": "v8x57",
            "title": "Raw Data"
          },
          "params_project": {
            "id": "r5s4u",
            "title": "First Proj"
          },
          "view_url": "/project/v8x57/files/osfstorage/5731e6e0cfa27c0045d051dc/"
        }
      },
      "type": "logs",
      "id": "5731e6e0cfa27c0045d051de"
    },
    {
      "relationships": {
        "nodes": {
          "links": {
            "related": {
              "href": "http://localhost:8000/v2/logs/5731e69ecfa27c0047716291/nodes/",
              "meta": {}
            }
          }
        },
        "user": {
          "links": {
            "related": {
              "href": "http://localhost:8000/v2/users/a3q2g/",
              "meta": {}
            }
          }
        },
        "contributors": {
          "links": {
            "related": {
              "href": "http://localhost:8000/v2/logs/5731e69ecfa27c0047716291/contributors/",
              "meta": {}
            }
          }
        }
      },
      "links": {
        "self": "http://localhost:8000/v2/logs/5731e69ecfa27c0047716291/"
      },
      "attributes": {
        "date": "2016-05-10T13:48:14.203000",
        "action": "osf_storage_folder_created",
        "params": {
          "path": "/moo/",
          "params_node": {
            "id": "v8x57",
            "title": "Raw Data"
          },
          "params_project": {
            "id": "r5s4u",
            "title": "First Proj"
          },
          "view_url": "/project/v8x57/files/osfstorage/5731e69ecfa27c0047716290//"
        }
      },
      "type": "logs",
      "id": "5731e69ecfa27c0047716291"
    },
    {
      "relationships": {
        "nodes": {
          "links": {
            "related": {
              "href": "http://localhost:8000/v2/logs/5719238ecfa27c0045ec7cc8/nodes/",
              "meta": {}
            }
          }
        },
        "user": {
          "links": {
            "related": {
              "href": "http://localhost:8000/v2/users/a3q2g/",
              "meta": {}
            }
          }
        },
        "contributors": {
          "links": {
            "related": {
              "href": "http://localhost:8000/v2/logs/5719238ecfa27c0045ec7cc8/contributors/",
              "meta": {}
            }
          }
        }
      },
      "links": {
        "self": "http://localhost:8000/v2/logs/5719238ecfa27c0045ec7cc8/"
      },
      "attributes": {
        "date": "2016-04-21T19:01:34.098000",
        "action": "license_changed",
        "params": {
          "view_url": null,
          "params_node": {
            "id": "v8x57",
            "title": "Raw Data"
          },
          "params_project": {}
        }
      },
      "type": "logs",
      "id": "5719238ecfa27c0045ec7cc8"
    },
    {
      "relationships": {
        "nodes": {
          "links": {
            "related": {
              "href": "http://localhost:8000/v2/logs/5716db78cfa27c0045ec7cc4/nodes/",
              "meta": {}
            }
          }
        },
        "user": {
          "links": {
            "related": {
              "href": "http://localhost:8000/v2/users/a3q2g/",
              "meta": {}
            }
          }
        },
        "contributors": {
          "links": {
            "related": {
              "href": "http://localhost:8000/v2/logs/5716db78cfa27c0045ec7cc4/contributors/",
              "meta": {}
            }
          }
        }
      },
      "links": {
        "self": "http://localhost:8000/v2/logs/5716db78cfa27c0045ec7cc4/"
      },
      "attributes": {
        "date": "2016-04-20T01:29:28.730000",
        "action": "license_changed",
        "params": {
          "view_url": null,
          "params_node": {
            "id": "r5s4u",
            "title": "First Proj"
          },
          "params_project": {}
        }
      },
      "type": "logs",
      "id": "5716db78cfa27c0045ec7cc4"
    },
    {
      "relationships": {
        "nodes": {
          "links": {
            "related": {
              "href": "http://localhost:8000/v2/logs/571639b5cfa27c0045ec7cc1/nodes/",
              "meta": {}
            }
          }
        },
        "user": {
          "links": {
            "related": {
              "href": "http://localhost:8000/v2/users/a3q2g/",
              "meta": {}
            }
          }
        },
        "contributors": {
          "links": {
            "related": {
              "href": "http://localhost:8000/v2/logs/571639b5cfa27c0045ec7cc1/contributors/",
              "meta": {}
            }
          }
        }
      },
      "links": {
        "self": "http://localhost:8000/v2/logs/571639b5cfa27c0045ec7cc1/"
      },
      "attributes": {
        "date": "2016-04-19T13:59:17.116000",
        "action": "project_registered",
        "params": {
          "view_url": null,
          "params_node": {
            "id": "v8x57",
            "title": "Raw Data"
          },
          "params_project": {}
        }
      },
      "type": "logs",
      "id": "571639b5cfa27c0045ec7cc1"
    },
    {
      "relationships": {
        "nodes": {
          "links": {
            "related": {
              "href": "http://localhost:8000/v2/logs/571639b5cfa27c0045ec7cc0/nodes/",
              "meta": {}
            }
          }
        },
        "user": {
          "links": {
            "related": {
              "href": "http://localhost:8000/v2/users/a3q2g/",
              "meta": {}
            }
          }
        },
        "contributors": {
          "links": {
            "related": {
              "href": "http://localhost:8000/v2/logs/571639b5cfa27c0045ec7cc0/contributors/",
              "meta": {}
            }
          }
        }
      },
      "links": {
        "self": "http://localhost:8000/v2/logs/571639b5cfa27c0045ec7cc0/"
      },
      "attributes": {
        "date": "2016-04-19T13:59:17.087000",
        "action": "project_registered",
        "params": {
          "view_url": null,
          "params_node": {
            "id": "r5s4u",
            "title": "First Proj"
          },
          "params_project": {}
        }
      },
      "type": "logs",
      "id": "571639b5cfa27c0045ec7cc0"
    }
  ],
  "links": {
    "first": null,
    "last": "http://localhost:8000/v2/registrations/y6cx7/logs/?page=2",
    "prev": null,
    "next": "http://localhost:8000/v2/registrations/y6cx7/logs/?page=2",
    "meta": {
      "total": 19,
      "per_page": 10
    }
  }
}
