{
  "data": [
    {
      "attributes": {
        "bibliographic": true,
        "index": 0,
        "permission": "read",
        "unregistered_contributor": null
      },
      "embeds": {
        "users": {
          "data": {
            "attributes": {
              "active": true,
              "date_registered": "2014-12-11T20:49:43.297000Z",
              "family_name": "Horrigan",
              "full_name": "Stephen Horrigan",
              "given_name": "Stephen",
              "locale": "en_US",
              "middle_names": "",
              "suffix": "",
              "timezone": "America/New_York"
            },
            "id": "km7ux",
            "links": {
              "html": "http://osf.io/km7ux/",
              "profile_image": "http://secure.gravatar.com/avatar/ecaeb6741710930bb70fa02126229fb8?d=identicon",
              "self": "http://localhost:8000/v2/users/km7ux/"
            },
            "relationships": {
              "institutions": {
                "links": {
                  "related": {
                    "href": "http://localhost:8000/v2/users/km7ux/institutions/",
                    "meta": {}
                  },
                  "self": {
                    "href": "http://localhost:8000/v2/users/km7ux/relationships/institutions/",
                    "meta": {}
                  }
                }
              },
              "nodes": {
                "links": {
                  "related": {
                    "href": "http://localhost:8000/v2/users/km7ux/nodes/",
                    "meta": {}
                  }
                }
              }
            },
            "type": "users"
          }
        }
      },
      "id": "jvpnw-km7ux",
      "links": {
        "self": "http://localhost:8000/v2/nodes/jvpnw/contributors/km7ux/"
      },
      "relationships": {
        "node": {
          "links": {
            "related": {
              "href": "http://localhost:8000/v2/nodes/jvpnw/",
              "meta": {}
            }
          }
        },
        "users": {
          "links": {
            "related": {
              "href": "http://localhost:8000/v2/users/km7ux/",
              "meta": {}
            }
          }
        }
      },
      "type": "contributors"
    },
    {
      "attributes": {
        "bibliographic": true,
        "index": 1,
        "permission": "read",
        "unregistered_contributor": "Pascal Courville"
      },
      "embeds": {
        "users": {
          "data": {
            "attributes": {
              "active": false,
              "date_registered": "2016-09-28T15:59:02.171000Z",
              "family_name": "Courville",
              "full_name": "Pascal Courville",
              "given_name": "Pascal",
              "locale": "en_US",
              "middle_names": "",
              "suffix": "",
              "timezone": "Etc/UTC"
            },
            "id": "kwyr5",
            "links": {
              "html": "http://osf.io/kwyr5/",
              "profile_image": "http://secure.gravatar.com/avatar/6adf97f83acf6453d4a6a4b1070f3754?d=identicon",
              "self": null
            },
            "relationships": {
              "institutions": {
                "links": {
                  "related": {
                    "href": "http://localhost:8000/v2/users/kwyr5/institutions/",
                    "meta": {}
                  },
                  "self": {
                    "href": "http://localhost:8000/v2/users/kwyr5/relationships/institutions/",
                    "meta": {}
                  }
                }
              },
              "nodes": {
                "links": {
                  "related": {
                    "href": "http://localhost:8000/v2/users/kwyr5/nodes/",
                    "meta": {}
                  }
                }
              }
            },
            "type": "users"
          }
        }
      },
      "id": "jvpnw-kwyr5",
      "links": {
        "self": "http://localhost:8000/v2/nodes/jvpnw/contributors/kwyr5/"
      },
      "relationships": {
        "node": {
          "links": {
            "related": {
              "href": "http://localhost:8000/v2/nodes/jvpnw/",
              "meta": {}
            }
          }
        },
        "users": {
          "links": {
            "related": {
              "href": "http://localhost:8000/v2/users/kwyr5/",
              "meta": {}
            }
          }
        }
      },
      "type": "contributors"
    },
    {
      "attributes": {
        "bibliographic": true,
        "index": 2,
        "permission": "read",
        "unregistered_contributor": null
      },
      "embeds": {
        "users": {
          "data": {
            "attributes": {
              "active": true,
              "date_registered": "2014-12-10T17:22:19.142000Z",
              "family_name": "Sampey",
              "full_name": "Darryl Sampey",
              "given_name": "Darryl",
              "locale": "en_us",
              "middle_names": "",
              "suffix": "",
              "timezone": "America/New_York"
            },
            "id": "wjgch",
            "links": {
              "html": "http://osf.io/wjgch/",
              "profile_image": "http://secure.gravatar.com/avatar/8e2a1b65f01dd3202fd1063018c11fa3?d=identicon",
              "self": "http://localhost:8000/v2/users/wjgch/"
            },
            "relationships": {
              "institutions": {
                "links": {
                  "related": {
                    "href": "http://localhost:8000/v2/users/wjgch/institutions/",
                    "meta": {}
                  },
                  "self": {
                    "href": "http://localhost:8000/v2/users/wjgch/relationships/institutions/",
                    "meta": {}
                  }
                }
              },
              "nodes": {
                "links": {
                  "related": {
                    "href": "http://localhost:8000/v2/users/wjgch/nodes/",
                    "meta": {}
                  }
                }
              }
            },
            "type": "users"
          }
        }
      },
      "id": "jvpnw-wjgch",
      "links": {
        "self": "http://localhost:8000/v2/nodes/jvpnw/contributors/wjgch/"
      },
      "relationships": {
        "node": {
          "links": {
            "related": {
              "href": "http://localhost:8000/v2/nodes/jvpnw/",
              "meta": {}
            }
          }
        },
        "users": {
          "links": {
            "related": {
              "href": "http://localhost:8000/v2/users/wjgch/",
              "meta": {}
            }
          }
        }
      },
      "type": "contributors"
    },
    {
      "attributes": {
        "bibliographic": true,
        "index": 3,
        "permission": "read",
        "unregistered_contributor": null
      },
      "embeds": {
        "users": {
          "data": {
            "attributes": {
              "active": true,
              "date_registered": "2016-08-10T18:27:46.456000Z",
              "family_name": "zhou",
              "full_name": "faren zhou",
              "given_name": "faren",
              "locale": "en_US",
              "middle_names": "",
              "suffix": "",
              "timezone": "Etc/UTC"
            },
            "id": "5avye",
            "links": {
              "html": "http://osf.io/5avye/",
              "profile_image": "http://secure.gravatar.com/avatar/d0dbbe670ebba609006df5f73d13959f?d=identicon",
              "self": "http://localhost:8000/v2/users/5avye/"
            },
            "relationships": {
              "institutions": {
                "links": {
                  "related": {
                    "href": "http://localhost:8000/v2/users/5avye/institutions/",
                    "meta": {}
                  },
                  "self": {
                    "href": "http://localhost:8000/v2/users/5avye/relationships/institutions/",
                    "meta": {}
                  }
                }
              },
              "nodes": {
                "links": {
                  "related": {
                    "href": "http://localhost:8000/v2/users/5avye/nodes/",
                    "meta": {}
                  }
                }
              }
            },
            "type": "users"
          }
        }
      },
      "id": "jvpnw-5avye",
      "links": {
        "self": "http://localhost:8000/v2/nodes/jvpnw/contributors/5avye/"
      },
      "relationships": {
        "node": {
          "links": {
            "related": {
              "href": "http://localhost:8000/v2/nodes/jvpnw/",
              "meta": {}
            }
          }
        },
        "users": {
          "links": {
            "related": {
              "href": "http://localhost:8000/v2/users/5avye/",
              "meta": {}
            }
          }
        }
      },
      "type": "contributors"
    },
    {
      "attributes": {
        "bibliographic": true,
        "index": 4,
        "permission": "read",
        "unregistered_contributor": "Steve Cai"
      },
      "embeds": {
        "users": {
          "data": {
            "attributes": {
              "active": false,
              "date_registered": "2016-09-28T15:58:02.484000Z",
              "family_name": "Cai",
              "full_name": "Steve Cai",
              "given_name": "Steve",
              "locale": "en_US",
              "middle_names": "",
              "suffix": "",
              "timezone": "Etc/UTC"
            },
            "id": "6b42a",
            "links": {
              "html": "http://osf.io/6b42a/",
              "profile_image": "http://secure.gravatar.com/avatar/6adf97f83acf6453d4a6a4b1070f3754?d=identicon",
              "self": null
            },
            "relationships": {
              "institutions": {
                "links": {
                  "related": {
                    "href": "http://localhost:8000/v2/users/6b42a/institutions/",
                    "meta": {}
                  },
                  "self": {
                    "href": "http://localhost:8000/v2/users/6b42a/relationships/institutions/",
                    "meta": {}
                  }
                }
              },
              "nodes": {
                "links": {
                  "related": {
                    "href": "http://localhost:8000/v2/users/6b42a/nodes/",
                    "meta": {}
                  }
                }
              }
            },
            "type": "users"
          }
        }
      },
      "id": "jvpnw-6b42a",
      "links": {
        "self": "http://localhost:8000/v2/nodes/jvpnw/contributors/6b42a/"
      },
      "relationships": {
        "node": {
          "links": {
            "related": {
              "href": "http://localhost:8000/v2/nodes/jvpnw/",
              "meta": {}
            }
          }
        },
        "users": {
          "links": {
            "related": {
              "href": "http://localhost:8000/v2/users/6b42a/",
              "meta": {}
            }
          }
        }
      },
      "type": "contributors"
    },
    {
      "attributes": {
        "bibliographic": true,
        "index": 5,
        "permission": "write",
        "unregistered_contributor": null
      },
      "embeds": {
        "users": {
          "data": {
            "attributes": {
              "active": true,
              "date_registered": "2013-02-24T21:46:25.060000Z",
              "family_name": "Iorns",
              "full_name": "Elizabeth Iorns",
              "given_name": "Elizabeth",
              "locale": "en_US",
              "middle_names": "",
              "suffix": "",
              "timezone": "America/Los_Angeles"
            },
            "id": "kw6hh",
            "links": {
              "html": "http://osf.io/kw6hh/",
              "profile_image": "http://secure.gravatar.com/avatar/b24dd8d794354ce1ffa26b0e5f161364?d=identicon",
              "self": "http://localhost:8000/v2/users/kw6hh/"
            },
            "relationships": {
              "institutions": {
                "links": {
                  "related": {
                    "href": "http://localhost:8000/v2/users/kw6hh/institutions/",
                    "meta": {}
                  },
                  "self": {
                    "href": "http://localhost:8000/v2/users/kw6hh/relationships/institutions/",
                    "meta": {}
                  }
                }
              },
              "nodes": {
                "links": {
                  "related": {
                    "href": "http://localhost:8000/v2/users/kw6hh/nodes/",
                    "meta": {}
                  }
                }
              }
            },
            "type": "users"
          }
        }
      },
      "id": "jvpnw-kw6hh",
      "links": {
        "self": "http://localhost:8000/v2/nodes/jvpnw/contributors/kw6hh/"
      },
      "relationships": {
        "node": {
          "links": {
            "related": {
              "href": "http://localhost:8000/v2/nodes/jvpnw/",
              "meta": {}
            }
          }
        },
        "users": {
          "links": {
            "related": {
              "href": "http://localhost:8000/v2/users/kw6hh/",
              "meta": {}
            }
          }
        }
      },
      "type": "contributors"
    },
    {
      "attributes": {
        "bibliographic": true,
        "index": 6,
        "permission": "admin",
        "unregistered_contributor": null
      },
      "embeds": {
        "users": {
          "data": {
            "attributes": {
              "active": true,
              "date_registered": "2016-04-29T01:37:53.399000Z",
              "family_name": "Denis",
              "full_name": "Alex Denis",
              "given_name": "Alex",
              "locale": "en_us",
              "middle_names": "",
              "suffix": "",
              "timezone": "America/New_York"
            },
            "id": "ehkgw",
            "links": {
              "html": "http://osf.io/ehkgw/",
              "profile_image": "http://secure.gravatar.com/avatar/581ee0c2619b05866fc72b582eb1229d?d=identicon",
              "self": "http://localhost:8000/v2/users/ehkgw/"
            },
            "relationships": {
              "institutions": {
                "links": {
                  "related": {
                    "href": "http://localhost:8000/v2/users/ehkgw/institutions/",
                    "meta": {}
                  },
                  "self": {
                    "href": "http://localhost:8000/v2/users/ehkgw/relationships/institutions/",
                    "meta": {}
                  }
                }
              },
              "nodes": {
                "links": {
                  "related": {
                    "href": "http://localhost:8000/v2/users/ehkgw/nodes/",
                    "meta": {}
                  }
                }
              }
            },
            "type": "users"
          }
        }
      },
      "id": "jvpnw-ehkgw",
      "links": {
        "self": "http://localhost:8000/v2/nodes/jvpnw/contributors/ehkgw/"
      },
      "relationships": {
        "node": {
          "links": {
            "related": {
              "href": "http://localhost:8000/v2/nodes/jvpnw/",
              "meta": {}
            }
          }
        },
        "users": {
          "links": {
            "related": {
              "href": "http://localhost:8000/v2/users/ehkgw/",
              "meta": {}
            }
          }
        }
      },
      "type": "contributors"
    },
    {
      "attributes": {
        "bibliographic": true,
        "index": 7,
        "permission": "read",
        "unregistered_contributor": null
      },
      "embeds": {
        "users": {
          "data": {
            "attributes": {
              "active": true,
              "date_registered": "2015-04-16T17:50:03.684000Z",
              "family_name": "Williams",
              "full_name": "Stephen Williams",
              "given_name": "Stephen",
              "locale": "en_US",
              "middle_names": "Richardson",
              "suffix": "",
              "timezone": "America/New_York"
            },
            "id": "jvz2b",
            "links": {
              "html": "http://osf.io/jvz2b/",
              "profile_image": "http://secure.gravatar.com/avatar/09aaf09aaa1d886e3407915ddcacf9fb?d=identicon",
              "self": "http://localhost:8000/v2/users/jvz2b/"
            },
            "relationships": {
              "institutions": {
                "links": {
                  "related": {
                    "href": "http://localhost:8000/v2/users/jvz2b/institutions/",
                    "meta": {}
                  },
                  "self": {
                    "href": "http://localhost:8000/v2/users/jvz2b/relationships/institutions/",
                    "meta": {}
                  }
                }
              },
              "nodes": {
                "links": {
                  "related": {
                    "href": "http://localhost:8000/v2/users/jvz2b/nodes/",
                    "meta": {}
                  }
                }
              }
            },
            "type": "users"
          }
        }
      },
      "id": "jvpnw-jvz2b",
      "links": {
        "self": "http://localhost:8000/v2/nodes/jvpnw/contributors/jvz2b/"
      },
      "relationships": {
        "node": {
          "links": {
            "related": {
              "href": "http://localhost:8000/v2/nodes/jvpnw/",
              "meta": {}
            }
          }
        },
        "users": {
          "links": {
            "related": {
              "href": "http://localhost:8000/v2/users/jvz2b/",
              "meta": {}
            }
          }
        }
      },
      "type": "contributors"
    },
    {
      "attributes": {
        "bibliographic": true,
        "index": 8,
        "permission": "admin",
        "unregistered_contributor": null
      },
      "embeds": {
        "users": {
          "data": {
            "attributes": {
              "active": true,
              "date_registered": "2015-01-21T00:29:23.224000Z",
              "family_name": "Perfito",
              "full_name": "Nicole Perfito",
              "given_name": "Nicole",
              "locale": "en_US",
              "middle_names": "",
              "suffix": "",
              "timezone": "America/Los_Angeles"
            },
            "id": "etv94",
            "links": {
              "html": "http://osf.io/etv94/",
              "profile_image": "http://secure.gravatar.com/avatar/4a07194215d58dd30e2bc8433a656123?d=identicon",
              "self": "http://localhost:8000/v2/users/etv94/"
            },
            "relationships": {
              "institutions": {
                "links": {
                  "related": {
                    "href": "http://localhost:8000/v2/users/etv94/institutions/",
                    "meta": {}
                  },
                  "self": {
                    "href": "http://localhost:8000/v2/users/etv94/relationships/institutions/",
                    "meta": {}
                  }
                }
              },
              "nodes": {
                "links": {
                  "related": {
                    "href": "http://localhost:8000/v2/users/etv94/nodes/",
                    "meta": {}
                  }
                }
              }
            },
            "type": "users"
          }
        }
      },
      "id": "jvpnw-etv94",
      "links": {
        "self": "http://localhost:8000/v2/nodes/jvpnw/contributors/etv94/"
      },
      "relationships": {
        "node": {
          "links": {
            "related": {
              "href": "http://localhost:8000/v2/nodes/jvpnw/",
              "meta": {}
            }
          }
        },
        "users": {
          "links": {
            "related": {
              "href": "http://localhost:8000/v2/users/etv94/",
              "meta": {}
            }
          }
        }
      },
      "type": "contributors"
    },
    {
      "attributes": {
        "bibliographic": true,
        "index": 9,
        "permission": "admin",
        "unregistered_contributor": null
      },
      "embeds": {
        "users": {
          "data": {
            "attributes": {
              "active": true,
              "date_registered": "2013-10-11T18:42:20.133000Z",
              "family_name": "Errington",
              "full_name": "Tim Errington",
              "given_name": "Timothy",
              "locale": "en_us",
              "middle_names": "M.",
              "suffix": "",
              "timezone": "America/New_York"
            },
            "id": "alh38",
            "links": {
              "html": "http://osf.io/alh38/",
              "profile_image": "http://secure.gravatar.com/avatar/20937c7cc6bf128d50569282d8daecb0?d=identicon",
              "self": "http://localhost:8000/v2/users/alh38/"
            },
            "relationships": {
              "institutions": {
                "links": {
                  "related": {
                    "href": "http://localhost:8000/v2/users/alh38/institutions/",
                    "meta": {}
                  },
                  "self": {
                    "href": "http://localhost:8000/v2/users/alh38/relationships/institutions/",
                    "meta": {}
                  }
                }
              },
              "nodes": {
                "links": {
                  "related": {
                    "href": "http://localhost:8000/v2/users/alh38/nodes/",
                    "meta": {}
                  }
                }
              }
            },
            "type": "users"
          }
        }
      },
      "id": "jvpnw-alh38",
      "links": {
        "self": "http://localhost:8000/v2/nodes/jvpnw/contributors/alh38/"
      },
      "relationships": {
        "node": {
          "links": {
            "related": {
              "href": "http://localhost:8000/v2/nodes/jvpnw/",
              "meta": {}
            }
          }
        },
        "users": {
          "links": {
            "related": {
              "href": "http://localhost:8000/v2/users/alh38/",
              "meta": {}
            }
          }
        }
      },
      "type": "contributors"
    }
  ],
  "links": {
    "first": null,
    "last": "http://localhost:8000/v2/nodes/jvpnw/contributors/?page=2",
    "next": "http://localhost:8000/v2/nodes/jvpnw/contributors/?page=2",
    "prev": null,
    "self": "http://localhost:8000/v2/nodes/jvpnw/contributors/"
  },
  "meta": {
    "per_page": 10,
    "total": 12,
    "total_bibliographic": 10
  }
}
