{
  "data": [
    {
      "attributes": {
        "action": "pointer_removed",
        "date": "2016-12-16T15:49:33.606000Z",
        "params": {
          "contributors": [],
          "params_node": {
            "id": "ed4ps",
            "title": "JHU Lab Organization Template"
          },
          "params_project": null,
          "pointer": {
            "category": "project",
            "id": "tp6k7",
            "title": "US Cattle Traceability Information - State Government Web Information Resource Analysis",
            "url": "/tp6k7/"
          },
          "preprint_provider": null
        }
      },
      "id": "58540d0d9ad5a10055a26e56",
      "links": {
        "self": "http://localhost:8000/v2/logs/58540d0d9ad5a10055a26e56/"
      },
      "relationships": {
        "linked_node": {
          "links": {
            "related": {
              "href": "http://localhost:8000/v2/nodes/tp6k7/",
              "meta": {}
            }
          }
        },
        "node": {
          "links": {
            "related": {
              "href": "http://localhost:8000/v2/nodes/ed4ps/",
              "meta": {}
            }
          }
        },
        "original_node": {
          "links": {
            "related": {
              "href": "http://localhost:8000/v2/nodes/ed4ps/",
              "meta": {}
            }
          }
        },
        "user": {
          "links": {
            "related": {
              "href": "http://localhost:8000/v2/users/39bsp/",
              "meta": {}
            }
          }
        }
      },
      "type": "logs"
    },
    {
      "attributes": {
        "action": "pointer_created",
        "date": "2016-12-12T15:52:17.564000Z",
        "params": {
          "contributors": [],
          "params_node": {
            "id": "ed4ps",
            "title": "JHU Lab Organization Template"
          },
          "params_project": null,
          "pointer": {
            "category": "project",
            "id": "tp6k7",
            "title": "US Cattle Traceability Information - State Government Web Information Resource Analysis",
            "url": "/tp6k7/"
          },
          "preprint_provider": null
        }
      },
      "id": "584ec7b19ad5a102070cdedd",
      "links": {
        "self": "http://localhost:8000/v2/logs/584ec7b19ad5a102070cdedd/"
      },
      "relationships": {
        "linked_node": {
          "links": {
            "related": {
              "href": "http://localhost:8000/v2/nodes/tp6k7/",
              "meta": {}
            }
          }
        },
        "node": {
          "links": {
            "related": {
              "href": "http://localhost:8000/v2/nodes/ed4ps/",
              "meta": {}
            }
          }
        },
        "original_node": {
          "links": {
            "related": {
              "href": "http://localhost:8000/v2/nodes/ed4ps/",
              "meta": {}
            }
          }
        },
        "user": {
          "links": {
            "related": {
              "href": "http://localhost:8000/v2/users/39bsp/",
              "meta": {}
            }
          }
        }
      },
      "type": "logs"
    },
    {
      "attributes": {
        "action": "tag_added",
        "date": "2016-12-09T15:56:03.880000Z",
        "params": {
          "contributors": [],
          "params_node": {
            "id": "2nqcf",
            "title": "Announcements"
          },
          "params_project": null,
          "preprint_provider": null,
          "tag": "news"
        }
      },
      "id": "584ad413594d9001fd56057f",
      "links": {
        "self": "http://localhost:8000/v2/logs/584ad413594d9001fd56057f/"
      },
      "relationships": {
        "node": {
          "links": {
            "related": {
              "href": "http://localhost:8000/v2/nodes/2nqcf/",
              "meta": {}
            }
          }
        },
        "original_node": {
          "links": {
            "related": {
              "href": "http://localhost:8000/v2/nodes/2nqcf/",
              "meta": {}
            }
          }
        },
        "user": {
          "links": {
            "related": {
              "href": "http://localhost:8000/v2/users/39bsp/",
              "meta": {}
            }
          }
        }
      },
      "type": "logs"
    },
    {
      "attributes": {
        "action": "tag_added",
        "date": "2016-12-09T15:55:57.332000Z",
        "params": {
          "contributors": [],
          "params_node": {
            "id": "2nqcf",
            "title": "Announcements"
          },
          "params_project": null,
          "preprint_provider": null,
          "tag": "current events"
        }
      },
      "id": "584ad40d594d90020056059a",
      "links": {
        "self": "http://localhost:8000/v2/logs/584ad40d594d90020056059a/"
      },
      "relationships": {
        "node": {
          "links": {
            "related": {
              "href": "http://localhost:8000/v2/nodes/2nqcf/",
              "meta": {}
            }
          }
        },
        "original_node": {
          "links": {
            "related": {
              "href": "http://localhost:8000/v2/nodes/2nqcf/",
              "meta": {}
            }
          }
        },
        "user": {
          "links": {
            "related": {
              "href": "http://localhost:8000/v2/users/39bsp/",
              "meta": {}
            }
          }
        }
      },
      "type": "logs"
    },
    {
      "attributes": {
        "action": "addon_removed",
        "date": "2016-12-09T15:55:06.260000Z",
        "params": {
          "addon": "External Link",
          "contributors": [],
          "params_node": {
            "id": "wychx",
            "title": "Journal Club"
          },
          "params_project": {
            "id": "ed4ps",
            "title": "JHU Lab Organization Template"
          },
          "preprint_provider": null
        }
      },
      "id": "584ad3da9ad5a102060cd4ed",
      "links": {
        "self": "http://localhost:8000/v2/logs/584ad3da9ad5a102060cd4ed/"
      },
      "relationships": {
        "node": {
          "links": {
            "related": {
              "href": "http://localhost:8000/v2/nodes/wychx/",
              "meta": {}
            }
          }
        },
        "original_node": {
          "links": {
            "related": {
              "href": "http://localhost:8000/v2/nodes/wychx/",
              "meta": {}
            }
          }
        },
        "user": {
          "links": {
            "related": {
              "href": "http://localhost:8000/v2/users/39bsp/",
              "meta": {}
            }
          }
        }
      },
      "type": "logs"
    },
    {
      "attributes": {
        "action": "tag_removed",
        "date": "2016-12-09T15:53:27.039000Z",
        "params": {
          "contributors": [],
          "params_node": {
            "id": "5x7dj",
            "title": "Lab Protocols"
          },
          "params_project": null,
          "preprint_provider": null,
          "tag": "protocols"
        }
      },
      "id": "584ad3776c613b02015e4598",
      "links": {
        "self": "http://localhost:8000/v2/logs/584ad3776c613b02015e4598/"
      },
      "relationships": {
        "node": {
          "links": {
            "related": {
              "href": "http://localhost:8000/v2/nodes/5x7dj/",
              "meta": {}
            }
          }
        },
        "original_node": {
          "links": {
            "related": {
              "href": "http://localhost:8000/v2/nodes/5x7dj/",
              "meta": {}
            }
          }
        },
        "user": {
          "links": {
            "related": {
              "href": "http://localhost:8000/v2/users/39bsp/",
              "meta": {}
            }
          }
        }
      },
      "type": "logs"
    },
    {
      "attributes": {
        "action": "tag_added",
        "date": "2016-12-09T15:53:04.763000Z",
        "params": {
          "contributors": [],
          "params_node": {
            "id": "5x7dj",
            "title": "Lab Protocols"
          },
          "params_project": null,
          "preprint_provider": null,
          "tag": "protocols"
        }
      },
      "id": "584ad360594d9001fc560527",
      "links": {
        "self": "http://localhost:8000/v2/logs/584ad360594d9001fc560527/"
      },
      "relationships": {
        "node": {
          "links": {
            "related": {
              "href": "http://localhost:8000/v2/nodes/5x7dj/",
              "meta": {}
            }
          }
        },
        "original_node": {
          "links": {
            "related": {
              "href": "http://localhost:8000/v2/nodes/5x7dj/",
              "meta": {}
            }
          }
        },
        "user": {
          "links": {
            "related": {
              "href": "http://localhost:8000/v2/users/39bsp/",
              "meta": {}
            }
          }
        }
      },
      "type": "logs"
    },
    {
      "attributes": {
        "action": "wiki_updated",
        "date": "2016-12-09T15:52:27.350000Z",
        "params": {
          "contributors": [],
          "page": "home",
          "page_id": "k5qfk",
          "params_node": {
            "id": "x55k5",
            "title": "Administrative Documents"
          },
          "params_project": {
            "id": "ed4ps",
            "title": "JHU Lab Organization Template"
          },
          "preprint_provider": null,
          "version": "1"
        }
      },
      "id": "584ad33b594d9001f956053b",
      "links": {
        "self": "http://localhost:8000/v2/logs/584ad33b594d9001f956053b/"
      },
      "relationships": {
        "node": {
          "links": {
            "related": {
              "href": "http://localhost:8000/v2/nodes/x55k5/",
              "meta": {}
            }
          }
        },
        "original_node": {
          "links": {
            "related": {
              "href": "http://localhost:8000/v2/nodes/x55k5/",
              "meta": {}
            }
          }
        },
        "user": {
          "links": {
            "related": {
              "href": "http://localhost:8000/v2/users/39bsp/",
              "meta": {}
            }
          }
        }
      },
      "type": "logs"
    },
    {
      "attributes": {
        "action": "wiki_updated",
        "date": "2016-12-09T15:46:55.153000Z",
        "params": {
          "contributors": [],
          "page": "home",
          "page_id": "5tg8d",
          "params_node": {
            "id": "ed4ps",
            "title": "JHU Lab Organization Template"
          },
          "params_project": null,
          "preprint_provider": null,
          "version": "4"
        }
      },
      "id": "584ad1ef9ad5a102080cd477",
      "links": {
        "self": "http://localhost:8000/v2/logs/584ad1ef9ad5a102080cd477/"
      },
      "relationships": {
        "node": {
          "links": {
            "related": {
              "href": "http://localhost:8000/v2/nodes/ed4ps/",
              "meta": {}
            }
          }
        },
        "original_node": {
          "links": {
            "related": {
              "href": "http://localhost:8000/v2/nodes/ed4ps/",
              "meta": {}
            }
          }
        },
        "user": {
          "links": {
            "related": {
              "href": "http://localhost:8000/v2/users/39bsp/",
              "meta": {}
            }
          }
        }
      },
      "type": "logs"
    },
    {
      "attributes": {
        "action": "wiki_updated",
        "date": "2016-12-09T15:46:23.984000Z",
        "params": {
          "contributors": [],
          "page": "home",
          "page_id": "m7kyh",
          "params_node": {
            "id": "2nqcf",
            "title": "Announcements"
          },
          "params_project": {
            "id": "ed4ps",
            "title": "JHU Lab Organization Template"
          },
          "preprint_provider": null,
          "version": "2"
        }
      },
      "id": "584ad1cfb83f6901f2ad2775",
      "links": {
        "self": "http://localhost:8000/v2/logs/584ad1cfb83f6901f2ad2775/"
      },
      "relationships": {
        "node": {
          "links": {
            "related": {
              "href": "http://localhost:8000/v2/nodes/2nqcf/",
              "meta": {}
            }
          }
        },
        "original_node": {
          "links": {
            "related": {
              "href": "http://localhost:8000/v2/nodes/2nqcf/",
              "meta": {}
            }
          }
        },
        "user": {
          "links": {
            "related": {
              "href": "http://localhost:8000/v2/users/39bsp/",
              "meta": {}
            }
          }
        }
      },
      "type": "logs"
    }
  ],
  "links": {
    "first": null,
    "last": "http://localhost:8000/v2/nodes/ed4ps/logs/?page=7",
    "next": "http://localhost:8000/v2/nodes/ed4ps/logs/?page=2",
    "prev": null,
    "self": "http://localhost:8000/v2/nodes/ed4ps/logs/"
  },
  "meta": {
    "per_page": 10,
    "total": 61
  }
}
