{
  "data": [
    {
      "attributes": {
        "bibliographic": true,
        "index": 0,
        "permission": "admin",
        "unregistered_contributor": null
      },
      "embeds": {
        "users": {
          "data": {
            "attributes": {
              "active": true,
              "date_registered": "2013-10-11T18:42:20.133000Z",
              "family_name": "Errington",
              "full_name": "Tim Errington",
              "given_name": "Timothy",
              "locale": "en_us",
              "middle_names": "M.",
              "suffix": "",
              "timezone": "America/New_York"
            },
            "id": "alh38",
            "links": {
              "html": "http://osf.io/alh38/",
              "profile_image": "http://secure.gravatar.com/avatar/20937c7cc6bf128d50569282d8daecb0?d=identicon",
              "self": "http://localhost:8000/v2/users/alh38/"
            },
            "relationships": {
              "institutions": {
                "links": {
                  "related": {
                    "href": "http://localhost:8000/v2/users/alh38/institutions/",
                    "meta": {}
                  },
                  "self": {
                    "href": "http://localhost:8000/v2/users/alh38/relationships/institutions/",
                    "meta": {}
                  }
                }
              },
              "nodes": {
                "links": {
                  "related": {
                    "href": "http://localhost:8000/v2/users/alh38/nodes/",
                    "meta": {}
                  }
                }
              }
            },
            "type": "users"
          }
        }
      },
      "id": "e81xl-alh38",
      "links": {
        "self": "http://localhost:8000/v2/nodes/e81xl/contributors/alh38/"
      },
      "relationships": {
        "node": {
          "links": {
            "related": {
              "href": "http://localhost:8000/v2/nodes/e81xl/",
              "meta": {}
            }
          }
        },
        "users": {
          "links": {
            "related": {
              "href": "http://localhost:8000/v2/users/alh38/",
              "meta": {}
            }
          }
        }
      },
      "type": "contributors"
    },
    {
      "attributes": {
        "bibliographic": true,
        "index": 1,
        "permission": "read",
        "unregistered_contributor": null
      },
      "embeds": {
        "users": {
          "data": {
            "attributes": {
              "active": true,
              "date_registered": "2013-10-14T22:23:35.345000Z",
              "family_name": "Tan",
              "full_name": "Fraser Elisabeth Tan",
              "given_name": "Fraser",
              "locale": "en_US",
              "middle_names": "Elisabeth",
              "suffix": "",
              "timezone": "America/Los_Angeles"
            },
            "id": "ebq8h",
            "links": {
              "html": "http://osf.io/ebq8h/",
              "profile_image": "http://secure.gravatar.com/avatar/7accef345a3d257b5ea65249d5f9525c?d=identicon",
              "self": "http://localhost:8000/v2/users/ebq8h/"
            },
            "relationships": {
              "institutions": {
                "links": {
                  "related": {
                    "href": "http://localhost:8000/v2/users/ebq8h/institutions/",
                    "meta": {}
                  },
                  "self": {
                    "href": "http://localhost:8000/v2/users/ebq8h/relationships/institutions/",
                    "meta": {}
                  }
                }
              },
              "nodes": {
                "links": {
                  "related": {
                    "href": "http://localhost:8000/v2/users/ebq8h/nodes/",
                    "meta": {}
                  }
                }
              }
            },
            "type": "users"
          }
        }
      },
      "id": "e81xl-ebq8h",
      "links": {
        "self": "http://localhost:8000/v2/nodes/e81xl/contributors/ebq8h/"
      },
      "relationships": {
        "node": {
          "links": {
            "related": {
              "href": "http://localhost:8000/v2/nodes/e81xl/",
              "meta": {}
            }
          }
        },
        "users": {
          "links": {
            "related": {
              "href": "http://localhost:8000/v2/users/ebq8h/",
              "meta": {}
            }
          }
        }
      },
      "type": "contributors"
    },
    {
      "attributes": {
        "bibliographic": true,
        "index": 2,
        "permission": "read",
        "unregistered_contributor": null
      },
      "embeds": {
        "users": {
          "data": {
            "attributes": {
              "active": true,
              "date_registered": "2014-11-12T17:54:18.851000Z",
              "family_name": "Lomax",
              "full_name": "Joelle Lomax",
              "given_name": "Joelle",
              "locale": "en_US",
              "middle_names": "",
              "suffix": "",
              "timezone": "America/New_York"
            },
            "id": "r498h",
            "links": {
              "html": "http://osf.io/r498h/",
              "profile_image": "http://secure.gravatar.com/avatar/2e5060aedbfce8a41572b54ceef244ac?d=identicon",
              "self": "http://localhost:8000/v2/users/r498h/"
            },
            "relationships": {
              "institutions": {
                "links": {
                  "related": {
                    "href": "http://localhost:8000/v2/users/r498h/institutions/",
                    "meta": {}
                  },
                  "self": {
                    "href": "http://localhost:8000/v2/users/r498h/relationships/institutions/",
                    "meta": {}
                  }
                }
              },
              "nodes": {
                "links": {
                  "related": {
                    "href": "http://localhost:8000/v2/users/r498h/nodes/",
                    "meta": {}
                  }
                }
              }
            },
            "type": "users"
          }
        }
      },
      "id": "e81xl-r498h",
      "links": {
        "self": "http://localhost:8000/v2/nodes/e81xl/contributors/r498h/"
      },
      "relationships": {
        "node": {
          "links": {
            "related": {
              "href": "http://localhost:8000/v2/nodes/e81xl/",
              "meta": {}
            }
          }
        },
        "users": {
          "links": {
            "related": {
              "href": "http://localhost:8000/v2/users/r498h/",
              "meta": {}
            }
          }
        }
      },
      "type": "contributors"
    },
    {
      "attributes": {
        "bibliographic": true,
        "index": 3,
        "permission": "admin",
        "unregistered_contributor": null
      },
      "embeds": {
        "users": {
          "data": {
            "attributes": {
              "active": true,
              "date_registered": "2015-01-21T00:29:23.224000Z",
              "family_name": "Perfito",
              "full_name": "Nicole Perfito",
              "given_name": "Nicole",
              "locale": "en_US",
              "middle_names": "",
              "suffix": "",
              "timezone": "America/Los_Angeles"
            },
            "id": "etv94",
            "links": {
              "html": "http://osf.io/etv94/",
              "profile_image": "http://secure.gravatar.com/avatar/4a07194215d58dd30e2bc8433a656123?d=identicon",
              "self": "http://localhost:8000/v2/users/etv94/"
            },
            "relationships": {
              "institutions": {
                "links": {
                  "related": {
                    "href": "http://localhost:8000/v2/users/etv94/institutions/",
                    "meta": {}
                  },
                  "self": {
                    "href": "http://localhost:8000/v2/users/etv94/relationships/institutions/",
                    "meta": {}
                  }
                }
              },
              "nodes": {
                "links": {
                  "related": {
                    "href": "http://localhost:8000/v2/users/etv94/nodes/",
                    "meta": {}
                  }
                }
              }
            },
            "type": "users"
          }
        }
      },
      "id": "e81xl-etv94",
      "links": {
        "self": "http://localhost:8000/v2/nodes/e81xl/contributors/etv94/"
      },
      "relationships": {
        "node": {
          "links": {
            "related": {
              "href": "http://localhost:8000/v2/nodes/e81xl/",
              "meta": {}
            }
          }
        },
        "users": {
          "links": {
            "related": {
              "href": "http://localhost:8000/v2/users/etv94/",
              "meta": {}
            }
          }
        }
      },
      "type": "contributors"
    },
    {
      "attributes": {
        "bibliographic": true,
        "index": 4,
        "permission": "write",
        "unregistered_contributor": null
      },
      "embeds": {
        "users": {
          "data": {
            "attributes": {
              "active": true,
              "date_registered": "2013-02-24T21:46:25.060000Z",
              "family_name": "Iorns",
              "full_name": "Elizabeth Iorns",
              "given_name": "Elizabeth",
              "locale": "en_US",
              "middle_names": "",
              "suffix": "",
              "timezone": "America/Los_Angeles"
            },
            "id": "kw6hh",
            "links": {
              "html": "http://osf.io/kw6hh/",
              "profile_image": "http://secure.gravatar.com/avatar/b24dd8d794354ce1ffa26b0e5f161364?d=identicon",
              "self": "http://localhost:8000/v2/users/kw6hh/"
            },
            "relationships": {
              "institutions": {
                "links": {
                  "related": {
                    "href": "http://localhost:8000/v2/users/kw6hh/institutions/",
                    "meta": {}
                  },
                  "self": {
                    "href": "http://localhost:8000/v2/users/kw6hh/relationships/institutions/",
                    "meta": {}
                  }
                }
              },
              "nodes": {
                "links": {
                  "related": {
                    "href": "http://localhost:8000/v2/users/kw6hh/nodes/",
                    "meta": {}
                  }
                }
              }
            },
            "type": "users"
          }
        }
      },
      "id": "e81xl-kw6hh",
      "links": {
        "self": "http://localhost:8000/v2/nodes/e81xl/contributors/kw6hh/"
      },
      "relationships": {
        "node": {
          "links": {
            "related": {
              "href": "http://localhost:8000/v2/nodes/e81xl/",
              "meta": {}
            }
          }
        },
        "users": {
          "links": {
            "related": {
              "href": "http://localhost:8000/v2/users/kw6hh/",
              "meta": {}
            }
          }
        }
      },
      "type": "contributors"
    },
    {
      "attributes": {
        "bibliographic": true,
        "index": 5,
        "permission": "read",
        "unregistered_contributor": null
      },
      "embeds": {
        "users": {
          "data": {
            "attributes": {
              "active": true,
              "date_registered": "2012-10-11T22:08:52.209000Z",
              "family_name": "Gunn",
              "full_name": "William Gunn",
              "given_name": "William",
              "locale": "en_US",
              "middle_names": "",
              "suffix": "",
              "timezone": "Etc/UTC"
            },
            "id": "axnuc",
            "links": {
              "html": "http://osf.io/axnuc/",
              "profile_image": "http://secure.gravatar.com/avatar/0f2b7a64d4107aed3f800d7193c9eb71?d=identicon",
              "self": "http://localhost:8000/v2/users/axnuc/"
            },
            "relationships": {
              "institutions": {
                "links": {
                  "related": {
                    "href": "http://localhost:8000/v2/users/axnuc/institutions/",
                    "meta": {}
                  },
                  "self": {
                    "href": "http://localhost:8000/v2/users/axnuc/relationships/institutions/",
                    "meta": {}
                  }
                }
              },
              "nodes": {
                "links": {
                  "related": {
                    "href": "http://localhost:8000/v2/users/axnuc/nodes/",
                    "meta": {}
                  }
                }
              }
            },
            "type": "users"
          }
        }
      },
      "id": "e81xl-axnuc",
      "links": {
        "self": "http://localhost:8000/v2/nodes/e81xl/contributors/axnuc/"
      },
      "relationships": {
        "node": {
          "links": {
            "related": {
              "href": "http://localhost:8000/v2/nodes/e81xl/",
              "meta": {}
            }
          }
        },
        "users": {
          "links": {
            "related": {
              "href": "http://localhost:8000/v2/users/axnuc/",
              "meta": {}
            }
          }
        }
      },
      "type": "contributors"
    },
    {
      "attributes": {
        "bibliographic": true,
        "index": 6,
        "permission": "admin",
        "unregistered_contributor": null
      },
      "embeds": {
        "users": {
          "data": {
            "attributes": {
              "active": true,
              "date_registered": "2012-05-31T05:29:01.320000Z",
              "family_name": "Nosek",
              "full_name": "Brian A. Nosek",
              "given_name": "Brian",
              "locale": "en_US",
              "middle_names": "A.",
              "suffix": "",
              "timezone": "America/New_York"
            },
            "id": "cdi38",
            "links": {
              "html": "http://osf.io/cdi38/",
              "profile_image": "http://secure.gravatar.com/avatar/37fc491096861dae49fe23ba665af56b?d=identicon",
              "self": "http://localhost:8000/v2/users/cdi38/"
            },
            "relationships": {
              "institutions": {
                "links": {
                  "related": {
                    "href": "http://localhost:8000/v2/users/cdi38/institutions/",
                    "meta": {}
                  },
                  "self": {
                    "href": "http://localhost:8000/v2/users/cdi38/relationships/institutions/",
                    "meta": {}
                  }
                }
              },
              "nodes": {
                "links": {
                  "related": {
                    "href": "http://localhost:8000/v2/users/cdi38/nodes/",
                    "meta": {}
                  }
                }
              }
            },
            "type": "users"
          }
        }
      },
      "id": "e81xl-cdi38",
      "links": {
        "self": "http://localhost:8000/v2/nodes/e81xl/contributors/cdi38/"
      },
      "relationships": {
        "node": {
          "links": {
            "related": {
              "href": "http://localhost:8000/v2/nodes/e81xl/",
              "meta": {}
            }
          }
        },
        "users": {
          "links": {
            "related": {
              "href": "http://localhost:8000/v2/users/cdi38/",
              "meta": {}
            }
          }
        }
      },
      "type": "contributors"
    },
    {
      "attributes": {
        "bibliographic": true,
        "index": 7,
        "permission": "admin",
        "unregistered_contributor": null
      },
      "embeds": {
        "users": {
          "data": {
            "attributes": {
              "active": true,
              "date_registered": "2012-10-04T04:24:31.441000Z",
              "family_name": "Buck",
              "full_name": "Stuart Buck",
              "given_name": "Stuart",
              "locale": "en_US",
              "middle_names": "",
              "suffix": "",
              "timezone": "America/Chicago"
            },
            "id": "iaucv",
            "links": {
              "html": "http://osf.io/iaucv/",
              "profile_image": "http://secure.gravatar.com/avatar/b439801a33d84c6f662f0c01c0766e3e?d=identicon",
              "self": "http://localhost:8000/v2/users/iaucv/"
            },
            "relationships": {
              "institutions": {
                "links": {
                  "related": {
                    "href": "http://localhost:8000/v2/users/iaucv/institutions/",
                    "meta": {}
                  },
                  "self": {
                    "href": "http://localhost:8000/v2/users/iaucv/relationships/institutions/",
                    "meta": {}
                  }
                }
              },
              "nodes": {
                "links": {
                  "related": {
                    "href": "http://localhost:8000/v2/users/iaucv/nodes/",
                    "meta": {}
                  }
                }
              }
            },
            "type": "users"
          }
        }
      },
      "id": "e81xl-iaucv",
      "links": {
        "self": "http://localhost:8000/v2/nodes/e81xl/contributors/iaucv/"
      },
      "relationships": {
        "node": {
          "links": {
            "related": {
              "href": "http://localhost:8000/v2/nodes/e81xl/",
              "meta": {}
            }
          }
        },
        "users": {
          "links": {
            "related": {
              "href": "http://localhost:8000/v2/users/iaucv/",
              "meta": {}
            }
          }
        }
      },
      "type": "contributors"
    },
    {
      "attributes": {
        "bibliographic": true,
        "index": 8,
        "permission": "write",
        "unregistered_contributor": null
      },
      "embeds": {
        "users": {
          "data": {
            "attributes": {
              "active": true,
              "date_registered": "2014-01-22T17:14:52.433000Z",
              "family_name": "Griner",
              "full_name": "Erin Griner",
              "given_name": "Erin",
              "locale": "en_US",
              "middle_names": "Marie",
              "suffix": "",
              "timezone": "Etc/UTC"
            },
            "id": "rhz6b",
            "links": {
              "html": "http://osf.io/rhz6b/",
              "profile_image": "http://secure.gravatar.com/avatar/10d7db451efb17c5303d8a289cd95357?d=identicon",
              "self": "http://localhost:8000/v2/users/rhz6b/"
            },
            "relationships": {
              "institutions": {
                "links": {
                  "related": {
                    "href": "http://localhost:8000/v2/users/rhz6b/institutions/",
                    "meta": {}
                  },
                  "self": {
                    "href": "http://localhost:8000/v2/users/rhz6b/relationships/institutions/",
                    "meta": {}
                  }
                }
              },
              "nodes": {
                "links": {
                  "related": {
                    "href": "http://localhost:8000/v2/users/rhz6b/nodes/",
                    "meta": {}
                  }
                }
              }
            },
            "type": "users"
          }
        }
      },
      "id": "e81xl-rhz6b",
      "links": {
        "self": "http://localhost:8000/v2/nodes/e81xl/contributors/rhz6b/"
      },
      "relationships": {
        "node": {
          "links": {
            "related": {
              "href": "http://localhost:8000/v2/nodes/e81xl/",
              "meta": {}
            }
          }
        },
        "users": {
          "links": {
            "related": {
              "href": "http://localhost:8000/v2/users/rhz6b/",
              "meta": {}
            }
          }
        }
      },
      "type": "contributors"
    },
    {
      "attributes": {
        "bibliographic": true,
        "index": 9,
        "permission": "write",
        "unregistered_contributor": null
      },
      "embeds": {
        "users": {
          "data": {
            "attributes": {
              "active": true,
              "date_registered": "2014-03-03T23:57:27.071000Z",
              "family_name": "Maherali",
              "full_name": "Nimet Maherali",
              "given_name": "Nimet",
              "locale": "en_US",
              "middle_names": "",
              "suffix": "",
              "timezone": "Etc/UTC"
            },
            "id": "khuzj",
            "links": {
              "html": "http://osf.io/khuzj/",
              "profile_image": "http://secure.gravatar.com/avatar/0c5598d89bdeb360e7663342c97291d5?d=identicon",
              "self": "http://localhost:8000/v2/users/khuzj/"
            },
            "relationships": {
              "institutions": {
                "links": {
                  "related": {
                    "href": "http://localhost:8000/v2/users/khuzj/institutions/",
                    "meta": {}
                  },
                  "self": {
                    "href": "http://localhost:8000/v2/users/khuzj/relationships/institutions/",
                    "meta": {}
                  }
                }
              },
              "nodes": {
                "links": {
                  "related": {
                    "href": "http://localhost:8000/v2/users/khuzj/nodes/",
                    "meta": {}
                  }
                }
              }
            },
            "type": "users"
          }
        }
      },
      "id": "e81xl-khuzj",
      "links": {
        "self": "http://localhost:8000/v2/nodes/e81xl/contributors/khuzj/"
      },
      "relationships": {
        "node": {
          "links": {
            "related": {
              "href": "http://localhost:8000/v2/nodes/e81xl/",
              "meta": {}
            }
          }
        },
        "users": {
          "links": {
            "related": {
              "href": "http://localhost:8000/v2/users/khuzj/",
              "meta": {}
            }
          }
        }
      },
      "type": "contributors"
    }
  ],
  "links": {
    "first": null,
    "last": "http://localhost:8000/v2/nodes/e81xl/contributors/?page=9",
    "next": "http://localhost:8000/v2/nodes/e81xl/contributors/?page=2",
    "prev": null,
    "self": "http://localhost:8000/v2/nodes/e81xl/contributors/"
  },
  "meta": {
    "per_page": 10,
    "total": 84,
    "total_bibliographic": 84
  }
}
