{
  "data": [
    {
      "relationships": {
        "files": {
          "links": {
            "related": {
              "href": "http://192.168.99.100:8000/v2/nodes/v8x57/files/",
              "meta": {}
            }
          }
        },
        "contributors": {
          "links": {
            "related": {
              "href": "http://192.168.99.100:8000/v2/nodes/v8x57/contributors/",
              "meta": {}
            }
          }
        },
        "parent": {
          "links": {
            "related": {
              "href": "http://192.168.99.100:8000/v2/nodes/r5s4u/",
              "meta": {}
            }
          }
        },
        "comments": {
          "links": {
            "related": {
              "href": "http://192.168.99.100:8000/v2/nodes/v8x57/comments/",
              "meta": {}
            }
          }
        },
        "registrations": {
          "links": {
            "related": {
              "href": "http://192.168.99.100:8000/v2/nodes/v8x57/registrations/",
              "meta": {}
            }
          }
        },
        "node_links": {
          "links": {
            "related": {
              "href": "http://192.168.99.100:8000/v2/nodes/v8x57/node_links/",
              "meta": {}
            }
          }
        },
        "primary_institution": {
          "links": {
            "self": {
              "href": "http://192.168.99.100:8000/v2/nodes/v8x57/relationships/institution/",
              "meta": {}
            },
            "related": {
              "href": "http://192.168.99.100:8000/v2/nodes/v8x57/institution/",
              "meta": {}
            }
          }
        },
        "root": {
          "links": {
            "related": {
              "href": "http://192.168.99.100:8000/v2/nodes/r5s4u/",
              "meta": {}
            }
          }
        },
        "children": {
          "links": {
            "related": {
              "href": "http://192.168.99.100:8000/v2/nodes/v8x57/children/",
              "meta": {}
            }
          }
        },
        "logs": {
          "links": {
            "related": {
              "href": "http://192.168.99.100:8000/v2/nodes/v8x57/logs/",
              "meta": {}
            }
          }
        }
      },
      "links": {
        "self": "http://192.168.99.100:8000/v2/nodes/v8x57/",
        "html": "http://192.168.99.100:5000/v8x57/"
      },
      "attributes": {
        "category": "data",
        "fork": false,
        "description": null,
        "current_user_permissions": [
          "read",
          "write",
          "admin"
        ],
        "date_modified": "2016-05-31T19:39:32.305000",
        "title": "Raw Data",
        "collection": false,
        "registration": false,
        "date_created": "2016-04-19T13:08:24.039000",
        "public": false,
        "tags": []
      },
      "type": "nodes",
      "id": "v8x57"
    },
    {
      "relationships": {
        "files": {
          "links": {
            "related": {
              "href": "http://192.168.99.100:8000/v2/nodes/r5s4u/files/",
              "meta": {}
            }
          }
        },
        "logs": {
          "links": {
            "related": {
              "href": "http://192.168.99.100:8000/v2/nodes/r5s4u/logs/",
              "meta": {}
            }
          }
        },
        "contributors": {
          "links": {
            "related": {
              "href": "http://192.168.99.100:8000/v2/nodes/r5s4u/contributors/",
              "meta": {}
            }
          }
        },
        "comments": {
          "links": {
            "related": {
              "href": "http://192.168.99.100:8000/v2/nodes/r5s4u/comments/",
              "meta": {}
            }
          }
        },
        "registrations": {
          "links": {
            "related": {
              "href": "http://192.168.99.100:8000/v2/nodes/r5s4u/registrations/",
              "meta": {}
            }
          }
        },
        "node_links": {
          "links": {
            "related": {
              "href": "http://192.168.99.100:8000/v2/nodes/r5s4u/node_links/",
              "meta": {}
            }
          }
        },
        "primary_institution": {
          "links": {
            "self": {
              "href": "http://192.168.99.100:8000/v2/nodes/r5s4u/relationships/institution/",
              "meta": {}
            },
            "related": {
              "href": "http://192.168.99.100:8000/v2/nodes/r5s4u/institution/",
              "meta": {}
            }
          }
        },
        "root": {
          "links": {
            "related": {
              "href": "http://192.168.99.100:8000/v2/nodes/r5s4u/",
              "meta": {}
            }
          }
        },
        "children": {
          "links": {
            "related": {
              "href": "http://192.168.99.100:8000/v2/nodes/r5s4u/children/",
              "meta": {}
            }
          }
        }
      },
      "links": {
        "self": "http://192.168.99.100:8000/v2/nodes/r5s4u/",
        "html": "http://192.168.99.100:5000/r5s4u/"
      },
      "attributes": {
        "category": "project",
        "fork": false,
        "description": "My first project created through the OSF UI",
        "current_user_permissions": [
          "read",
          "write",
          "admin"
        ],
        "date_modified": "2016-05-31T19:39:32.266000",
        "title": "First Proj",
        "collection": false,
        "registration": false,
        "date_created": "2016-04-19T13:06:25.038000",
        "public": false,
        "tags": [
          "firstproject",
          "newbie"
        ]
      },
      "type": "nodes",
      "id": "r5s4u"
    },
    {
      "relationships": {
        "files": {
          "links": {
            "related": {
              "href": "http://192.168.99.100:8000/v2/nodes/rcjq9/files/",
              "meta": {}
            }
          }
        },
        "logs": {
          "links": {
            "related": {
              "href": "http://192.168.99.100:8000/v2/nodes/rcjq9/logs/",
              "meta": {}
            }
          }
        },
        "contributors": {
          "links": {
            "related": {
              "href": "http://192.168.99.100:8000/v2/nodes/rcjq9/contributors/",
              "meta": {}
            }
          }
        },
        "comments": {
          "links": {
            "related": {
              "href": "http://192.168.99.100:8000/v2/nodes/rcjq9/comments/",
              "meta": {}
            }
          }
        },
        "registrations": {
          "links": {
            "related": {
              "href": "http://192.168.99.100:8000/v2/nodes/rcjq9/registrations/",
              "meta": {}
            }
          }
        },
        "node_links": {
          "links": {
            "related": {
              "href": "http://192.168.99.100:8000/v2/nodes/rcjq9/node_links/",
              "meta": {}
            }
          }
        },
        "primary_institution": {
          "links": {
            "self": {
              "href": "http://192.168.99.100:8000/v2/nodes/rcjq9/relationships/institution/",
              "meta": {}
            },
            "related": {
              "href": "http://192.168.99.100:8000/v2/nodes/rcjq9/institution/",
              "meta": {}
            }
          }
        },
        "root": {
          "links": {
            "related": {
              "href": "http://192.168.99.100:8000/v2/nodes/rcjq9/",
              "meta": {}
            }
          }
        },
        "children": {
          "links": {
            "related": {
              "href": "http://192.168.99.100:8000/v2/nodes/rcjq9/children/",
              "meta": {}
            }
          }
        }
      },
      "links": {
        "self": "http://192.168.99.100:8000/v2/nodes/rcjq9/",
        "html": "http://192.168.99.100:5000/rcjq9/"
      },
      "attributes": {
        "category": "project",
        "fork": false,
        "description": "",
        "current_user_permissions": [
          "read",
          "write",
          "admin"
        ],
        "date_modified": "2016-05-12T14:09:59.119000",
        "title": "Project 15",
        "collection": false,
        "registration": false,
        "date_created": "2016-05-12T14:09:59.119000",
        "public": false,
        "tags": []
      },
      "type": "nodes",
      "id": "rcjq9"
    },
    {
      "relationships": {
        "files": {
          "links": {
            "related": {
              "href": "http://192.168.99.100:8000/v2/nodes/xgwkd/files/",
              "meta": {}
            }
          }
        },
        "logs": {
          "links": {
            "related": {
              "href": "http://192.168.99.100:8000/v2/nodes/xgwkd/logs/",
              "meta": {}
            }
          }
        },
        "contributors": {
          "links": {
            "related": {
              "href": "http://192.168.99.100:8000/v2/nodes/xgwkd/contributors/",
              "meta": {}
            }
          }
        },
        "comments": {
          "links": {
            "related": {
              "href": "http://192.168.99.100:8000/v2/nodes/xgwkd/comments/",
              "meta": {}
            }
          }
        },
        "registrations": {
          "links": {
            "related": {
              "href": "http://192.168.99.100:8000/v2/nodes/xgwkd/registrations/",
              "meta": {}
            }
          }
        },
        "node_links": {
          "links": {
            "related": {
              "href": "http://192.168.99.100:8000/v2/nodes/xgwkd/node_links/",
              "meta": {}
            }
          }
        },
        "primary_institution": {
          "links": {
            "self": {
              "href": "http://192.168.99.100:8000/v2/nodes/xgwkd/relationships/institution/",
              "meta": {}
            },
            "related": {
              "href": "http://192.168.99.100:8000/v2/nodes/xgwkd/institution/",
              "meta": {}
            }
          }
        },
        "root": {
          "links": {
            "related": {
              "href": "http://192.168.99.100:8000/v2/nodes/xgwkd/",
              "meta": {}
            }
          }
        },
        "children": {
          "links": {
            "related": {
              "href": "http://192.168.99.100:8000/v2/nodes/xgwkd/children/",
              "meta": {}
            }
          }
        }
      },
      "links": {
        "self": "http://192.168.99.100:8000/v2/nodes/xgwkd/",
        "html": "http://192.168.99.100:5000/xgwkd/"
      },
      "attributes": {
        "category": "project",
        "fork": false,
        "description": "",
        "current_user_permissions": [
          "read",
          "write",
          "admin"
        ],
        "date_modified": "2016-05-12T14:09:51.489000",
        "title": "Project 14",
        "collection": false,
        "registration": false,
        "date_created": "2016-05-12T14:09:51.489000",
        "public": false,
        "tags": []
      },
      "type": "nodes",
      "id": "xgwkd"
    },
    {
      "relationships": {
        "files": {
          "links": {
            "related": {
              "href": "http://192.168.99.100:8000/v2/nodes/kedsx/files/",
              "meta": {}
            }
          }
        },
        "logs": {
          "links": {
            "related": {
              "href": "http://192.168.99.100:8000/v2/nodes/kedsx/logs/",
              "meta": {}
            }
          }
        },
        "contributors": {
          "links": {
            "related": {
              "href": "http://192.168.99.100:8000/v2/nodes/kedsx/contributors/",
              "meta": {}
            }
          }
        },
        "comments": {
          "links": {
            "related": {
              "href": "http://192.168.99.100:8000/v2/nodes/kedsx/comments/",
              "meta": {}
            }
          }
        },
        "registrations": {
          "links": {
            "related": {
              "href": "http://192.168.99.100:8000/v2/nodes/kedsx/registrations/",
              "meta": {}
            }
          }
        },
        "node_links": {
          "links": {
            "related": {
              "href": "http://192.168.99.100:8000/v2/nodes/kedsx/node_links/",
              "meta": {}
            }
          }
        },
        "primary_institution": {
          "links": {
            "self": {
              "href": "http://192.168.99.100:8000/v2/nodes/kedsx/relationships/institution/",
              "meta": {}
            },
            "related": {
              "href": "http://192.168.99.100:8000/v2/nodes/kedsx/institution/",
              "meta": {}
            }
          }
        },
        "root": {
          "links": {
            "related": {
              "href": "http://192.168.99.100:8000/v2/nodes/kedsx/",
              "meta": {}
            }
          }
        },
        "children": {
          "links": {
            "related": {
              "href": "http://192.168.99.100:8000/v2/nodes/kedsx/children/",
              "meta": {}
            }
          }
        }
      },
      "links": {
        "self": "http://192.168.99.100:8000/v2/nodes/kedsx/",
        "html": "http://192.168.99.100:5000/kedsx/"
      },
      "attributes": {
        "category": "project",
        "fork": false,
        "description": "",
        "current_user_permissions": [
          "read",
          "write",
          "admin"
        ],
        "date_modified": "2016-05-12T14:09:40.780000",
        "title": "Project 13",
        "collection": false,
        "registration": false,
        "date_created": "2016-05-12T14:09:40.780000",
        "public": false,
        "tags": []
      },
      "type": "nodes",
      "id": "kedsx"
    },
    {
      "relationships": {
        "files": {
          "links": {
            "related": {
              "href": "http://192.168.99.100:8000/v2/nodes/jh9m6/files/",
              "meta": {}
            }
          }
        },
        "logs": {
          "links": {
            "related": {
              "href": "http://192.168.99.100:8000/v2/nodes/jh9m6/logs/",
              "meta": {}
            }
          }
        },
        "contributors": {
          "links": {
            "related": {
              "href": "http://192.168.99.100:8000/v2/nodes/jh9m6/contributors/",
              "meta": {}
            }
          }
        },
        "comments": {
          "links": {
            "related": {
              "href": "http://192.168.99.100:8000/v2/nodes/jh9m6/comments/",
              "meta": {}
            }
          }
        },
        "registrations": {
          "links": {
            "related": {
              "href": "http://192.168.99.100:8000/v2/nodes/jh9m6/registrations/",
              "meta": {}
            }
          }
        },
        "node_links": {
          "links": {
            "related": {
              "href": "http://192.168.99.100:8000/v2/nodes/jh9m6/node_links/",
              "meta": {}
            }
          }
        },
        "primary_institution": {
          "links": {
            "self": {
              "href": "http://192.168.99.100:8000/v2/nodes/jh9m6/relationships/institution/",
              "meta": {}
            },
            "related": {
              "href": "http://192.168.99.100:8000/v2/nodes/jh9m6/institution/",
              "meta": {}
            }
          }
        },
        "root": {
          "links": {
            "related": {
              "href": "http://192.168.99.100:8000/v2/nodes/jh9m6/",
              "meta": {}
            }
          }
        },
        "children": {
          "links": {
            "related": {
              "href": "http://192.168.99.100:8000/v2/nodes/jh9m6/children/",
              "meta": {}
            }
          }
        }
      },
      "links": {
        "self": "http://192.168.99.100:8000/v2/nodes/jh9m6/",
        "html": "http://192.168.99.100:5000/jh9m6/"
      },
      "attributes": {
        "category": "project",
        "fork": false,
        "description": "",
        "current_user_permissions": [
          "read",
          "write",
          "admin"
        ],
        "date_modified": "2016-05-12T14:09:33.459000",
        "title": "Project 12",
        "collection": false,
        "registration": false,
        "date_created": "2016-05-12T14:09:33.459000",
        "public": false,
        "tags": []
      },
      "type": "nodes",
      "id": "jh9m6"
    },
    {
      "relationships": {
        "files": {
          "links": {
            "related": {
              "href": "http://192.168.99.100:8000/v2/nodes/h5spa/files/",
              "meta": {}
            }
          }
        },
        "logs": {
          "links": {
            "related": {
              "href": "http://192.168.99.100:8000/v2/nodes/h5spa/logs/",
              "meta": {}
            }
          }
        },
        "contributors": {
          "links": {
            "related": {
              "href": "http://192.168.99.100:8000/v2/nodes/h5spa/contributors/",
              "meta": {}
            }
          }
        },
        "comments": {
          "links": {
            "related": {
              "href": "http://192.168.99.100:8000/v2/nodes/h5spa/comments/",
              "meta": {}
            }
          }
        },
        "registrations": {
          "links": {
            "related": {
              "href": "http://192.168.99.100:8000/v2/nodes/h5spa/registrations/",
              "meta": {}
            }
          }
        },
        "node_links": {
          "links": {
            "related": {
              "href": "http://192.168.99.100:8000/v2/nodes/h5spa/node_links/",
              "meta": {}
            }
          }
        },
        "primary_institution": {
          "links": {
            "self": {
              "href": "http://192.168.99.100:8000/v2/nodes/h5spa/relationships/institution/",
              "meta": {}
            },
            "related": {
              "href": "http://192.168.99.100:8000/v2/nodes/h5spa/institution/",
              "meta": {}
            }
          }
        },
        "root": {
          "links": {
            "related": {
              "href": "http://192.168.99.100:8000/v2/nodes/h5spa/",
              "meta": {}
            }
          }
        },
        "children": {
          "links": {
            "related": {
              "href": "http://192.168.99.100:8000/v2/nodes/h5spa/children/",
              "meta": {}
            }
          }
        }
      },
      "links": {
        "self": "http://192.168.99.100:8000/v2/nodes/h5spa/",
        "html": "http://192.168.99.100:5000/h5spa/"
      },
      "attributes": {
        "category": "project",
        "fork": false,
        "description": "",
        "current_user_permissions": [
          "read",
          "write",
          "admin"
        ],
        "date_modified": "2016-05-12T14:09:25.810000",
        "title": "Project 11",
        "collection": false,
        "registration": false,
        "date_created": "2016-05-12T14:09:25.810000",
        "public": false,
        "tags": []
      },
      "type": "nodes",
      "id": "h5spa"
    },
    {
      "relationships": {
        "files": {
          "links": {
            "related": {
              "href": "http://192.168.99.100:8000/v2/nodes/5rn4g/files/",
              "meta": {}
            }
          }
        },
        "logs": {
          "links": {
            "related": {
              "href": "http://192.168.99.100:8000/v2/nodes/5rn4g/logs/",
              "meta": {}
            }
          }
        },
        "contributors": {
          "links": {
            "related": {
              "href": "http://192.168.99.100:8000/v2/nodes/5rn4g/contributors/",
              "meta": {}
            }
          }
        },
        "comments": {
          "links": {
            "related": {
              "href": "http://192.168.99.100:8000/v2/nodes/5rn4g/comments/",
              "meta": {}
            }
          }
        },
        "registrations": {
          "links": {
            "related": {
              "href": "http://192.168.99.100:8000/v2/nodes/5rn4g/registrations/",
              "meta": {}
            }
          }
        },
        "node_links": {
          "links": {
            "related": {
              "href": "http://192.168.99.100:8000/v2/nodes/5rn4g/node_links/",
              "meta": {}
            }
          }
        },
        "primary_institution": {
          "links": {
            "self": {
              "href": "http://192.168.99.100:8000/v2/nodes/5rn4g/relationships/institution/",
              "meta": {}
            },
            "related": {
              "href": "http://192.168.99.100:8000/v2/nodes/5rn4g/institution/",
              "meta": {}
            }
          }
        },
        "root": {
          "links": {
            "related": {
              "href": "http://192.168.99.100:8000/v2/nodes/5rn4g/",
              "meta": {}
            }
          }
        },
        "children": {
          "links": {
            "related": {
              "href": "http://192.168.99.100:8000/v2/nodes/5rn4g/children/",
              "meta": {}
            }
          }
        }
      },
      "links": {
        "self": "http://192.168.99.100:8000/v2/nodes/5rn4g/",
        "html": "http://192.168.99.100:5000/5rn4g/"
      },
      "attributes": {
        "category": "project",
        "fork": false,
        "description": "",
        "current_user_permissions": [
          "read",
          "write",
          "admin"
        ],
        "date_modified": "2016-05-12T14:09:19.787000",
        "title": "Project 10",
        "collection": false,
        "registration": false,
        "date_created": "2016-05-12T14:09:19.787000",
        "public": false,
        "tags": []
      },
      "type": "nodes",
      "id": "5rn4g"
    },
    {
      "relationships": {
        "files": {
          "links": {
            "related": {
              "href": "http://192.168.99.100:8000/v2/nodes/xwmbu/files/",
              "meta": {}
            }
          }
        },
        "logs": {
          "links": {
            "related": {
              "href": "http://192.168.99.100:8000/v2/nodes/xwmbu/logs/",
              "meta": {}
            }
          }
        },
        "contributors": {
          "links": {
            "related": {
              "href": "http://192.168.99.100:8000/v2/nodes/xwmbu/contributors/",
              "meta": {}
            }
          }
        },
        "comments": {
          "links": {
            "related": {
              "href": "http://192.168.99.100:8000/v2/nodes/xwmbu/comments/",
              "meta": {}
            }
          }
        },
        "registrations": {
          "links": {
            "related": {
              "href": "http://192.168.99.100:8000/v2/nodes/xwmbu/registrations/",
              "meta": {}
            }
          }
        },
        "node_links": {
          "links": {
            "related": {
              "href": "http://192.168.99.100:8000/v2/nodes/xwmbu/node_links/",
              "meta": {}
            }
          }
        },
        "primary_institution": {
          "links": {
            "self": {
              "href": "http://192.168.99.100:8000/v2/nodes/xwmbu/relationships/institution/",
              "meta": {}
            },
            "related": {
              "href": "http://192.168.99.100:8000/v2/nodes/xwmbu/institution/",
              "meta": {}
            }
          }
        },
        "root": {
          "links": {
            "related": {
              "href": "http://192.168.99.100:8000/v2/nodes/xwmbu/",
              "meta": {}
            }
          }
        },
        "children": {
          "links": {
            "related": {
              "href": "http://192.168.99.100:8000/v2/nodes/xwmbu/children/",
              "meta": {}
            }
          }
        }
      },
      "links": {
        "self": "http://192.168.99.100:8000/v2/nodes/xwmbu/",
        "html": "http://192.168.99.100:5000/xwmbu/"
      },
      "attributes": {
        "category": "project",
        "fork": false,
        "description": "",
        "current_user_permissions": [
          "read",
          "write",
          "admin"
        ],
        "date_modified": "2016-05-12T14:09:10.348000",
        "title": "Project 9",
        "collection": false,
        "registration": false,
        "date_created": "2016-05-12T14:09:10.348000",
        "public": false,
        "tags": []
      },
      "type": "nodes",
      "id": "xwmbu"
    },
    {
      "relationships": {
        "files": {
          "links": {
            "related": {
              "href": "http://192.168.99.100:8000/v2/nodes/g83xd/files/",
              "meta": {}
            }
          }
        },
        "logs": {
          "links": {
            "related": {
              "href": "http://192.168.99.100:8000/v2/nodes/g83xd/logs/",
              "meta": {}
            }
          }
        },
        "contributors": {
          "links": {
            "related": {
              "href": "http://192.168.99.100:8000/v2/nodes/g83xd/contributors/",
              "meta": {}
            }
          }
        },
        "comments": {
          "links": {
            "related": {
              "href": "http://192.168.99.100:8000/v2/nodes/g83xd/comments/",
              "meta": {}
            }
          }
        },
        "registrations": {
          "links": {
            "related": {
              "href": "http://192.168.99.100:8000/v2/nodes/g83xd/registrations/",
              "meta": {}
            }
          }
        },
        "node_links": {
          "links": {
            "related": {
              "href": "http://192.168.99.100:8000/v2/nodes/g83xd/node_links/",
              "meta": {}
            }
          }
        },
        "primary_institution": {
          "links": {
            "self": {
              "href": "http://192.168.99.100:8000/v2/nodes/g83xd/relationships/institution/",
              "meta": {}
            },
            "related": {
              "href": "http://192.168.99.100:8000/v2/nodes/g83xd/institution/",
              "meta": {}
            }
          }
        },
        "root": {
          "links": {
            "related": {
              "href": "http://192.168.99.100:8000/v2/nodes/g83xd/",
              "meta": {}
            }
          }
        },
        "children": {
          "links": {
            "related": {
              "href": "http://192.168.99.100:8000/v2/nodes/g83xd/children/",
              "meta": {}
            }
          }
        }
      },
      "links": {
        "self": "http://192.168.99.100:8000/v2/nodes/g83xd/",
        "html": "http://192.168.99.100:5000/g83xd/"
      },
      "attributes": {
        "category": "project",
        "fork": false,
        "description": "",
        "current_user_permissions": [
          "read",
          "write",
          "admin"
        ],
        "date_modified": "2016-05-12T14:09:02.349000",
        "title": "Project 8",
        "collection": false,
        "registration": false,
        "date_created": "2016-05-12T14:09:02.349000",
        "public": false,
        "tags": []
      },
      "type": "nodes",
      "id": "g83xd"
    }
  ],
  "links": {
    "first": null,
    "last": "http://192.168.99.100:8000/v2/users/a3q2g/nodes/?page=2",
    "prev": null,
    "next": "http://192.168.99.100:8000/v2/users/a3q2g/nodes/?page=2",
    "meta": {
      "total": 19,
      "per_page": 10
    }
  }
}
