{
  "data": [
    {
      "attributes": {
        "action": "osf_storage_file_added",
        "date": "2017-01-18T21:34:36.527000Z",
        "params": {
          "contributors": [],
          "params_node": {
            "id": "xmnkz",
            "title": "Other Component"
          },
          "params_project": {
            "id": "xug4a",
            "title": "Test Project"
          },
          "path": "/11_eleven.txt",
          "preprint_provider": null,
          "urls": {
            "download": "/project/xmnkz/files/osfstorage/587fdf666c613b0043f2c804/?action=download",
            "view": "/project/xmnkz/files/osfstorage/587fdf666c613b0043f2c804/"
          }
        }
      },
      "id": "587fdf6c6c613b0045f2c71e",
      "links": {
        "self": "http://localhost:8000/v2/logs/587fdf6c6c613b0045f2c71e/"
      },
      "relationships": {
        "node": {
          "links": {
            "related": {
              "href": "http://localhost:8000/v2/nodes/xmnkz/",
              "meta": {}
            }
          }
        },
        "original_node": {
          "links": {
            "related": {
              "href": "http://localhost:8000/v2/nodes/xmnkz/",
              "meta": {}
            }
          }
        },
        "user": {
          "links": {
            "related": {
              "href": "http://localhost:8000/v2/users/gb6f3/",
              "meta": {}
            }
          }
        }
      },
      "type": "logs"
    },
    {
      "attributes": {
        "action": "osf_storage_file_added",
        "date": "2017-01-18T21:34:31.000000Z",
        "params": {
          "contributors": [],
          "params_node": {
            "id": "xmnkz",
            "title": "Other Component"
          },
          "params_project": {
            "id": "xug4a",
            "title": "Test Project"
          },
          "path": "/08_eight.txt",
          "preprint_provider": null,
          "urls": {
            "download": "/project/xmnkz/files/osfstorage/587fdf5a9ad5a10053b83547/?action=download",
            "view": "/project/xmnkz/files/osfstorage/587fdf5a9ad5a10053b83547/"
          }
        }
      },
      "id": "587fdf67ad3c4800464d7f19",
      "links": {
        "self": "http://localhost:8000/v2/logs/587fdf67ad3c4800464d7f19/"
      },
      "relationships": {
        "node": {
          "links": {
            "related": {
              "href": "http://localhost:8000/v2/nodes/xmnkz/",
              "meta": {}
            }
          }
        },
        "original_node": {
          "links": {
            "related": {
              "href": "http://localhost:8000/v2/nodes/xmnkz/",
              "meta": {}
            }
          }
        },
        "user": {
          "links": {
            "related": {
              "href": "http://localhost:8000/v2/users/gb6f3/",
              "meta": {}
            }
          }
        }
      },
      "type": "logs"
    },
    {
      "attributes": {
        "action": "osf_storage_file_added",
        "date": "2017-01-18T21:34:30.967000Z",
        "params": {
          "contributors": [],
          "params_node": {
            "id": "xmnkz",
            "title": "Other Component"
          },
          "params_project": {
            "id": "xug4a",
            "title": "Test Project"
          },
          "path": "/06_six.txt",
          "preprint_provider": null,
          "urls": {
            "download": "/project/xmnkz/files/osfstorage/587fdf5aad3c4800414d7ee3/?action=download",
            "view": "/project/xmnkz/files/osfstorage/587fdf5aad3c4800414d7ee3/"
          }
        }
      },
      "id": "587fdf66ad3c4800434d7ecb",
      "links": {
        "self": "http://localhost:8000/v2/logs/587fdf66ad3c4800434d7ecb/"
      },
      "relationships": {
        "node": {
          "links": {
            "related": {
              "href": "http://localhost:8000/v2/nodes/xmnkz/",
              "meta": {}
            }
          }
        },
        "original_node": {
          "links": {
            "related": {
              "href": "http://localhost:8000/v2/nodes/xmnkz/",
              "meta": {}
            }
          }
        },
        "user": {
          "links": {
            "related": {
              "href": "http://localhost:8000/v2/users/gb6f3/",
              "meta": {}
            }
          }
        }
      },
      "type": "logs"
    },
    {
      "attributes": {
        "action": "osf_storage_file_added",
        "date": "2017-01-18T21:34:30.471000Z",
        "params": {
          "contributors": [],
          "params_node": {
            "id": "xmnkz",
            "title": "Other Component"
          },
          "params_project": {
            "id": "xug4a",
            "title": "Test Project"
          },
          "path": "/10_ten.txt",
          "preprint_provider": null,
          "urls": {
            "download": "/project/xmnkz/files/osfstorage/587fdf5a594d900044569d6f/?action=download",
            "view": "/project/xmnkz/files/osfstorage/587fdf5a594d900044569d6f/"
          }
        }
      },
      "id": "587fdf66ad3c4800484d7fb3",
      "links": {
        "self": "http://localhost:8000/v2/logs/587fdf66ad3c4800484d7fb3/"
      },
      "relationships": {
        "node": {
          "links": {
            "related": {
              "href": "http://localhost:8000/v2/nodes/xmnkz/",
              "meta": {}
            }
          }
        },
        "original_node": {
          "links": {
            "related": {
              "href": "http://localhost:8000/v2/nodes/xmnkz/",
              "meta": {}
            }
          }
        },
        "user": {
          "links": {
            "related": {
              "href": "http://localhost:8000/v2/users/gb6f3/",
              "meta": {}
            }
          }
        }
      },
      "type": "logs"
    },
    {
      "attributes": {
        "action": "osf_storage_file_added",
        "date": "2017-01-18T21:34:30.148000Z",
        "params": {
          "contributors": [],
          "params_node": {
            "id": "xmnkz",
            "title": "Other Component"
          },
          "params_project": {
            "id": "xug4a",
            "title": "Test Project"
          },
          "path": "/09_nine.txt",
          "preprint_provider": null,
          "urls": {
            "download": "/project/xmnkz/files/osfstorage/587fdf5a6c613b0048f2c6e8/?action=download",
            "view": "/project/xmnkz/files/osfstorage/587fdf5a6c613b0048f2c6e8/"
          }
        }
      },
      "id": "587fdf66594d900048569ccf",
      "links": {
        "self": "http://localhost:8000/v2/logs/587fdf66594d900048569ccf/"
      },
      "relationships": {
        "node": {
          "links": {
            "related": {
              "href": "http://localhost:8000/v2/nodes/xmnkz/",
              "meta": {}
            }
          }
        },
        "original_node": {
          "links": {
            "related": {
              "href": "http://localhost:8000/v2/nodes/xmnkz/",
              "meta": {}
            }
          }
        },
        "user": {
          "links": {
            "related": {
              "href": "http://localhost:8000/v2/users/gb6f3/",
              "meta": {}
            }
          }
        }
      },
      "type": "logs"
    },
    {
      "attributes": {
        "action": "osf_storage_file_added",
        "date": "2017-01-18T21:34:29.156000Z",
        "params": {
          "contributors": [],
          "params_node": {
            "id": "xmnkz",
            "title": "Other Component"
          },
          "params_project": {
            "id": "xug4a",
            "title": "Test Project"
          },
          "path": "/07_seven.txt",
          "preprint_provider": null,
          "urls": {
            "download": "/project/xmnkz/files/osfstorage/587fdf5ab83f69004bf14d0d/?action=download",
            "view": "/project/xmnkz/files/osfstorage/587fdf5ab83f69004bf14d0d/"
          }
        }
      },
      "id": "587fdf65b83f69004df14ca5",
      "links": {
        "self": "http://localhost:8000/v2/logs/587fdf65b83f69004df14ca5/"
      },
      "relationships": {
        "node": {
          "links": {
            "related": {
              "href": "http://localhost:8000/v2/nodes/xmnkz/",
              "meta": {}
            }
          }
        },
        "original_node": {
          "links": {
            "related": {
              "href": "http://localhost:8000/v2/nodes/xmnkz/",
              "meta": {}
            }
          }
        },
        "user": {
          "links": {
            "related": {
              "href": "http://localhost:8000/v2/users/gb6f3/",
              "meta": {}
            }
          }
        }
      },
      "type": "logs"
    },
    {
      "attributes": {
        "action": "osf_storage_file_added",
        "date": "2017-01-18T21:34:17.190000Z",
        "params": {
          "contributors": [],
          "params_node": {
            "id": "xmnkz",
            "title": "Other Component"
          },
          "params_project": {
            "id": "xug4a",
            "title": "Test Project"
          },
          "path": "/04_four.txt",
          "preprint_provider": null,
          "urls": {
            "download": "/project/xmnkz/files/osfstorage/587fdf4ab83f690047f14c9c/?action=download",
            "view": "/project/xmnkz/files/osfstorage/587fdf4ab83f690047f14c9c/"
          }
        }
      },
      "id": "587fdf599ad5a10051b835ad",
      "links": {
        "self": "http://localhost:8000/v2/logs/587fdf599ad5a10051b835ad/"
      },
      "relationships": {
        "node": {
          "links": {
            "related": {
              "href": "http://localhost:8000/v2/nodes/xmnkz/",
              "meta": {}
            }
          }
        },
        "original_node": {
          "links": {
            "related": {
              "href": "http://localhost:8000/v2/nodes/xmnkz/",
              "meta": {}
            }
          }
        },
        "user": {
          "links": {
            "related": {
              "href": "http://localhost:8000/v2/users/gb6f3/",
              "meta": {}
            }
          }
        }
      },
      "type": "logs"
    },
    {
      "attributes": {
        "action": "osf_storage_file_added",
        "date": "2017-01-18T21:34:17.187000Z",
        "params": {
          "contributors": [],
          "params_node": {
            "id": "xmnkz",
            "title": "Other Component"
          },
          "params_project": {
            "id": "xug4a",
            "title": "Test Project"
          },
          "path": "/01_one.txt",
          "preprint_provider": null,
          "urls": {
            "download": "/project/xmnkz/files/osfstorage/587fdf4bad3c4800474d7eb3/?action=download",
            "view": "/project/xmnkz/files/osfstorage/587fdf4bad3c4800474d7eb3/"
          }
        }
      },
      "id": "587fdf596c613b0047f2c684",
      "links": {
        "self": "http://localhost:8000/v2/logs/587fdf596c613b0047f2c684/"
      },
      "relationships": {
        "node": {
          "links": {
            "related": {
              "href": "http://localhost:8000/v2/nodes/xmnkz/",
              "meta": {}
            }
          }
        },
        "original_node": {
          "links": {
            "related": {
              "href": "http://localhost:8000/v2/nodes/xmnkz/",
              "meta": {}
            }
          }
        },
        "user": {
          "links": {
            "related": {
              "href": "http://localhost:8000/v2/users/gb6f3/",
              "meta": {}
            }
          }
        }
      },
      "type": "logs"
    },
    {
      "attributes": {
        "action": "osf_storage_file_added",
        "date": "2017-01-18T21:34:17.115000Z",
        "params": {
          "contributors": [],
          "params_node": {
            "id": "xmnkz",
            "title": "Other Component"
          },
          "params_project": {
            "id": "xug4a",
            "title": "Test Project"
          },
          "path": "/05_five.txt",
          "preprint_provider": null,
          "urls": {
            "download": "/project/xmnkz/files/osfstorage/587fdf4a6c5ee6004a8166c4/?action=download",
            "view": "/project/xmnkz/files/osfstorage/587fdf4a6c5ee6004a8166c4/"
          }
        }
      },
      "id": "587fdf59594d900048569cce",
      "links": {
        "self": "http://localhost:8000/v2/logs/587fdf59594d900048569cce/"
      },
      "relationships": {
        "node": {
          "links": {
            "related": {
              "href": "http://localhost:8000/v2/nodes/xmnkz/",
              "meta": {}
            }
          }
        },
        "original_node": {
          "links": {
            "related": {
              "href": "http://localhost:8000/v2/nodes/xmnkz/",
              "meta": {}
            }
          }
        },
        "user": {
          "links": {
            "related": {
              "href": "http://localhost:8000/v2/users/gb6f3/",
              "meta": {}
            }
          }
        }
      },
      "type": "logs"
    },
    {
      "attributes": {
        "action": "osf_storage_file_added",
        "date": "2017-01-18T21:34:17.112000Z",
        "params": {
          "contributors": [],
          "params_node": {
            "id": "xmnkz",
            "title": "Other Component"
          },
          "params_project": {
            "id": "xug4a",
            "title": "Test Project"
          },
          "path": "/02_two.txt",
          "preprint_provider": null,
          "urls": {
            "download": "/project/xmnkz/files/osfstorage/587fdf4a6c5ee6004b816737/?action=download",
            "view": "/project/xmnkz/files/osfstorage/587fdf4a6c5ee6004b816737/"
          }
        }
      },
      "id": "587fdf59b83f69004bf14d0c",
      "links": {
        "self": "http://localhost:8000/v2/logs/587fdf59b83f69004bf14d0c/"
      },
      "relationships": {
        "node": {
          "links": {
            "related": {
              "href": "http://localhost:8000/v2/nodes/xmnkz/",
              "meta": {}
            }
          }
        },
        "original_node": {
          "links": {
            "related": {
              "href": "http://localhost:8000/v2/nodes/xmnkz/",
              "meta": {}
            }
          }
        },
        "user": {
          "links": {
            "related": {
              "href": "http://localhost:8000/v2/users/gb6f3/",
              "meta": {}
            }
          }
        }
      },
      "type": "logs"
    }
  ],
  "links": {
    "first": null,
    "last": "http://localhost:8000/v2/nodes/xmnkz/logs/?page=2",
    "next": "http://localhost:8000/v2/nodes/xmnkz/logs/?page=2",
    "prev": null,
    "self": "http://localhost:8000/v2/nodes/xmnkz/logs/"
  },
  "meta": {
    "per_page": 10,
    "total": 19
  }
}
