{
  "data": [
    {
      "attributes": {
        "action": "project_registered",
        "date": "2016-08-01T19:15:56.205000Z",
        "params": {
          "contributors": [],
          "params_node": {
            "id": "a49gq",
            "title": "YAC"
          },
          "params_project": null,
          "preprint_provider": null
        }
      },
      "id": "57a95d8ab83f6901f6539afa",
      "links": {
        "self": "http://localhost:8000/v2/logs/57a95d8ab83f6901f6539afa/"
      },
      "relationships": {
        "node": {
          "links": {
            "related": {
              "href": "http://localhost:8000/v2/registrations/rz5j3/",
              "meta": {}
            }
          }
        },
        "original_node": {
          "links": {
            "related": {
              "href": "http://localhost:8000/v2/nodes/a49gq/",
              "meta": {}
            }
          }
        },
        "user": {
          "links": {
            "related": {
              "href": "http://localhost:8000/v2/users/gb6f3/",
              "meta": {}
            }
          }
        }
      },
      "type": "logs"
    },
    {
      "attributes": {
        "action": "project_registered",
        "date": "2016-08-01T19:15:56.178000Z",
        "params": {
          "contributors": [],
          "params_node": {
            "id": "37a5n",
            "title": "Software Component"
          },
          "params_project": null,
          "preprint_provider": null
        }
      },
      "id": "57a95d8ab83f6901f6539af1",
      "links": {
        "self": "http://localhost:8000/v2/logs/57a95d8ab83f6901f6539af1/"
      },
      "relationships": {
        "node": {
          "links": {
            "related": {
              "href": "http://localhost:8000/v2/registrations/x32t4/",
              "meta": {}
            }
          }
        },
        "original_node": {
          "links": {
            "related": {
              "href": "http://localhost:8000/v2/nodes/37a5n/",
              "meta": {}
            }
          }
        },
        "user": {
          "links": {
            "related": {
              "href": "http://localhost:8000/v2/users/gb6f3/",
              "meta": {}
            }
          }
        }
      },
      "type": "logs"
    },
    {
      "attributes": {
        "action": "project_registered",
        "date": "2016-08-01T19:15:56.158000Z",
        "params": {
          "contributors": [],
          "params_node": {
            "id": "xmnkz",
            "title": "Other Component"
          },
          "params_project": null,
          "preprint_provider": null
        }
      },
      "id": "57a95d8ab83f6901f6539ae5",
      "links": {
        "self": "http://localhost:8000/v2/logs/57a95d8ab83f6901f6539ae5/"
      },
      "relationships": {
        "node": {
          "links": {
            "related": {
              "href": "http://localhost:8000/v2/registrations/mgjch/",
              "meta": {}
            }
          }
        },
        "original_node": {
          "links": {
            "related": {
              "href": "http://localhost:8000/v2/nodes/xmnkz/",
              "meta": {}
            }
          }
        },
        "user": {
          "links": {
            "related": {
              "href": "http://localhost:8000/v2/users/gb6f3/",
              "meta": {}
            }
          }
        }
      },
      "type": "logs"
    },
    {
      "attributes": {
        "action": "project_registered",
        "date": "2016-08-01T19:15:56.141000Z",
        "params": {
          "contributors": [],
          "params_node": {
            "id": "veyxj",
            "title": "Data Component"
          },
          "params_project": null,
          "preprint_provider": null
        }
      },
      "id": "57a95d89b83f6901f6539ad8",
      "links": {
        "self": "http://localhost:8000/v2/logs/57a95d89b83f6901f6539ad8/"
      },
      "relationships": {
        "node": {
          "links": {
            "related": {
              "href": "http://localhost:8000/v2/registrations/d7ngy/",
              "meta": {}
            }
          }
        },
        "original_node": {
          "links": {
            "related": {
              "href": "http://localhost:8000/v2/nodes/veyxj/",
              "meta": {}
            }
          }
        },
        "user": {
          "links": {
            "related": {
              "href": "http://localhost:8000/v2/users/gb6f3/",
              "meta": {}
            }
          }
        }
      },
      "type": "logs"
    },
    {
      "attributes": {
        "action": "project_registered",
        "date": "2016-08-01T19:15:56.126000Z",
        "params": {
          "contributors": [],
          "params_node": {
            "id": "xug4a",
            "title": "Test Project"
          },
          "params_project": null,
          "preprint_provider": null
        }
      },
      "id": "57a95d89b83f6901f6539acb",
      "links": {
        "self": "http://localhost:8000/v2/logs/57a95d89b83f6901f6539acb/"
      },
      "relationships": {
        "node": {
          "links": {
            "related": {
              "href": "http://localhost:8000/v2/registrations/5nua2/",
              "meta": {}
            }
          }
        },
        "original_node": {
          "links": {
            "related": {
              "href": "http://localhost:8000/v2/nodes/xug4a/",
              "meta": {}
            }
          }
        },
        "user": {
          "links": {
            "related": {
              "href": "http://localhost:8000/v2/users/gb6f3/",
              "meta": {}
            }
          }
        }
      },
      "type": "logs"
    },
    {
      "attributes": {
        "action": "registration_approved",
        "date": "2016-08-01T19:15:56.108000Z",
        "params": {
          "contributors": [],
          "params_node": {
            "id": "xug4a",
            "title": "Test Project"
          },
          "params_project": null,
          "preprint_provider": null
        }
      },
      "id": "57a95d89b83f6901f6539aca",
      "links": {
        "self": "http://localhost:8000/v2/logs/57a95d89b83f6901f6539aca/"
      },
      "relationships": {
        "node": {
          "links": {
            "related": {
              "href": "http://localhost:8000/v2/registrations/5nua2/",
              "meta": {}
            }
          }
        },
        "original_node": {
          "links": {
            "related": {
              "href": "http://localhost:8000/v2/nodes/xug4a/",
              "meta": {}
            }
          }
        },
        "user": {
          "links": {
            "related": {
              "href": "http://localhost:8000/v2/users/gb6f3/",
              "meta": {}
            }
          }
        }
      },
      "type": "logs"
    },
    {
      "attributes": {
        "action": "registration_initiated",
        "date": "2016-08-01T19:11:28.253000Z",
        "params": {
          "contributors": [],
          "params_node": {
            "id": "xug4a",
            "title": "Test Project"
          },
          "params_project": null,
          "preprint_provider": null
        }
      },
      "id": "57a95d89b83f6901f6539ac9",
      "links": {
        "self": "http://localhost:8000/v2/logs/57a95d89b83f6901f6539ac9/"
      },
      "relationships": {
        "node": {
          "links": {
            "related": {
              "href": "http://localhost:8000/v2/registrations/5nua2/",
              "meta": {}
            }
          }
        },
        "original_node": {
          "links": {
            "related": {
              "href": "http://localhost:8000/v2/nodes/xug4a/",
              "meta": {}
            }
          }
        },
        "user": {
          "links": {
            "related": {
              "href": "http://localhost:8000/v2/users/gb6f3/",
              "meta": {}
            }
          }
        }
      },
      "type": "logs"
    },
    {
      "attributes": {
        "action": "contributor_added",
        "date": "2016-08-01T19:10:18.944000Z",
        "params": {
          "contributors": [
            {
              "active": true,
              "family_name": "Martino",
              "full_name": "James Martino",
              "given_name": "James",
              "id": "9vw8x",
              "middle_names": "",
              "unregistered_name": null
            }
          ],
          "params_node": {
            "id": "a49gq",
            "title": "YAC"
          },
          "params_project": {
            "id": "xug4a",
            "title": "Test Project"
          },
          "preprint_provider": null
        }
      },
      "id": "57a95d8ab83f6901f6539af9",
      "links": {
        "self": "http://localhost:8000/v2/logs/57a95d8ab83f6901f6539af9/"
      },
      "relationships": {
        "node": {
          "links": {
            "related": {
              "href": "http://localhost:8000/v2/registrations/rz5j3/",
              "meta": {}
            }
          }
        },
        "original_node": {
          "links": {
            "related": {
              "href": "http://localhost:8000/v2/nodes/a49gq/",
              "meta": {}
            }
          }
        },
        "user": {
          "links": {
            "related": {
              "href": "http://localhost:8000/v2/users/gb6f3/",
              "meta": {}
            }
          }
        }
      },
      "type": "logs"
    },
    {
      "attributes": {
        "action": "project_created",
        "date": "2016-08-01T19:10:18.354000Z",
        "params": {
          "contributors": [],
          "params_node": {
            "id": "a49gq",
            "title": "YAC"
          },
          "params_project": null,
          "preprint_provider": null
        }
      },
      "id": "57a95d8ab83f6901f6539af8",
      "links": {
        "self": "http://localhost:8000/v2/logs/57a95d8ab83f6901f6539af8/"
      },
      "relationships": {
        "node": {
          "links": {
            "related": {
              "href": "http://localhost:8000/v2/registrations/rz5j3/",
              "meta": {}
            }
          }
        },
        "original_node": {
          "links": {
            "related": {
              "href": "http://localhost:8000/v2/nodes/a49gq/",
              "meta": {}
            }
          }
        },
        "user": {
          "links": {
            "related": {
              "href": "http://localhost:8000/v2/users/gb6f3/",
              "meta": {}
            }
          }
        }
      },
      "type": "logs"
    },
    {
      "attributes": {
        "action": "s3_file_updated",
        "date": "2016-07-29T18:41:17.463000Z",
        "params": {
          "bucket": "osf",
          "contributors": [],
          "params_node": {
            "id": "xug4a",
            "title": "Test Project"
          },
          "params_project": null,
          "path": "/quinoa recipie.rtf",
          "preprint_provider": null,
          "urls": {
            "download": "/project/xug4a/files/s3/quinoa%20recipie.rtf/?action=download",
            "view": "/project/xug4a/files/s3/quinoa%20recipie.rtf/"
          }
        }
      },
      "id": "57a95d89b83f6901f6539ac8",
      "links": {
        "self": "http://localhost:8000/v2/logs/57a95d89b83f6901f6539ac8/"
      },
      "relationships": {
        "node": {
          "links": {
            "related": {
              "href": "http://localhost:8000/v2/registrations/5nua2/",
              "meta": {}
            }
          }
        },
        "original_node": {
          "links": {
            "related": {
              "href": "http://localhost:8000/v2/nodes/xug4a/",
              "meta": {}
            }
          }
        },
        "user": {
          "links": {
            "related": {
              "href": "http://localhost:8000/v2/users/gb6f3/",
              "meta": {}
            }
          }
        }
      },
      "type": "logs"
    }
  ],
  "links": {
    "first": null,
    "last": "http://localhost:8000/v2/registrations/5nua2/logs/?page=8",
    "next": "http://localhost:8000/v2/registrations/5nua2/logs/?page=2",
    "prev": null,
    "self": "http://localhost:8000/v2/registrations/5nua2/logs/"
  },
  "meta": {
    "per_page": 10,
    "total": 75
  }
}
