{
  "data": [
    {
      "attributes": {
        "bibliographic": true,
        "index": 0,
        "permission": "admin",
        "unregistered_contributor": null
      },
      "embeds": {
        "users": {
          "data": {
            "attributes": {
              "active": true,
              "date_registered": "2014-10-10T14:04:19.070000Z",
              "family_name": "Mellor",
              "full_name": "David Mellor",
              "given_name": "David",
              "locale": "en_US",
              "middle_names": "Thomas",
              "suffix": "",
              "timezone": "America/New_York"
            },
            "id": "qthsf",
            "links": {
              "html": "http://osf.io/qthsf/",
              "profile_image": "http://secure.gravatar.com/avatar/a6ab04ed96d8f2ee60af8e684b7e7bdc?d=identicon",
              "self": "http://localhost:8000/v2/users/qthsf/"
            },
            "relationships": {
              "institutions": {
                "links": {
                  "related": {
                    "href": "http://localhost:8000/v2/users/qthsf/institutions/",
                    "meta": {}
                  },
                  "self": {
                    "href": "http://localhost:8000/v2/users/qthsf/relationships/institutions/",
                    "meta": {}
                  }
                }
              },
              "nodes": {
                "links": {
                  "related": {
                    "href": "http://localhost:8000/v2/users/qthsf/nodes/",
                    "meta": {}
                  }
                }
              }
            },
            "type": "users"
          }
        }
      },
      "id": "8mrfq-qthsf",
      "links": {
        "self": "http://localhost:8000/v2/nodes/8mrfq/contributors/qthsf/"
      },
      "relationships": {
        "node": {
          "links": {
            "related": {
              "href": "http://localhost:8000/v2/nodes/8mrfq/",
              "meta": {}
            }
          }
        },
        "users": {
          "links": {
            "related": {
              "href": "http://localhost:8000/v2/users/qthsf/",
              "meta": {}
            }
          }
        }
      },
      "type": "contributors"
    },
    {
      "attributes": {
        "bibliographic": true,
        "index": 1,
        "permission": "admin",
        "unregistered_contributor": null
      },
      "embeds": {
        "users": {
          "data": {
            "attributes": {
              "active": true,
              "date_registered": "2012-05-31T05:29:01.320000Z",
              "family_name": "Nosek",
              "full_name": "Brian A. Nosek",
              "given_name": "Brian",
              "locale": "en_US",
              "middle_names": "A.",
              "suffix": "",
              "timezone": "America/New_York"
            },
            "id": "cdi38",
            "links": {
              "html": "http://osf.io/cdi38/",
              "profile_image": "http://secure.gravatar.com/avatar/37fc491096861dae49fe23ba665af56b?d=identicon",
              "self": "http://localhost:8000/v2/users/cdi38/"
            },
            "relationships": {
              "institutions": {
                "links": {
                  "related": {
                    "href": "http://localhost:8000/v2/users/cdi38/institutions/",
                    "meta": {}
                  },
                  "self": {
                    "href": "http://localhost:8000/v2/users/cdi38/relationships/institutions/",
                    "meta": {}
                  }
                }
              },
              "nodes": {
                "links": {
                  "related": {
                    "href": "http://localhost:8000/v2/users/cdi38/nodes/",
                    "meta": {}
                  }
                }
              }
            },
            "type": "users"
          }
        }
      },
      "id": "8mrfq-cdi38",
      "links": {
        "self": "http://localhost:8000/v2/nodes/8mrfq/contributors/cdi38/"
      },
      "relationships": {
        "node": {
          "links": {
            "related": {
              "href": "http://localhost:8000/v2/nodes/8mrfq/",
              "meta": {}
            }
          }
        },
        "users": {
          "links": {
            "related": {
              "href": "http://localhost:8000/v2/users/cdi38/",
              "meta": {}
            }
          }
        }
      },
      "type": "contributors"
    },
    {
      "attributes": {
        "bibliographic": true,
        "index": 2,
        "permission": "admin",
        "unregistered_contributor": null
      },
      "embeds": {
        "users": {
          "data": {
            "attributes": {
              "active": true,
              "date_registered": "2016-01-19T16:24:24.387000Z",
              "family_name": "Benjamin",
              "full_name": "Melanie Benjamin",
              "given_name": "Melanie",
              "locale": "en_US",
              "middle_names": "",
              "suffix": "",
              "timezone": "America/New_York"
            },
            "id": "qtmbv",
            "links": {
              "html": "http://osf.io/qtmbv/",
              "profile_image": "http://secure.gravatar.com/avatar/2dc256d3473db3b06413a1104bbe8b8f?d=identicon",
              "self": "http://localhost:8000/v2/users/qtmbv/"
            },
            "relationships": {
              "institutions": {
                "links": {
                  "related": {
                    "href": "http://localhost:8000/v2/users/qtmbv/institutions/",
                    "meta": {}
                  },
                  "self": {
                    "href": "http://localhost:8000/v2/users/qtmbv/relationships/institutions/",
                    "meta": {}
                  }
                }
              },
              "nodes": {
                "links": {
                  "related": {
                    "href": "http://localhost:8000/v2/users/qtmbv/nodes/",
                    "meta": {}
                  }
                }
              }
            },
            "type": "users"
          }
        }
      },
      "id": "8mrfq-qtmbv",
      "links": {
        "self": "http://localhost:8000/v2/nodes/8mrfq/contributors/qtmbv/"
      },
      "relationships": {
        "node": {
          "links": {
            "related": {
              "href": "http://localhost:8000/v2/nodes/8mrfq/",
              "meta": {}
            }
          }
        },
        "users": {
          "links": {
            "related": {
              "href": "http://localhost:8000/v2/users/qtmbv/",
              "meta": {}
            }
          }
        }
      },
      "type": "contributors"
    },
    {
      "attributes": {
        "bibliographic": true,
        "index": 3,
        "permission": "admin",
        "unregistered_contributor": null
      },
      "embeds": {
        "users": {
          "data": {
            "attributes": {
              "active": true,
              "date_registered": "2014-02-17T04:40:17.696000Z",
              "family_name": "Soderberg",
              "full_name": "Courtney Soderberg",
              "given_name": "Courtney",
              "locale": "en_US",
              "middle_names": "Karin",
              "suffix": "",
              "timezone": "America/Chicago"
            },
            "id": "hsey5",
            "links": {
              "html": "http://osf.io/hsey5/",
              "profile_image": "http://secure.gravatar.com/avatar/74bcb55d52c56aecb15f3002f7f1bdb7?d=identicon",
              "self": "http://localhost:8000/v2/users/hsey5/"
            },
            "relationships": {
              "institutions": {
                "links": {
                  "related": {
                    "href": "http://localhost:8000/v2/users/hsey5/institutions/",
                    "meta": {}
                  },
                  "self": {
                    "href": "http://localhost:8000/v2/users/hsey5/relationships/institutions/",
                    "meta": {}
                  }
                }
              },
              "nodes": {
                "links": {
                  "related": {
                    "href": "http://localhost:8000/v2/users/hsey5/nodes/",
                    "meta": {}
                  }
                }
              }
            },
            "type": "users"
          }
        }
      },
      "id": "8mrfq-hsey5",
      "links": {
        "self": "http://localhost:8000/v2/nodes/8mrfq/contributors/hsey5/"
      },
      "relationships": {
        "node": {
          "links": {
            "related": {
              "href": "http://localhost:8000/v2/nodes/8mrfq/",
              "meta": {}
            }
          }
        },
        "users": {
          "links": {
            "related": {
              "href": "http://localhost:8000/v2/users/hsey5/",
              "meta": {}
            }
          }
        }
      },
      "type": "contributors"
    },
    {
      "attributes": {
        "bibliographic": true,
        "index": 4,
        "permission": "admin",
        "unregistered_contributor": null
      },
      "embeds": {
        "users": {
          "data": {
            "attributes": {
              "active": true,
              "date_registered": "2013-10-11T18:42:20.133000Z",
              "family_name": "Errington",
              "full_name": "Tim Errington",
              "given_name": "Timothy",
              "locale": "en_us",
              "middle_names": "M.",
              "suffix": "",
              "timezone": "America/New_York"
            },
            "id": "alh38",
            "links": {
              "html": "http://osf.io/alh38/",
              "profile_image": "http://secure.gravatar.com/avatar/20937c7cc6bf128d50569282d8daecb0?d=identicon",
              "self": "http://localhost:8000/v2/users/alh38/"
            },
            "relationships": {
              "institutions": {
                "links": {
                  "related": {
                    "href": "http://localhost:8000/v2/users/alh38/institutions/",
                    "meta": {}
                  },
                  "self": {
                    "href": "http://localhost:8000/v2/users/alh38/relationships/institutions/",
                    "meta": {}
                  }
                }
              },
              "nodes": {
                "links": {
                  "related": {
                    "href": "http://localhost:8000/v2/users/alh38/nodes/",
                    "meta": {}
                  }
                }
              }
            },
            "type": "users"
          }
        }
      },
      "id": "8mrfq-alh38",
      "links": {
        "self": "http://localhost:8000/v2/nodes/8mrfq/contributors/alh38/"
      },
      "relationships": {
        "node": {
          "links": {
            "related": {
              "href": "http://localhost:8000/v2/nodes/8mrfq/",
              "meta": {}
            }
          }
        },
        "users": {
          "links": {
            "related": {
              "href": "http://localhost:8000/v2/users/alh38/",
              "meta": {}
            }
          }
        }
      },
      "type": "contributors"
    },
    {
      "attributes": {
        "bibliographic": true,
        "index": 5,
        "permission": "admin",
        "unregistered_contributor": null
      },
      "embeds": {
        "users": {
          "data": {
            "attributes": {
              "active": true,
              "date_registered": "2015-12-31T04:06:29.401000Z",
              "family_name": "Spitzer",
              "full_name": "Matthew Spitzer",
              "given_name": "Matthew",
              "locale": "en_US",
              "middle_names": "",
              "suffix": "",
              "timezone": "America/New_York"
            },
            "id": "8kcwm",
            "links": {
              "html": "http://osf.io/8kcwm/",
              "profile_image": "http://secure.gravatar.com/avatar/f2769c8cdee61fd3fcc292f30bfa08b2?d=identicon",
              "self": "http://localhost:8000/v2/users/8kcwm/"
            },
            "relationships": {
              "institutions": {
                "links": {
                  "related": {
                    "href": "http://localhost:8000/v2/users/8kcwm/institutions/",
                    "meta": {}
                  },
                  "self": {
                    "href": "http://localhost:8000/v2/users/8kcwm/relationships/institutions/",
                    "meta": {}
                  }
                }
              },
              "nodes": {
                "links": {
                  "related": {
                    "href": "http://localhost:8000/v2/users/8kcwm/nodes/",
                    "meta": {}
                  }
                }
              }
            },
            "type": "users"
          }
        }
      },
      "id": "8mrfq-8kcwm",
      "links": {
        "self": "http://localhost:8000/v2/nodes/8mrfq/contributors/8kcwm/"
      },
      "relationships": {
        "node": {
          "links": {
            "related": {
              "href": "http://localhost:8000/v2/nodes/8mrfq/",
              "meta": {}
            }
          }
        },
        "users": {
          "links": {
            "related": {
              "href": "http://localhost:8000/v2/users/8kcwm/",
              "meta": {}
            }
          }
        }
      },
      "type": "contributors"
    },
    {
      "attributes": {
        "bibliographic": true,
        "index": 6,
        "permission": "admin",
        "unregistered_contributor": null
      },
      "embeds": {
        "users": {
          "data": {
            "attributes": {
              "active": true,
              "date_registered": "2015-02-18T20:48:49.095000Z",
              "family_name": "Meyers",
              "full_name": "Natalie Meyers",
              "given_name": "Natalie",
              "locale": "en_US",
              "middle_names": "K",
              "suffix": "",
              "timezone": "America/Indianapolis"
            },
            "id": "a45nu",
            "links": {
              "html": "http://osf.io/a45nu/",
              "profile_image": "http://secure.gravatar.com/avatar/89b4cfe4617a5e7d330989ba93d6fce1?d=identicon",
              "self": "http://localhost:8000/v2/users/a45nu/"
            },
            "relationships": {
              "institutions": {
                "links": {
                  "related": {
                    "href": "http://localhost:8000/v2/users/a45nu/institutions/",
                    "meta": {}
                  },
                  "self": {
                    "href": "http://localhost:8000/v2/users/a45nu/relationships/institutions/",
                    "meta": {}
                  }
                }
              },
              "nodes": {
                "links": {
                  "related": {
                    "href": "http://localhost:8000/v2/users/a45nu/nodes/",
                    "meta": {}
                  }
                }
              }
            },
            "type": "users"
          }
        }
      },
      "id": "8mrfq-a45nu",
      "links": {
        "self": "http://localhost:8000/v2/nodes/8mrfq/contributors/a45nu/"
      },
      "relationships": {
        "node": {
          "links": {
            "related": {
              "href": "http://localhost:8000/v2/nodes/8mrfq/",
              "meta": {}
            }
          }
        },
        "users": {
          "links": {
            "related": {
              "href": "http://localhost:8000/v2/users/a45nu/",
              "meta": {}
            }
          }
        }
      },
      "type": "contributors"
    },
    {
      "attributes": {
        "bibliographic": true,
        "index": 7,
        "permission": "admin",
        "unregistered_contributor": null
      },
      "embeds": {
        "users": {
          "data": {
            "attributes": {
              "active": true,
              "date_registered": "2015-03-22T22:38:00.500000Z",
              "family_name": "Esposito",
              "full_name": "Jolene Esposito",
              "given_name": "Jolene",
              "locale": "en_US",
              "middle_names": "",
              "suffix": "",
              "timezone": "Asia/Bangkok"
            },
            "id": "wmp4n",
            "links": {
              "html": "http://osf.io/wmp4n/",
              "profile_image": "http://secure.gravatar.com/avatar/fad2bfd671bcacc58e6df431c59494ec?d=identicon",
              "self": "http://localhost:8000/v2/users/wmp4n/"
            },
            "relationships": {
              "institutions": {
                "links": {
                  "related": {
                    "href": "http://localhost:8000/v2/users/wmp4n/institutions/",
                    "meta": {}
                  },
                  "self": {
                    "href": "http://localhost:8000/v2/users/wmp4n/relationships/institutions/",
                    "meta": {}
                  }
                }
              },
              "nodes": {
                "links": {
                  "related": {
                    "href": "http://localhost:8000/v2/users/wmp4n/nodes/",
                    "meta": {}
                  }
                }
              }
            },
            "type": "users"
          }
        }
      },
      "id": "8mrfq-wmp4n",
      "links": {
        "self": "http://localhost:8000/v2/nodes/8mrfq/contributors/wmp4n/"
      },
      "relationships": {
        "node": {
          "links": {
            "related": {
              "href": "http://localhost:8000/v2/nodes/8mrfq/",
              "meta": {}
            }
          }
        },
        "users": {
          "links": {
            "related": {
              "href": "http://localhost:8000/v2/users/wmp4n/",
              "meta": {}
            }
          }
        }
      },
      "type": "contributors"
    },
    {
      "attributes": {
        "bibliographic": true,
        "index": 8,
        "permission": "write",
        "unregistered_contributor": null
      },
      "embeds": {
        "users": {
          "data": {
            "attributes": {
              "active": true,
              "date_registered": "2012-06-04T14:56:19.019000Z",
              "family_name": "King",
              "full_name": "Jonathan W. King",
              "given_name": "Jonathan",
              "locale": "en_us",
              "middle_names": "W.",
              "suffix": "",
              "timezone": "America/New_York"
            },
            "id": "hpemw",
            "links": {
              "html": "http://osf.io/hpemw/",
              "profile_image": "http://secure.gravatar.com/avatar/bf576300dd7bb1aeb3d18a609fe269e9?d=identicon",
              "self": "http://localhost:8000/v2/users/hpemw/"
            },
            "relationships": {
              "institutions": {
                "links": {
                  "related": {
                    "href": "http://localhost:8000/v2/users/hpemw/institutions/",
                    "meta": {}
                  },
                  "self": {
                    "href": "http://localhost:8000/v2/users/hpemw/relationships/institutions/",
                    "meta": {}
                  }
                }
              },
              "nodes": {
                "links": {
                  "related": {
                    "href": "http://localhost:8000/v2/users/hpemw/nodes/",
                    "meta": {}
                  }
                }
              }
            },
            "type": "users"
          }
        }
      },
      "id": "8mrfq-hpemw",
      "links": {
        "self": "http://localhost:8000/v2/nodes/8mrfq/contributors/hpemw/"
      },
      "relationships": {
        "node": {
          "links": {
            "related": {
              "href": "http://localhost:8000/v2/nodes/8mrfq/",
              "meta": {}
            }
          }
        },
        "users": {
          "links": {
            "related": {
              "href": "http://localhost:8000/v2/users/hpemw/",
              "meta": {}
            }
          }
        }
      },
      "type": "contributors"
    },
    {
      "attributes": {
        "bibliographic": true,
        "index": 9,
        "permission": "write",
        "unregistered_contributor": null
      },
      "embeds": {
        "users": {
          "data": {
            "attributes": {
              "active": true,
              "date_registered": "2016-12-06T14:28:36.716000Z",
              "family_name": "Laster",
              "full_name": "Amy Laster",
              "given_name": "Amy",
              "locale": "en_US",
              "middle_names": "",
              "suffix": "",
              "timezone": "Etc/UTC"
            },
            "id": "td5ga",
            "links": {
              "html": "http://osf.io/td5ga/",
              "profile_image": "http://secure.gravatar.com/avatar/1be96a3119bf81317d2ef9bcc3c67d3b?d=identicon",
              "self": "http://localhost:8000/v2/users/td5ga/"
            },
            "relationships": {
              "institutions": {
                "links": {
                  "related": {
                    "href": "http://localhost:8000/v2/users/td5ga/institutions/",
                    "meta": {}
                  },
                  "self": {
                    "href": "http://localhost:8000/v2/users/td5ga/relationships/institutions/",
                    "meta": {}
                  }
                }
              },
              "nodes": {
                "links": {
                  "related": {
                    "href": "http://localhost:8000/v2/users/td5ga/nodes/",
                    "meta": {}
                  }
                }
              }
            },
            "type": "users"
          }
        }
      },
      "id": "8mrfq-td5ga",
      "links": {
        "self": "http://localhost:8000/v2/nodes/8mrfq/contributors/td5ga/"
      },
      "relationships": {
        "node": {
          "links": {
            "related": {
              "href": "http://localhost:8000/v2/nodes/8mrfq/",
              "meta": {}
            }
          }
        },
        "users": {
          "links": {
            "related": {
              "href": "http://localhost:8000/v2/users/td5ga/",
              "meta": {}
            }
          }
        }
      },
      "type": "contributors"
    }
  ],
  "links": {
    "first": null,
    "last": "http://localhost:8000/v2/nodes/8mrfq/contributors/?page=9",
    "next": "http://localhost:8000/v2/nodes/8mrfq/contributors/?page=2",
    "prev": null,
    "self": "http://localhost:8000/v2/nodes/8mrfq/contributors/"
  },
  "meta": {
    "per_page": 10,
    "total": 86,
    "total_bibliographic": 86
  }
}
