{
  "data": [
    {
      "attributes": {
        "action": "osf_storage_file_updated",
        "date": "2016-05-19T18:33:28.491000Z",
        "params": {
          "contributors": [],
          "params_node": {
            "id": "jq2pm",
            "title": "Presentations &amp; Slides"
          },
          "params_project": {
            "id": "y9mpx",
            "title": "Container Strategies for Data and Software Preservation Workshop"
          },
          "path": "/2016-05-19_ReproZipTalkDemo.pdf",
          "preprint_provider": null,
          "urls": {
            "download": "/project/jq2pm/files/osfstorage/573db224b83f6901df079875/?action=download",
            "view": "/project/jq2pm/files/osfstorage/573db224b83f6901df079875/"
          }
        }
      },
      "id": "573e06f89ad5a101fe6ff3aa",
      "links": {
        "self": "http://localhost:8000/v2/logs/573e06f89ad5a101fe6ff3aa/"
      },
      "relationships": {
        "node": {
          "links": {
            "related": {
              "href": "http://localhost:8000/v2/nodes/jq2pm/",
              "meta": {}
            }
          }
        },
        "original_node": {
          "links": {
            "related": {
              "href": "http://localhost:8000/v2/nodes/jq2pm/",
              "meta": {}
            }
          }
        },
        "user": {
          "links": {
            "related": {
              "href": "http://localhost:8000/v2/users/947ky/",
              "meta": {}
            }
          }
        }
      },
      "type": "logs"
    },
    {
      "attributes": {
        "action": "contributor_added",
        "date": "2016-05-19T12:59:30.427000Z",
        "params": {
          "contributors": [
            {
              "active": true,
              "family_name": "Rampin",
              "full_name": "Remi Rampin",
              "given_name": "Remi",
              "id": "947ky",
              "middle_names": "",
              "unregistered_name": null
            },
            {
              "active": true,
              "family_name": "Chirigati",
              "full_name": "Fernando Chirigati",
              "given_name": "Fernando",
              "id": "nva5x",
              "middle_names": "",
              "unregistered_name": null
            }
          ],
          "params_node": {
            "id": "jq2pm",
            "title": "Presentations &amp; Slides"
          },
          "params_project": {
            "id": "y9mpx",
            "title": "Container Strategies for Data and Software Preservation Workshop"
          },
          "preprint_provider": null
        }
      },
      "id": "573db8b2594d9001ef499f5d",
      "links": {
        "self": "http://localhost:8000/v2/logs/573db8b2594d9001ef499f5d/"
      },
      "relationships": {
        "node": {
          "links": {
            "related": {
              "href": "http://localhost:8000/v2/nodes/jq2pm/",
              "meta": {}
            }
          }
        },
        "original_node": {
          "links": {
            "related": {
              "href": "http://localhost:8000/v2/nodes/jq2pm/",
              "meta": {}
            }
          }
        },
        "user": {
          "links": {
            "related": {
              "href": "http://localhost:8000/v2/users/7mj2q/",
              "meta": {}
            }
          }
        }
      },
      "type": "logs"
    },
    {
      "attributes": {
        "action": "contributor_added",
        "date": "2016-05-19T12:58:58.889000Z",
        "params": {
          "contributors": [
            {
              "active": false,
              "family_name": "Bryant",
              "full_name": "Lincoln Bryant",
              "given_name": "Lincoln",
              "id": "e8kwx",
              "middle_names": "",
              "unregistered_name": "Lincoln Bryant"
            },
            {
              "active": true,
              "family_name": "Hodgson",
              "full_name": "Kolin Hodgson",
              "given_name": "Kolin",
              "id": "6uxm9",
              "middle_names": "",
              "unregistered_name": null
            },
            {
              "active": true,
              "family_name": "Nijim",
              "full_name": "Imad Nijim",
              "given_name": "Imad",
              "id": "vyr62",
              "middle_names": "",
              "unregistered_name": null
            },
            {
              "active": false,
              "family_name": "Nijim",
              "full_name": "Sharif Nijim",
              "given_name": "Sharif",
              "id": "bjwxf",
              "middle_names": "",
              "unregistered_name": "Sharif Nijim"
            },
            {
              "active": false,
              "family_name": "Owens",
              "full_name": "Derek Owens",
              "given_name": "Derek",
              "id": "826gk",
              "middle_names": "",
              "unregistered_name": "Derek Owens"
            },
            {
              "active": false,
              "family_name": "Schrader",
              "full_name": "John Schrader",
              "given_name": "John",
              "id": "t5m9f",
              "middle_names": "",
              "unregistered_name": "John Schrader"
            },
            {
              "active": false,
              "family_name": "Smith",
              "full_name": "James Smith",
              "given_name": "James",
              "id": "r8eh3",
              "middle_names": "",
              "unregistered_name": "James Smith"
            },
            {
              "active": true,
              "family_name": "Minvielle",
              "full_name": "Robert Minvielle",
              "given_name": "Robert",
              "id": "s2whr",
              "middle_names": "",
              "unregistered_name": null
            },
            {
              "active": true,
              "family_name": "Suhovecky",
              "full_name": "Mark Suhovecky",
              "given_name": "Mark",
              "id": "9qeg4",
              "middle_names": "",
              "unregistered_name": null
            },
            {
              "active": true,
              "family_name": "Summers",
              "full_name": "Sean Summers",
              "given_name": "Sean",
              "id": "tu8xv",
              "middle_names": "",
              "unregistered_name": null
            },
            {
              "active": true,
              "family_name": "Cochrane",
              "full_name": "Euan Cochrane",
              "given_name": "Euan",
              "id": "gq2ar",
              "middle_names": "",
              "unregistered_name": null
            },
            {
              "active": true,
              "family_name": "de Waard",
              "full_name": "Anita de Waard",
              "given_name": "Anita",
              "id": "hmjbi",
              "middle_names": "",
              "unregistered_name": null
            },
            {
              "active": true,
              "family_name": "Havert",
              "full_name": "Mandy Havert",
              "given_name": "Mandy",
              "id": "kz2gx",
              "middle_names": "",
              "unregistered_name": null
            },
            {
              "active": false,
              "family_name": "Hudson",
              "full_name": "Cole Hudson",
              "given_name": "Cole",
              "id": "rd3ca",
              "middle_names": "",
              "unregistered_name": "Cole\t Hudson"
            },
            {
              "active": true,
              "family_name": "Hudson-Vitale",
              "full_name": "Cynthia Hudson-Vitale",
              "given_name": "Cynthia",
              "id": "k2495",
              "middle_names": "",
              "unregistered_name": null
            },
            {
              "active": true,
              "family_name": "Long",
              "full_name": "Elisabeth Long",
              "given_name": "Elisabeth",
              "id": "6xdwq",
              "middle_names": "",
              "unregistered_name": null
            },
            {
              "active": true,
              "family_name": "Miller",
              "full_name": "Chreston Miller",
              "given_name": "Chreston",
              "id": "rv3gs",
              "middle_names": "",
              "unregistered_name": null
            },
            {
              "active": true,
              "family_name": "Shields",
              "full_name": "Andrew Shields",
              "given_name": "Andrew",
              "id": "7hcg5",
              "middle_names": "",
              "unregistered_name": null
            },
            {
              "active": true,
              "family_name": "Brower",
              "full_name": "Donald Brower",
              "given_name": "Donald",
              "id": "fm6na",
              "middle_names": "",
              "unregistered_name": null
            },
            {
              "active": true,
              "family_name": "Heinrich",
              "full_name": "Lukas Alexander Heinrich",
              "given_name": "Lukas",
              "id": "xpmwu",
              "middle_names": "Alexander",
              "unregistered_name": null
            },
            {
              "active": false,
              "family_name": "Chamberlain",
              "full_name": "Ryan Chamberlain",
              "given_name": "Ryan",
              "id": "p2udw",
              "middle_names": "",
              "unregistered_name": "Ryan Chamberlain"
            },
            {
              "active": true,
              "family_name": "Ferreira da Silva",
              "full_name": "Rafael Ferreira da Silva",
              "given_name": "Rafael",
              "id": "awbdh",
              "middle_names": "",
              "unregistered_name": null
            },
            {
              "active": true,
              "family_name": "Janée",
              "full_name": "Greg Janée",
              "given_name": "Greg",
              "id": "rzmsc",
              "middle_names": "",
              "unregistered_name": null
            },
            {
              "active": true,
              "family_name": "Malawski",
              "full_name": "Maciej Malawski",
              "given_name": "Maciej",
              "id": "d8cge",
              "middle_names": "",
              "unregistered_name": null
            },
            {
              "active": true,
              "family_name": "Malik",
              "full_name": "Tanu Malik",
              "given_name": "Tanu",
              "id": "kve7b",
              "middle_names": "",
              "unregistered_name": null
            },
            {
              "active": true,
              "family_name": "Metsger",
              "full_name": "Elliot Metsger",
              "given_name": "Elliot",
              "id": "eka7g",
              "middle_names": "",
              "unregistered_name": null
            },
            {
              "active": true,
              "family_name": "Tao",
              "full_name": "Jian Tao",
              "given_name": "Jian",
              "id": "d7gr9",
              "middle_names": "",
              "unregistered_name": null
            },
            {
              "active": true,
              "family_name": "Tillman",
              "full_name": "Ruth Kitchin Tillman",
              "given_name": "Ruth",
              "id": "7tmeb",
              "middle_names": "Kitchin",
              "unregistered_name": null
            },
            {
              "active": true,
              "family_name": "Turk",
              "full_name": "Matthew Turk",
              "given_name": "Matthew",
              "id": "6v9za",
              "middle_names": "James",
              "unregistered_name": null
            },
            {
              "active": true,
              "family_name": "Vukotic",
              "full_name": "Ilija Vukotic",
              "given_name": "Ilija",
              "id": "q8g4j",
              "middle_names": "",
              "unregistered_name": null
            },
            {
              "active": true,
              "family_name": "Williams",
              "full_name": "Charles Williams",
              "given_name": "Charles",
              "id": "w2sz9",
              "middle_names": "Lee",
              "unregistered_name": null
            }
          ],
          "params_node": {
            "id": "jq2pm",
            "title": "Presentations &amp; Slides"
          },
          "params_project": {
            "id": "y9mpx",
            "title": "Container Strategies for Data and Software Preservation Workshop"
          },
          "preprint_provider": null
        }
      },
      "id": "573db892b83f6901dc079879",
      "links": {
        "self": "http://localhost:8000/v2/logs/573db892b83f6901dc079879/"
      },
      "relationships": {
        "node": {
          "links": {
            "related": {
              "href": "http://localhost:8000/v2/nodes/jq2pm/",
              "meta": {}
            }
          }
        },
        "original_node": {
          "links": {
            "related": {
              "href": "http://localhost:8000/v2/nodes/jq2pm/",
              "meta": {}
            }
          }
        },
        "user": {
          "links": {
            "related": {
              "href": "http://localhost:8000/v2/users/7mj2q/",
              "meta": {}
            }
          }
        }
      },
      "type": "logs"
    },
    {
      "attributes": {
        "action": "osf_storage_file_added",
        "date": "2016-05-19T12:31:37.634000Z",
        "params": {
          "contributors": [],
          "params_node": {
            "id": "jq2pm",
            "title": "Presentations &amp; Slides"
          },
          "params_project": {
            "id": "y9mpx",
            "title": "Container Strategies for Data and Software Preservation Workshop"
          },
          "path": "/2016-05-19_ReproZipTalkDemo.pdf",
          "preprint_provider": null,
          "urls": {
            "download": "/project/jq2pm/files/osfstorage/573db224b83f6901df079875/?action=download",
            "view": "/project/jq2pm/files/osfstorage/573db224b83f6901df079875/"
          }
        }
      },
      "id": "573db229b83f6901e2079876",
      "links": {
        "self": "http://localhost:8000/v2/logs/573db229b83f6901e2079876/"
      },
      "relationships": {
        "node": {
          "links": {
            "related": {
              "href": "http://localhost:8000/v2/nodes/jq2pm/",
              "meta": {}
            }
          }
        },
        "original_node": {
          "links": {
            "related": {
              "href": "http://localhost:8000/v2/nodes/jq2pm/",
              "meta": {}
            }
          }
        },
        "user": {
          "links": {
            "related": {
              "href": "http://localhost:8000/v2/users/7mj2q/",
              "meta": {}
            }
          }
        }
      },
      "type": "logs"
    },
    {
      "attributes": {
        "action": "contributor_added",
        "date": "2016-05-19T11:59:20.136000Z",
        "params": {
          "contributors": [
            {
              "active": true,
              "family_name": "Steeves",
              "full_name": "Vicky Steeves",
              "given_name": "Vicky",
              "id": "7mj2q",
              "middle_names": "",
              "unregistered_name": null
            }
          ],
          "params_node": {
            "id": "jq2pm",
            "title": "Presentations &amp; Slides"
          },
          "params_project": {
            "id": "y9mpx",
            "title": "Container Strategies for Data and Software Preservation Workshop"
          },
          "preprint_provider": null
        }
      },
      "id": "573daa986c613b01ddba4d66",
      "links": {
        "self": "http://localhost:8000/v2/logs/573daa986c613b01ddba4d66/"
      },
      "relationships": {
        "node": {
          "links": {
            "related": {
              "href": "http://localhost:8000/v2/nodes/jq2pm/",
              "meta": {}
            }
          }
        },
        "original_node": {
          "links": {
            "related": {
              "href": "http://localhost:8000/v2/nodes/jq2pm/",
              "meta": {}
            }
          }
        },
        "user": {
          "links": {
            "related": {
              "href": "http://localhost:8000/v2/users/a45nu/",
              "meta": {}
            }
          }
        }
      },
      "type": "logs"
    },
    {
      "attributes": {
        "action": "contributor_added",
        "date": "2016-05-16T18:36:56.629000Z",
        "params": {
          "contributors": [
            {
              "active": false,
              "family_name": "Brake",
              "full_name": "Daniel Brake",
              "given_name": "Daniel",
              "id": "dj3wm",
              "middle_names": "",
              "unregistered_name": "Daniel Brake"
            }
          ],
          "params_node": {
            "id": "jq2pm",
            "title": "Presentations &amp; Slides"
          },
          "params_project": {
            "id": "y9mpx",
            "title": "Container Strategies for Data and Software Preservation Workshop"
          },
          "preprint_provider": null
        }
      },
      "id": "573a1348b83f6901ebc1cfb2",
      "links": {
        "self": "http://localhost:8000/v2/logs/573a1348b83f6901ebc1cfb2/"
      },
      "relationships": {
        "node": {
          "links": {
            "related": {
              "href": "http://localhost:8000/v2/nodes/jq2pm/",
              "meta": {}
            }
          }
        },
        "original_node": {
          "links": {
            "related": {
              "href": "http://localhost:8000/v2/nodes/jq2pm/",
              "meta": {}
            }
          }
        },
        "user": {
          "links": {
            "related": {
              "href": "http://localhost:8000/v2/users/a45nu/",
              "meta": {}
            }
          }
        }
      },
      "type": "logs"
    },
    {
      "attributes": {
        "action": "made_public",
        "date": "2016-05-16T14:24:58.671000Z",
        "params": {
          "contributors": [],
          "params_node": {
            "id": "jq2pm",
            "title": "Presentations &amp; Slides"
          },
          "params_project": {
            "id": "y9mpx",
            "title": "Container Strategies for Data and Software Preservation Workshop"
          },
          "preprint_provider": null
        }
      },
      "id": "5739d83a6c613b01fbe9d113",
      "links": {
        "self": "http://localhost:8000/v2/logs/5739d83a6c613b01fbe9d113/"
      },
      "relationships": {
        "node": {
          "links": {
            "related": {
              "href": "http://localhost:8000/v2/nodes/jq2pm/",
              "meta": {}
            }
          }
        },
        "original_node": {
          "links": {
            "related": {
              "href": "http://localhost:8000/v2/nodes/jq2pm/",
              "meta": {}
            }
          }
        },
        "user": {
          "links": {
            "related": {
              "href": "http://localhost:8000/v2/users/a45nu/",
              "meta": {}
            }
          }
        }
      },
      "type": "logs"
    },
    {
      "attributes": {
        "action": "forward_url_changed",
        "date": "2016-05-16T02:15:18.677000Z",
        "params": {
          "contributors": [],
          "forward_url": "http://osf.io/view/containerstrategies/",
          "params_node": {
            "id": "jq2pm",
            "title": "Presentations &amp; Slides"
          },
          "params_project": {
            "id": "y9mpx",
            "title": "Container Strategies for Data and Software Preservation Workshop"
          },
          "preprint_provider": null
        }
      },
      "id": "57392d36594d9001edb3b91c",
      "links": {
        "self": "http://localhost:8000/v2/logs/57392d36594d9001edb3b91c/"
      },
      "relationships": {
        "node": {
          "links": {
            "related": {
              "href": "http://localhost:8000/v2/nodes/jq2pm/",
              "meta": {}
            }
          }
        },
        "original_node": {
          "links": {
            "related": {
              "href": "http://localhost:8000/v2/nodes/jq2pm/",
              "meta": {}
            }
          }
        },
        "user": {
          "links": {
            "related": {
              "href": "http://localhost:8000/v2/users/a45nu/",
              "meta": {}
            }
          }
        }
      },
      "type": "logs"
    },
    {
      "attributes": {
        "action": "addon_added",
        "date": "2016-05-16T02:14:53.950000Z",
        "params": {
          "addon": "External Link",
          "contributors": [],
          "params_node": {
            "id": "jq2pm",
            "title": "Presentations &amp; Slides"
          },
          "params_project": {
            "id": "y9mpx",
            "title": "Container Strategies for Data and Software Preservation Workshop"
          },
          "preprint_provider": null
        }
      },
      "id": "57392d1d6c613b01e7decd61",
      "links": {
        "self": "http://localhost:8000/v2/logs/57392d1d6c613b01e7decd61/"
      },
      "relationships": {
        "node": {
          "links": {
            "related": {
              "href": "http://localhost:8000/v2/nodes/jq2pm/",
              "meta": {}
            }
          }
        },
        "original_node": {
          "links": {
            "related": {
              "href": "http://localhost:8000/v2/nodes/jq2pm/",
              "meta": {}
            }
          }
        },
        "user": {
          "links": {
            "related": {
              "href": "http://localhost:8000/v2/users/a45nu/",
              "meta": {}
            }
          }
        }
      },
      "type": "logs"
    },
    {
      "attributes": {
        "action": "edit_description",
        "date": "2016-05-16T02:14:50.199000Z",
        "params": {
          "contributors": [],
          "params_node": {
            "id": "jq2pm",
            "title": "Presentations &amp; Slides"
          },
          "params_project": null,
          "preprint_provider": null
        }
      },
      "id": "57392d1a9ad5a101f38799b0",
      "links": {
        "self": "http://localhost:8000/v2/logs/57392d1a9ad5a101f38799b0/"
      },
      "relationships": {
        "node": {
          "links": {
            "related": {
              "href": "http://localhost:8000/v2/nodes/jq2pm/",
              "meta": {}
            }
          }
        },
        "original_node": {
          "links": {
            "related": {
              "href": "http://localhost:8000/v2/nodes/jq2pm/",
              "meta": {}
            }
          }
        },
        "user": {
          "links": {
            "related": {
              "href": "http://localhost:8000/v2/users/a45nu/",
              "meta": {}
            }
          }
        }
      },
      "type": "logs"
    }
  ],
  "links": {
    "first": null,
    "last": "http://localhost:8000/v2/nodes/jq2pm/logs/?page=3",
    "next": "http://localhost:8000/v2/nodes/jq2pm/logs/?page=2",
    "prev": null,
    "self": "http://localhost:8000/v2/nodes/jq2pm/logs/"
  },
  "meta": {
    "per_page": 10,
    "total": 29
  }
}
