{
  "data": [
    {
      "attributes": {
        "action": "contributor_removed",
        "date": "2016-10-13T06:08:38.107000Z",
        "params": {
          "contributors": [
            {
              "active": true,
              "family_name": "Bowman",
              "full_name": "Sara Bowman",
              "given_name": "Sara",
              "id": "d9ehg",
              "middle_names": "D.",
              "unregistered_name": null
            }
          ],
          "params_node": {
            "id": "e83rn",
            "title": "Open Notes from Breakout"
          },
          "params_project": {
            "id": "qjbgm",
            "title": "Workshop Use Case 3: Researcher Dashboard"
          },
          "preprint_provider": null
        }
      },
      "id": "57ff24e6594d9001ec621ab0",
      "links": {
        "self": "http://localhost:8000/v2/logs/57ff24e6594d9001ec621ab0/"
      },
      "relationships": {
        "node": {
          "links": {
            "related": {
              "href": "http://localhost:8000/v2/nodes/e83rn/",
              "meta": {}
            }
          }
        },
        "original_node": {
          "links": {
            "related": {
              "href": "http://localhost:8000/v2/nodes/e83rn/",
              "meta": {}
            }
          }
        },
        "user": {
          "links": {
            "related": {
              "href": "http://localhost:8000/v2/users/a45nu/",
              "meta": {}
            }
          }
        }
      },
      "type": "logs"
    },
    {
      "attributes": {
        "action": "affiliated_institution_added",
        "date": "2016-06-08T23:26:49.290000Z",
        "params": {
          "contributors": [],
          "institution": {
            "id": "nd",
            "name": "University of Notre Dame"
          },
          "params_node": {
            "id": "qjbgm",
            "title": "Workshop Use Case 3: Researcher Dashboard"
          },
          "params_project": null,
          "preprint_provider": null
        }
      },
      "id": "5758a9b99ad5a10213edc3b1",
      "links": {
        "self": "http://localhost:8000/v2/logs/5758a9b99ad5a10213edc3b1/"
      },
      "relationships": {
        "node": {
          "links": {
            "related": {
              "href": "http://localhost:8000/v2/nodes/qjbgm/",
              "meta": {}
            }
          }
        },
        "original_node": {
          "links": {
            "related": {
              "href": "http://localhost:8000/v2/nodes/qjbgm/",
              "meta": {}
            }
          }
        },
        "user": {
          "links": {
            "related": {
              "href": "http://localhost:8000/v2/users/9qeg4/",
              "meta": {}
            }
          }
        }
      },
      "type": "logs"
    },
    {
      "attributes": {
        "action": "affiliated_institution_added",
        "date": "2016-06-08T23:20:14.079000Z",
        "params": {
          "contributors": [],
          "institution": {
            "id": "nd",
            "name": "University of Notre Dame"
          },
          "params_node": {
            "id": "9sx2d",
            "title": "link to osf demo.osf.io/fpnaw"
          },
          "params_project": null,
          "preprint_provider": null
        }
      },
      "id": "5758a82eb83f69020d077bf9",
      "links": {
        "self": "http://localhost:8000/v2/logs/5758a82eb83f69020d077bf9/"
      },
      "relationships": {
        "node": {
          "links": {
            "related": {
              "href": "http://localhost:8000/v2/nodes/9sx2d/",
              "meta": {}
            }
          }
        },
        "original_node": {
          "links": {
            "related": {
              "href": "http://localhost:8000/v2/nodes/9sx2d/",
              "meta": {}
            }
          }
        },
        "user": {
          "links": {
            "related": {
              "href": "http://localhost:8000/v2/users/9qeg4/",
              "meta": {}
            }
          }
        }
      },
      "type": "logs"
    },
    {
      "attributes": {
        "action": "affiliated_institution_added",
        "date": "2016-06-08T23:18:39.289000Z",
        "params": {
          "contributors": [],
          "institution": {
            "id": "nd",
            "name": "University of Notre Dame"
          },
          "params_node": {
            "id": "e83rn",
            "title": "Open Notes from Breakout"
          },
          "params_project": null,
          "preprint_provider": null
        }
      },
      "id": "5758a7cf594d9002135d363f",
      "links": {
        "self": "http://localhost:8000/v2/logs/5758a7cf594d9002135d363f/"
      },
      "relationships": {
        "node": {
          "links": {
            "related": {
              "href": "http://localhost:8000/v2/nodes/e83rn/",
              "meta": {}
            }
          }
        },
        "original_node": {
          "links": {
            "related": {
              "href": "http://localhost:8000/v2/nodes/e83rn/",
              "meta": {}
            }
          }
        },
        "user": {
          "links": {
            "related": {
              "href": "http://localhost:8000/v2/users/9qeg4/",
              "meta": {}
            }
          }
        }
      },
      "type": "logs"
    },
    {
      "attributes": {
        "action": "tag_added",
        "date": "2016-05-25T21:17:43.800000Z",
        "params": {
          "contributors": [],
          "params_node": {
            "id": "qjbgm",
            "title": "Workshop Use Case 3: Researcher Dashboard"
          },
          "params_project": null,
          "preprint_provider": null,
          "tag": "talk"
        }
      },
      "id": "574616779ad5a101eb15b099",
      "links": {
        "self": "http://localhost:8000/v2/logs/574616779ad5a101eb15b099/"
      },
      "relationships": {
        "node": {
          "links": {
            "related": {
              "href": "http://localhost:8000/v2/nodes/qjbgm/",
              "meta": {}
            }
          }
        },
        "original_node": {
          "links": {
            "related": {
              "href": "http://localhost:8000/v2/nodes/qjbgm/",
              "meta": {}
            }
          }
        },
        "user": {
          "links": {
            "related": {
              "href": "http://localhost:8000/v2/users/a45nu/",
              "meta": {}
            }
          }
        }
      },
      "type": "logs"
    },
    {
      "attributes": {
        "action": "made_contributor_invisible",
        "date": "2016-05-25T21:17:23.441000Z",
        "params": {
          "contributors": [
            {
              "active": true,
              "family_name": "Nabrzyski",
              "full_name": "Jaroslaw Nabrzyski",
              "given_name": "Jaroslaw",
              "id": "srbkj",
              "middle_names": "",
              "unregistered_name": null
            }
          ],
          "params_node": {
            "id": "qjbgm",
            "title": "Workshop Use Case 3: Researcher Dashboard"
          },
          "params_project": null,
          "preprint_provider": null
        }
      },
      "id": "574616636c613b01dfd660c6",
      "links": {
        "self": "http://localhost:8000/v2/logs/574616636c613b01dfd660c6/"
      },
      "relationships": {
        "node": {
          "links": {
            "related": {
              "href": "http://localhost:8000/v2/nodes/qjbgm/",
              "meta": {}
            }
          }
        },
        "original_node": {
          "links": {
            "related": {
              "href": "http://localhost:8000/v2/nodes/qjbgm/",
              "meta": {}
            }
          }
        },
        "user": {
          "links": {
            "related": {
              "href": "http://localhost:8000/v2/users/a45nu/",
              "meta": {}
            }
          }
        }
      },
      "type": "logs"
    },
    {
      "attributes": {
        "action": "tag_removed",
        "date": "2016-05-25T21:05:15.205000Z",
        "params": {
          "contributors": [],
          "params_node": {
            "id": "qjbgm",
            "title": "Workshop Use Case 3: Researcher Dashboard"
          },
          "params_project": null,
          "preprint_provider": null,
          "tag": "talk"
        }
      },
      "id": "5746138b9ad5a101e515b12b",
      "links": {
        "self": "http://localhost:8000/v2/logs/5746138b9ad5a101e515b12b/"
      },
      "relationships": {
        "node": {
          "links": {
            "related": {
              "href": "http://localhost:8000/v2/nodes/qjbgm/",
              "meta": {}
            }
          }
        },
        "original_node": {
          "links": {
            "related": {
              "href": "http://localhost:8000/v2/nodes/qjbgm/",
              "meta": {}
            }
          }
        },
        "user": {
          "links": {
            "related": {
              "href": "http://localhost:8000/v2/users/a45nu/",
              "meta": {}
            }
          }
        }
      },
      "type": "logs"
    },
    {
      "attributes": {
        "action": "tag_added",
        "date": "2016-05-25T21:05:10.221000Z",
        "params": {
          "contributors": [],
          "params_node": {
            "id": "qjbgm",
            "title": "Workshop Use Case 3: Researcher Dashboard"
          },
          "params_project": null,
          "preprint_provider": null,
          "tag": "talk"
        }
      },
      "id": "57461386b83f6901e76d0239",
      "links": {
        "self": "http://localhost:8000/v2/logs/57461386b83f6901e76d0239/"
      },
      "relationships": {
        "node": {
          "links": {
            "related": {
              "href": "http://localhost:8000/v2/nodes/qjbgm/",
              "meta": {}
            }
          }
        },
        "original_node": {
          "links": {
            "related": {
              "href": "http://localhost:8000/v2/nodes/qjbgm/",
              "meta": {}
            }
          }
        },
        "user": {
          "links": {
            "related": {
              "href": "http://localhost:8000/v2/users/a45nu/",
              "meta": {}
            }
          }
        }
      },
      "type": "logs"
    },
    {
      "attributes": {
        "action": "made_contributor_invisible",
        "date": "2016-05-25T21:02:54.135000Z",
        "params": {
          "contributors": [
            {
              "active": true,
              "family_name": "Steeves",
              "full_name": "Vicky Steeves",
              "given_name": "Vicky",
              "id": "7mj2q",
              "middle_names": "",
              "unregistered_name": null
            }
          ],
          "params_node": {
            "id": "qjbgm",
            "title": "Workshop Use Case 3: Researcher Dashboard"
          },
          "params_project": null,
          "preprint_provider": null
        }
      },
      "id": "574612fe6c613b01dfd660c4",
      "links": {
        "self": "http://localhost:8000/v2/logs/574612fe6c613b01dfd660c4/"
      },
      "relationships": {
        "node": {
          "links": {
            "related": {
              "href": "http://localhost:8000/v2/nodes/qjbgm/",
              "meta": {}
            }
          }
        },
        "original_node": {
          "links": {
            "related": {
              "href": "http://localhost:8000/v2/nodes/qjbgm/",
              "meta": {}
            }
          }
        },
        "user": {
          "links": {
            "related": {
              "href": "http://localhost:8000/v2/users/a45nu/",
              "meta": {}
            }
          }
        }
      },
      "type": "logs"
    },
    {
      "attributes": {
        "action": "made_public",
        "date": "2016-05-19T20:10:30.326000Z",
        "params": {
          "contributors": [],
          "params_node": {
            "id": "e83rn",
            "title": "Open Notes from Breakout"
          },
          "params_project": {
            "id": "qjbgm",
            "title": "Workshop Use Case 3: Researcher Dashboard"
          },
          "preprint_provider": null
        }
      },
      "id": "573e1db66c613b01f26323b5",
      "links": {
        "self": "http://localhost:8000/v2/logs/573e1db66c613b01f26323b5/"
      },
      "relationships": {
        "node": {
          "links": {
            "related": {
              "href": "http://localhost:8000/v2/nodes/e83rn/",
              "meta": {}
            }
          }
        },
        "original_node": {
          "links": {
            "related": {
              "href": "http://localhost:8000/v2/nodes/e83rn/",
              "meta": {}
            }
          }
        },
        "user": {
          "links": {
            "related": {
              "href": "http://localhost:8000/v2/users/a45nu/",
              "meta": {}
            }
          }
        }
      },
      "type": "logs"
    }
  ],
  "links": {
    "first": null,
    "last": "http://localhost:8000/v2/nodes/qjbgm/logs/?page=12",
    "next": "http://localhost:8000/v2/nodes/qjbgm/logs/?page=2",
    "prev": null,
    "self": "http://localhost:8000/v2/nodes/qjbgm/logs/"
  },
  "meta": {
    "per_page": 10,
    "total": 115
  }
}
