{
  "data": [
    {
      "attributes": {
        "action": "contributor_added",
        "date": "2017-01-06T20:12:08.349000Z",
        "params": {
          "contributors": [
            {
              "active": false,
              "family_name": "Brown",
              "full_name": "Charlie Brown",
              "given_name": "Charlie",
              "id": "r29rh",
              "middle_names": "",
              "unregistered_name": "Charlie Brown"
            }
          ],
          "params_node": {
            "id": "37a5n",
            "title": "Software Component"
          },
          "params_project": {
            "id": "xug4a",
            "title": "Test Project"
          },
          "preprint_provider": null
        }
      },
      "id": "586ffa189ad5a102028b05bb",
      "links": {
        "self": "http://localhost:8000/v2/logs/586ffa189ad5a102028b05bb/"
      },
      "relationships": {
        "node": {
          "links": {
            "related": {
              "href": "http://localhost:8000/v2/nodes/37a5n/",
              "meta": {}
            }
          }
        },
        "original_node": {
          "links": {
            "related": {
              "href": "http://localhost:8000/v2/nodes/37a5n/",
              "meta": {}
            }
          }
        },
        "user": {
          "links": {
            "related": {
              "href": "http://localhost:8000/v2/users/gb6f3/",
              "meta": {}
            }
          }
        }
      },
      "type": "logs"
    },
    {
      "attributes": {
        "action": "contributor_added",
        "date": "2017-01-06T20:12:08.317000Z",
        "params": {
          "contributors": [
            {
              "active": false,
              "family_name": "Brown",
              "full_name": "Charlie Brown",
              "given_name": "Charlie",
              "id": "r29rh",
              "middle_names": "",
              "unregistered_name": "Charlie Brown"
            }
          ],
          "params_node": {
            "id": "xmnkz",
            "title": "Other Component"
          },
          "params_project": {
            "id": "xug4a",
            "title": "Test Project"
          },
          "preprint_provider": null
        }
      },
      "id": "586ffa189ad5a102028b05ba",
      "links": {
        "self": "http://localhost:8000/v2/logs/586ffa189ad5a102028b05ba/"
      },
      "relationships": {
        "node": {
          "links": {
            "related": {
              "href": "http://localhost:8000/v2/nodes/xmnkz/",
              "meta": {}
            }
          }
        },
        "original_node": {
          "links": {
            "related": {
              "href": "http://localhost:8000/v2/nodes/xmnkz/",
              "meta": {}
            }
          }
        },
        "user": {
          "links": {
            "related": {
              "href": "http://localhost:8000/v2/users/gb6f3/",
              "meta": {}
            }
          }
        }
      },
      "type": "logs"
    },
    {
      "attributes": {
        "action": "contributor_added",
        "date": "2017-01-06T20:12:08.281000Z",
        "params": {
          "contributors": [
            {
              "active": false,
              "family_name": "Brown",
              "full_name": "Charlie Brown",
              "given_name": "Charlie",
              "id": "r29rh",
              "middle_names": "",
              "unregistered_name": "Charlie Brown"
            }
          ],
          "params_node": {
            "id": "veyxj",
            "title": "Data Component"
          },
          "params_project": {
            "id": "xug4a",
            "title": "Test Project"
          },
          "preprint_provider": null
        }
      },
      "id": "586ffa189ad5a102028b05b9",
      "links": {
        "self": "http://localhost:8000/v2/logs/586ffa189ad5a102028b05b9/"
      },
      "relationships": {
        "node": {
          "links": {
            "related": {
              "href": "http://localhost:8000/v2/nodes/veyxj/",
              "meta": {}
            }
          }
        },
        "original_node": {
          "links": {
            "related": {
              "href": "http://localhost:8000/v2/nodes/veyxj/",
              "meta": {}
            }
          }
        },
        "user": {
          "links": {
            "related": {
              "href": "http://localhost:8000/v2/users/gb6f3/",
              "meta": {}
            }
          }
        }
      },
      "type": "logs"
    },
    {
      "attributes": {
        "action": "contributor_added",
        "date": "2017-01-06T20:12:08.194000Z",
        "params": {
          "contributors": [
            {
              "active": false,
              "family_name": "Brown",
              "full_name": "Charlie Brown",
              "given_name": "Charlie",
              "id": "r29rh",
              "middle_names": "",
              "unregistered_name": "Charlie Brown"
            }
          ],
          "params_node": {
            "id": "xug4a",
            "title": "Test Project"
          },
          "params_project": null,
          "preprint_provider": null
        }
      },
      "id": "586ffa189ad5a102028b05b8",
      "links": {
        "self": "http://localhost:8000/v2/logs/586ffa189ad5a102028b05b8/"
      },
      "relationships": {
        "node": {
          "links": {
            "related": {
              "href": "http://localhost:8000/v2/nodes/xug4a/",
              "meta": {}
            }
          }
        },
        "original_node": {
          "links": {
            "related": {
              "href": "http://localhost:8000/v2/nodes/xug4a/",
              "meta": {}
            }
          }
        },
        "user": {
          "links": {
            "related": {
              "href": "http://localhost:8000/v2/users/gb6f3/",
              "meta": {}
            }
          }
        }
      },
      "type": "logs"
    },
    {
      "attributes": {
        "action": "github_file_updated",
        "date": "2017-01-04T22:41:12.000000Z",
        "params": {
          "contributors": [],
          "github_repo": "osf-test",
          "github_user": "emetsger",
          "params_node": {
            "id": "xug4a",
            "title": "Test Project"
          },
          "params_project": null,
          "path": "README.md",
          "preprint_provider": null,
          "urls": {
            "download": "/project/xug4a/files/github/README.md/?action=download&ref=62141e0b8caf3a35212fbb5abfbfca03d25138f4",
            "view": "/project/xug4a/files/github/README.md/?ref=62141e0b8caf3a35212fbb5abfbfca03d25138f4"
          }
        }
      },
      "id": "586d7a0a6c613b01feac58d4",
      "links": {
        "self": "http://localhost:8000/v2/logs/586d7a0a6c613b01feac58d4/"
      },
      "relationships": {
        "node": {
          "links": {
            "related": {
              "href": "http://localhost:8000/v2/nodes/xug4a/",
              "meta": {}
            }
          }
        },
        "original_node": {
          "links": {
            "related": {
              "href": "http://localhost:8000/v2/nodes/xug4a/",
              "meta": {}
            }
          }
        }
      },
      "type": "logs"
    },
    {
      "attributes": {
        "action": "github_file_updated",
        "date": "2017-01-04T22:39:32.000000Z",
        "params": {
          "contributors": [],
          "github_repo": "osf-test",
          "github_user": "emetsger",
          "params_node": {
            "id": "xug4a",
            "title": "Test Project"
          },
          "params_project": null,
          "path": "README.md",
          "preprint_provider": null,
          "urls": {
            "download": "/project/xug4a/files/github/README.md/?action=download&ref=e7b7f717d89314249efbef310970dc41dc036729",
            "view": "/project/xug4a/files/github/README.md/?ref=e7b7f717d89314249efbef310970dc41dc036729"
          }
        }
      },
      "id": "586d79a5b83f6901fe0656fd",
      "links": {
        "self": "http://localhost:8000/v2/logs/586d79a5b83f6901fe0656fd/"
      },
      "relationships": {
        "node": {
          "links": {
            "related": {
              "href": "http://localhost:8000/v2/nodes/xug4a/",
              "meta": {}
            }
          }
        },
        "original_node": {
          "links": {
            "related": {
              "href": "http://localhost:8000/v2/nodes/xug4a/",
              "meta": {}
            }
          }
        }
      },
      "type": "logs"
    },
    {
      "attributes": {
        "action": "github_file_added",
        "date": "2016-12-14T01:26:12.000000Z",
        "params": {
          "contributors": [],
          "github_repo": "dcs",
          "github_user": "emetsger",
          "params_node": {
            "id": "veyxj",
            "title": "Data Component"
          },
          "params_project": {
            "id": "xug4a",
            "title": "Test Project"
          },
          "path": "maven/checkstyle-resources/src/site/images/idea/01-idea-preferences.png",
          "preprint_provider": null,
          "urls": {
            "download": "/project/veyxj/files/github/maven/checkstyle-resources/src/site/images/idea/01-idea-preferences.png/?action=download&ref=6a6ee66a7a22a522d68bbd550f2d304910ff96a4",
            "view": "/project/veyxj/files/github/maven/checkstyle-resources/src/site/images/idea/01-idea-preferences.png/?ref=6a6ee66a7a22a522d68bbd550f2d304910ff96a4"
          }
        }
      },
      "id": "58509fbab83f69020af66bc8",
      "links": {
        "self": "http://localhost:8000/v2/logs/58509fbab83f69020af66bc8/"
      },
      "relationships": {
        "node": {
          "links": {
            "related": {
              "href": "http://localhost:8000/v2/nodes/veyxj/",
              "meta": {}
            }
          }
        },
        "original_node": {
          "links": {
            "related": {
              "href": "http://localhost:8000/v2/nodes/veyxj/",
              "meta": {}
            }
          }
        }
      },
      "type": "logs"
    },
    {
      "attributes": {
        "action": "github_file_added",
        "date": "2016-12-14T01:26:12.000000Z",
        "params": {
          "contributors": [],
          "github_repo": "dcs",
          "github_user": "emetsger",
          "params_node": {
            "id": "veyxj",
            "title": "Data Component"
          },
          "params_project": {
            "id": "xug4a",
            "title": "Test Project"
          },
          "path": "maven/checkstyle-resources/src/site/images/idea/02-browse-repos.png",
          "preprint_provider": null,
          "urls": {
            "download": "/project/veyxj/files/github/maven/checkstyle-resources/src/site/images/idea/02-browse-repos.png/?action=download&ref=6a6ee66a7a22a522d68bbd550f2d304910ff96a4",
            "view": "/project/veyxj/files/github/maven/checkstyle-resources/src/site/images/idea/02-browse-repos.png/?ref=6a6ee66a7a22a522d68bbd550f2d304910ff96a4"
          }
        }
      },
      "id": "58509fbab83f69020af66bc9",
      "links": {
        "self": "http://localhost:8000/v2/logs/58509fbab83f69020af66bc9/"
      },
      "relationships": {
        "node": {
          "links": {
            "related": {
              "href": "http://localhost:8000/v2/nodes/veyxj/",
              "meta": {}
            }
          }
        },
        "original_node": {
          "links": {
            "related": {
              "href": "http://localhost:8000/v2/nodes/veyxj/",
              "meta": {}
            }
          }
        }
      },
      "type": "logs"
    },
    {
      "attributes": {
        "action": "github_file_added",
        "date": "2016-12-14T01:26:12.000000Z",
        "params": {
          "contributors": [],
          "github_repo": "dcs",
          "github_user": "emetsger",
          "params_node": {
            "id": "veyxj",
            "title": "Data Component"
          },
          "params_project": {
            "id": "xug4a",
            "title": "Test Project"
          },
          "path": "maven/checkstyle-resources/src/site/images/idea/03-checkstyle-repo.png",
          "preprint_provider": null,
          "urls": {
            "download": "/project/veyxj/files/github/maven/checkstyle-resources/src/site/images/idea/03-checkstyle-repo.png/?action=download&ref=6a6ee66a7a22a522d68bbd550f2d304910ff96a4",
            "view": "/project/veyxj/files/github/maven/checkstyle-resources/src/site/images/idea/03-checkstyle-repo.png/?ref=6a6ee66a7a22a522d68bbd550f2d304910ff96a4"
          }
        }
      },
      "id": "58509fbab83f69020af66bca",
      "links": {
        "self": "http://localhost:8000/v2/logs/58509fbab83f69020af66bca/"
      },
      "relationships": {
        "node": {
          "links": {
            "related": {
              "href": "http://localhost:8000/v2/nodes/veyxj/",
              "meta": {}
            }
          }
        },
        "original_node": {
          "links": {
            "related": {
              "href": "http://localhost:8000/v2/nodes/veyxj/",
              "meta": {}
            }
          }
        }
      },
      "type": "logs"
    },
    {
      "attributes": {
        "action": "github_file_added",
        "date": "2016-12-14T01:26:12.000000Z",
        "params": {
          "contributors": [],
          "github_repo": "dcs",
          "github_user": "emetsger",
          "params_node": {
            "id": "veyxj",
            "title": "Data Component"
          },
          "params_project": {
            "id": "xug4a",
            "title": "Test Project"
          },
          "path": "maven/checkstyle-resources/src/site/images/idea/04-checkstyle-plugin-configuration.png",
          "preprint_provider": null,
          "urls": {
            "download": "/project/veyxj/files/github/maven/checkstyle-resources/src/site/images/idea/04-checkstyle-plugin-configuration.png/?action=download&ref=6a6ee66a7a22a522d68bbd550f2d304910ff96a4",
            "view": "/project/veyxj/files/github/maven/checkstyle-resources/src/site/images/idea/04-checkstyle-plugin-configuration.png/?ref=6a6ee66a7a22a522d68bbd550f2d304910ff96a4"
          }
        }
      },
      "id": "58509fbab83f69020af66bcb",
      "links": {
        "self": "http://localhost:8000/v2/logs/58509fbab83f69020af66bcb/"
      },
      "relationships": {
        "node": {
          "links": {
            "related": {
              "href": "http://localhost:8000/v2/nodes/veyxj/",
              "meta": {}
            }
          }
        },
        "original_node": {
          "links": {
            "related": {
              "href": "http://localhost:8000/v2/nodes/veyxj/",
              "meta": {}
            }
          }
        }
      },
      "type": "logs"
    }
  ],
  "links": {
    "first": null,
    "last": "http://localhost:8000/v2/nodes/xug4a/logs/?page=33",
    "next": "http://localhost:8000/v2/nodes/xug4a/logs/?page=2",
    "prev": null,
    "self": "http://localhost:8000/v2/nodes/xug4a/logs/"
  },
  "meta": {
    "per_page": 10,
    "total": 327
  }
}
