{
  "data": [
    {
      "attributes": {
        "action": "external_ids_added",
        "date": "2016-07-29T16:54:13.349000Z",
        "params": {
          "contributors": [],
          "identifiers": {
            "ark": "c7605/osf.io/tgzhk",
            "doi": "10.17605/OSF.IO/TGZHK"
          },
          "params_node": {
            "id": "tgzhk",
            "title": "Test Project"
          },
          "params_project": null,
          "preprint_provider": null
        }
      },
      "id": "579b8a35594d9001fa2fccfb",
      "links": {
        "self": "http://localhost:8000/v2/logs/579b8a35594d9001fa2fccfb/"
      },
      "relationships": {
        "node": {
          "links": {
            "related": {
              "href": "http://localhost:8000/v2/registrations/tgzhk/",
              "meta": {}
            }
          }
        },
        "original_node": {
          "links": {
            "related": {
              "href": "http://localhost:8000/v2/registrations/tgzhk/",
              "meta": {}
            }
          }
        },
        "user": {
          "links": {
            "related": {
              "href": "http://localhost:8000/v2/users/gb6f3/",
              "meta": {}
            }
          }
        }
      },
      "type": "logs"
    },
    {
      "attributes": {
        "action": "made_public",
        "date": "2016-03-31T04:00:10.207000Z",
        "params": {
          "contributors": [],
          "params_node": {
            "id": "tgcks",
            "title": "Software Component"
          },
          "params_project": {
            "id": "tgzhk",
            "title": "Test Project"
          },
          "preprint_provider": null
        }
      },
      "id": "56fca0ca8c5e4a0ef9ca955a",
      "links": {
        "self": "http://localhost:8000/v2/logs/56fca0ca8c5e4a0ef9ca955a/"
      },
      "relationships": {
        "node": {
          "links": {
            "related": {
              "href": "http://localhost:8000/v2/registrations/tgcks/",
              "meta": {}
            }
          }
        },
        "original_node": {
          "links": {
            "related": {
              "href": "http://localhost:8000/v2/registrations/tgcks/",
              "meta": {}
            }
          }
        }
      },
      "type": "logs"
    },
    {
      "attributes": {
        "action": "made_public",
        "date": "2016-03-31T04:00:10.037000Z",
        "params": {
          "contributors": [],
          "params_node": {
            "id": "3q742",
            "title": "Other Component"
          },
          "params_project": {
            "id": "tgzhk",
            "title": "Test Project"
          },
          "preprint_provider": null
        }
      },
      "id": "56fca0ca8c5e4a0ef9ca9559",
      "links": {
        "self": "http://localhost:8000/v2/logs/56fca0ca8c5e4a0ef9ca9559/"
      },
      "relationships": {
        "node": {
          "links": {
            "related": {
              "href": "http://localhost:8000/v2/registrations/3q742/",
              "meta": {}
            }
          }
        },
        "original_node": {
          "links": {
            "related": {
              "href": "http://localhost:8000/v2/registrations/3q742/",
              "meta": {}
            }
          }
        }
      },
      "type": "logs"
    },
    {
      "attributes": {
        "action": "made_public",
        "date": "2016-03-31T04:00:09.874000Z",
        "params": {
          "contributors": [],
          "params_node": {
            "id": "ur6jx",
            "title": "Data Component"
          },
          "params_project": {
            "id": "tgzhk",
            "title": "Test Project"
          },
          "preprint_provider": null
        }
      },
      "id": "56fca0c98c5e4a0ef9ca9558",
      "links": {
        "self": "http://localhost:8000/v2/logs/56fca0c98c5e4a0ef9ca9558/"
      },
      "relationships": {
        "node": {
          "links": {
            "related": {
              "href": "http://localhost:8000/v2/registrations/ur6jx/",
              "meta": {}
            }
          }
        },
        "original_node": {
          "links": {
            "related": {
              "href": "http://localhost:8000/v2/registrations/ur6jx/",
              "meta": {}
            }
          }
        }
      },
      "type": "logs"
    },
    {
      "attributes": {
        "action": "made_public",
        "date": "2016-03-31T04:00:09.490000Z",
        "params": {
          "contributors": [],
          "params_node": {
            "id": "tgzhk",
            "title": "Test Project"
          },
          "params_project": null,
          "preprint_provider": null
        }
      },
      "id": "56fca0c98c5e4a0ef9ca9557",
      "links": {
        "self": "http://localhost:8000/v2/logs/56fca0c98c5e4a0ef9ca9557/"
      },
      "relationships": {
        "node": {
          "links": {
            "related": {
              "href": "http://localhost:8000/v2/registrations/tgzhk/",
              "meta": {}
            }
          }
        },
        "original_node": {
          "links": {
            "related": {
              "href": "http://localhost:8000/v2/registrations/tgzhk/",
              "meta": {}
            }
          }
        }
      },
      "type": "logs"
    },
    {
      "attributes": {
        "action": "github_file_added",
        "date": "2016-03-17T14:58:26.160000Z",
        "params": {
          "contributors": [],
          "github_repo": "osf-test",
          "github_user": "emetsger",
          "params_node": {
            "id": "xug4a",
            "title": "Test Project"
          },
          "params_project": null,
          "path": "Screen Shot 2016-03-04 at 2.21.20 PM.png",
          "preprint_provider": null,
          "urls": {
            "download": "/project/xug4a/files/github/Screen%20Shot%202016-03-04%20at%202.21.20%20PM.png/?action=download&ref=5e746ae57179552706d0ffd7234a4d918d441a50",
            "view": "/project/xug4a/files/github/Screen%20Shot%202016-03-04%20at%202.21.20%20PM.png/?ref=5e746ae57179552706d0ffd7234a4d918d441a50"
          }
        }
      },
      "id": "5718946a9ad5a1035af36ee9",
      "links": {
        "self": "http://localhost:8000/v2/logs/5718946a9ad5a1035af36ee9/"
      },
      "relationships": {
        "node": {
          "links": {
            "related": {
              "href": "http://localhost:8000/v2/registrations/tgzhk/",
              "meta": {}
            }
          }
        },
        "original_node": {
          "links": {
            "related": {
              "href": "http://localhost:8000/v2/nodes/xug4a/",
              "meta": {}
            }
          }
        },
        "user": {
          "links": {
            "related": {
              "href": "http://localhost:8000/v2/users/gb6f3/",
              "meta": {}
            }
          }
        }
      },
      "type": "logs"
    },
    {
      "attributes": {
        "action": "googledrive_folder_selected",
        "date": "2016-03-17T14:33:56.552000Z",
        "params": {
          "contributors": [],
          "folder": "Chile",
          "folder_name": "Chile",
          "params_node": {
            "id": "xug4a",
            "title": "Test Project"
          },
          "params_project": null,
          "preprint_provider": null
        }
      },
      "id": "5718946a9ad5a1035af36ee8",
      "links": {
        "self": "http://localhost:8000/v2/logs/5718946a9ad5a1035af36ee8/"
      },
      "relationships": {
        "node": {
          "links": {
            "related": {
              "href": "http://localhost:8000/v2/registrations/tgzhk/",
              "meta": {}
            }
          }
        },
        "original_node": {
          "links": {
            "related": {
              "href": "http://localhost:8000/v2/nodes/xug4a/",
              "meta": {}
            }
          }
        },
        "user": {
          "links": {
            "related": {
              "href": "http://localhost:8000/v2/users/gb6f3/",
              "meta": {}
            }
          }
        }
      },
      "type": "logs"
    },
    {
      "attributes": {
        "action": "googledrive_node_authorized",
        "date": "2016-03-17T14:33:20.916000Z",
        "params": {
          "contributors": [],
          "folder": null,
          "folder_name": null,
          "params_node": {
            "id": "xug4a",
            "title": "Test Project"
          },
          "params_project": null,
          "preprint_provider": null
        }
      },
      "id": "5718946a9ad5a1035af36ee7",
      "links": {
        "self": "http://localhost:8000/v2/logs/5718946a9ad5a1035af36ee7/"
      },
      "relationships": {
        "node": {
          "links": {
            "related": {
              "href": "http://localhost:8000/v2/registrations/tgzhk/",
              "meta": {}
            }
          }
        },
        "original_node": {
          "links": {
            "related": {
              "href": "http://localhost:8000/v2/nodes/xug4a/",
              "meta": {}
            }
          }
        },
        "user": {
          "links": {
            "related": {
              "href": "http://localhost:8000/v2/users/gb6f3/",
              "meta": {}
            }
          }
        }
      },
      "type": "logs"
    },
    {
      "attributes": {
        "action": "github_repo_linked",
        "date": "2016-03-17T14:33:16.329000Z",
        "params": {
          "contributors": [],
          "github_repo": "osf-test",
          "github_user": "emetsger",
          "params_node": {
            "id": "xug4a",
            "title": "Test Project"
          },
          "params_project": null,
          "preprint_provider": null
        }
      },
      "id": "5718946a9ad5a1035af36ee6",
      "links": {
        "self": "http://localhost:8000/v2/logs/5718946a9ad5a1035af36ee6/"
      },
      "relationships": {
        "node": {
          "links": {
            "related": {
              "href": "http://localhost:8000/v2/registrations/tgzhk/",
              "meta": {}
            }
          }
        },
        "original_node": {
          "links": {
            "related": {
              "href": "http://localhost:8000/v2/nodes/xug4a/",
              "meta": {}
            }
          }
        },
        "user": {
          "links": {
            "related": {
              "href": "http://localhost:8000/v2/users/gb6f3/",
              "meta": {}
            }
          }
        }
      },
      "type": "logs"
    },
    {
      "attributes": {
        "action": "github_node_authorized",
        "date": "2016-03-17T14:32:32.979000Z",
        "params": {
          "contributors": [],
          "params_node": {
            "id": "xug4a",
            "title": "Test Project"
          },
          "params_project": null,
          "preprint_provider": null
        }
      },
      "id": "5718946a9ad5a1035af36ee5",
      "links": {
        "self": "http://localhost:8000/v2/logs/5718946a9ad5a1035af36ee5/"
      },
      "relationships": {
        "node": {
          "links": {
            "related": {
              "href": "http://localhost:8000/v2/registrations/tgzhk/",
              "meta": {}
            }
          }
        },
        "original_node": {
          "links": {
            "related": {
              "href": "http://localhost:8000/v2/nodes/xug4a/",
              "meta": {}
            }
          }
        },
        "user": {
          "links": {
            "related": {
              "href": "http://localhost:8000/v2/users/gb6f3/",
              "meta": {}
            }
          }
        }
      },
      "type": "logs"
    }
  ],
  "links": {
    "first": null,
    "last": "http://localhost:8000/v2/registrations/tgzhk/logs/?page=2",
    "next": "http://localhost:8000/v2/registrations/tgzhk/logs/?page=2",
    "prev": null,
    "self": "http://localhost:8000/v2/registrations/tgzhk/logs/"
  },
  "meta": {
    "per_page": 10,
    "total": 20
  }
}
