{
  "data": [
    {
      "attributes": {
        "active": true,
        "date_registered": "2016-04-16T12:43:41.990000Z",
        "family_name": "Overby",
        "full_name": "Casey Lynnette Overby",
        "given_name": "Casey",
        "locale": "en_US",
        "middle_names": "Lynnette",
        "suffix": "",
        "timezone": "America/New_York"
      },
      "id": "2ya3t",
      "links": {
        "html": "http://osf.io/2ya3t/",
        "profile_image": "http://secure.gravatar.com/avatar/51120bfc6237380b95c11c01c47554b2?d=identicon",
        "self": "http://localhost:8000/v2/users/2ya3t/"
      },
      "relationships": {
        "institutions": {
          "links": {
            "related": {
              "href": "http://localhost:8000/v2/users/2ya3t/institutions/",
              "meta": {}
            },
            "self": {
              "href": "http://localhost:8000/v2/users/2ya3t/relationships/institutions/",
              "meta": {}
            }
          }
        },
        "nodes": {
          "links": {
            "related": {
              "href": "http://localhost:8000/v2/users/2ya3t/nodes/",
              "meta": {}
            }
          }
        }
      },
      "type": "users"
    },
    {
      "attributes": {
        "active": true,
        "date_registered": "2015-08-11T17:59:49.872000Z",
        "family_name": "Boehm",
        "full_name": "Reid Boehm",
        "given_name": "Reid",
        "locale": "en_US",
        "middle_names": "Isaac",
        "suffix": "",
        "timezone": "America/New_York"
      },
      "id": "39bsp",
      "links": {
        "html": "http://osf.io/39bsp/",
        "profile_image": "http://secure.gravatar.com/avatar/e8133c35a091812d5de9e9133e43b780?d=identicon",
        "self": "http://localhost:8000/v2/users/39bsp/"
      },
      "relationships": {
        "institutions": {
          "links": {
            "related": {
              "href": "http://localhost:8000/v2/users/39bsp/institutions/",
              "meta": {}
            },
            "self": {
              "href": "http://localhost:8000/v2/users/39bsp/relationships/institutions/",
              "meta": {}
            }
          }
        },
        "nodes": {
          "links": {
            "related": {
              "href": "http://localhost:8000/v2/users/39bsp/nodes/",
              "meta": {}
            }
          }
        }
      },
      "type": "users"
    },
    {
      "attributes": {
        "active": true,
        "date_registered": "2016-03-09T20:06:34.872000Z",
        "family_name": "Vu",
        "full_name": "Hanh Vu",
        "given_name": "Hanh",
        "locale": "en_US",
        "middle_names": "",
        "suffix": "",
        "timezone": "America/New_York"
      },
      "id": "3juvk",
      "links": {
        "html": "http://osf.io/3juvk/",
        "profile_image": "http://secure.gravatar.com/avatar/5f62ad8dc1910ffc674c83d7fa474f49?d=identicon",
        "self": "http://localhost:8000/v2/users/3juvk/"
      },
      "relationships": {
        "institutions": {
          "links": {
            "related": {
              "href": "http://localhost:8000/v2/users/3juvk/institutions/",
              "meta": {}
            },
            "self": {
              "href": "http://localhost:8000/v2/users/3juvk/relationships/institutions/",
              "meta": {}
            }
          }
        },
        "nodes": {
          "links": {
            "related": {
              "href": "http://localhost:8000/v2/users/3juvk/nodes/",
              "meta": {}
            }
          }
        }
      },
      "type": "users"
    },
    {
      "attributes": {
        "active": true,
        "date_registered": "2016-12-08T17:41:48.193000Z",
        "family_name": "Flombaum",
        "full_name": "Jonathan Isaac Flombaum",
        "given_name": "Jonathan",
        "locale": "en_US",
        "middle_names": "Isaac",
        "suffix": "",
        "timezone": "America/New_York"
      },
      "id": "48657",
      "links": {
        "html": "http://osf.io/48657/",
        "profile_image": "http://secure.gravatar.com/avatar/9dacc552c139392fdd61c009e539c0bc?d=identicon",
        "self": "http://localhost:8000/v2/users/48657/"
      },
      "relationships": {
        "institutions": {
          "links": {
            "related": {
              "href": "http://localhost:8000/v2/users/48657/institutions/",
              "meta": {}
            },
            "self": {
              "href": "http://localhost:8000/v2/users/48657/relationships/institutions/",
              "meta": {}
            }
          }
        },
        "nodes": {
          "links": {
            "related": {
              "href": "http://localhost:8000/v2/users/48657/nodes/",
              "meta": {}
            }
          }
        }
      },
      "type": "users"
    },
    {
      "attributes": {
        "active": true,
        "date_registered": "2015-11-10T21:22:11.197000Z",
        "family_name": "Labonte",
        "full_name": "Jason W. Labonte",
        "given_name": "Jason",
        "locale": "en_US",
        "middle_names": "William",
        "suffix": "",
        "timezone": "America/New_York"
      },
      "id": "589dy",
      "links": {
        "html": "http://osf.io/589dy/",
        "profile_image": "http://secure.gravatar.com/avatar/a59e0b4fb2ddfbc627fadf58031c892c?d=identicon",
        "self": "http://localhost:8000/v2/users/589dy/"
      },
      "relationships": {
        "institutions": {
          "links": {
            "related": {
              "href": "http://localhost:8000/v2/users/589dy/institutions/",
              "meta": {}
            },
            "self": {
              "href": "http://localhost:8000/v2/users/589dy/relationships/institutions/",
              "meta": {}
            }
          }
        },
        "nodes": {
          "links": {
            "related": {
              "href": "http://localhost:8000/v2/users/589dy/nodes/",
              "meta": {}
            }
          }
        }
      },
      "type": "users"
    },
    {
      "attributes": {
        "active": true,
        "date_registered": "2015-10-26T16:41:44.832000Z",
        "family_name": "Chiu",
        "full_name": "Chen Chiu",
        "given_name": "Chen",
        "locale": "en_US",
        "middle_names": "",
        "suffix": "",
        "timezone": "America/New_York"
      },
      "id": "5kx6m",
      "links": {
        "html": "http://osf.io/5kx6m/",
        "profile_image": "http://secure.gravatar.com/avatar/b7a5f6ccf1aee74695181d2a9f279287?d=identicon",
        "self": "http://localhost:8000/v2/users/5kx6m/"
      },
      "relationships": {
        "institutions": {
          "links": {
            "related": {
              "href": "http://localhost:8000/v2/users/5kx6m/institutions/",
              "meta": {}
            },
            "self": {
              "href": "http://localhost:8000/v2/users/5kx6m/relationships/institutions/",
              "meta": {}
            }
          }
        },
        "nodes": {
          "links": {
            "related": {
              "href": "http://localhost:8000/v2/users/5kx6m/nodes/",
              "meta": {}
            }
          }
        }
      },
      "type": "users"
    },
    {
      "attributes": {
        "active": true,
        "date_registered": "2016-11-15T15:28:56.755000Z",
        "family_name": "Belrose",
        "full_name": "Derek Belrose",
        "given_name": "Derek",
        "locale": "en_US",
        "middle_names": "",
        "suffix": "",
        "timezone": "America/New_York"
      },
      "id": "67pyu",
      "links": {
        "html": "http://osf.io/67pyu/",
        "profile_image": "http://secure.gravatar.com/avatar/705bb1651e3b6dd732baf47f2d949187?d=identicon",
        "self": "http://localhost:8000/v2/users/67pyu/"
      },
      "relationships": {
        "institutions": {
          "links": {
            "related": {
              "href": "http://localhost:8000/v2/users/67pyu/institutions/",
              "meta": {}
            },
            "self": {
              "href": "http://localhost:8000/v2/users/67pyu/relationships/institutions/",
              "meta": {}
            }
          }
        },
        "nodes": {
          "links": {
            "related": {
              "href": "http://localhost:8000/v2/users/67pyu/nodes/",
              "meta": {}
            }
          }
        }
      },
      "type": "users"
    },
    {
      "attributes": {
        "active": true,
        "date_registered": "2017-01-10T15:08:25.457000Z",
        "family_name": "",
        "full_name": "Blake Dewey",
        "given_name": "",
        "locale": "en_us",
        "middle_names": "",
        "suffix": "",
        "timezone": "America/Toronto"
      },
      "id": "77nhq",
      "links": {
        "html": "http://osf.io/77nhq/",
        "profile_image": "http://secure.gravatar.com/avatar/cc6f02365863d0c4754f77fef7af56e9?d=identicon",
        "self": "http://localhost:8000/v2/users/77nhq/"
      },
      "relationships": {
        "institutions": {
          "links": {
            "related": {
              "href": "http://localhost:8000/v2/users/77nhq/institutions/",
              "meta": {}
            },
            "self": {
              "href": "http://localhost:8000/v2/users/77nhq/relationships/institutions/",
              "meta": {}
            }
          }
        },
        "nodes": {
          "links": {
            "related": {
              "href": "http://localhost:8000/v2/users/77nhq/nodes/",
              "meta": {}
            }
          }
        }
      },
      "type": "users"
    },
    {
      "attributes": {
        "active": true,
        "date_registered": "2016-02-08T13:21:59.781000Z",
        "family_name": "Rios",
        "full_name": "Fernando Rios",
        "given_name": "Fernando",
        "locale": "en_US",
        "middle_names": "",
        "suffix": "",
        "timezone": "America/New_York"
      },
      "id": "8qm9w",
      "links": {
        "html": "http://osf.io/8qm9w/",
        "profile_image": "http://secure.gravatar.com/avatar/172894df41a622c6f61da10bdd13746b?d=identicon",
        "self": "http://localhost:8000/v2/users/8qm9w/"
      },
      "relationships": {
        "institutions": {
          "links": {
            "related": {
              "href": "http://localhost:8000/v2/users/8qm9w/institutions/",
              "meta": {}
            },
            "self": {
              "href": "http://localhost:8000/v2/users/8qm9w/relationships/institutions/",
              "meta": {}
            }
          }
        },
        "nodes": {
          "links": {
            "related": {
              "href": "http://localhost:8000/v2/users/8qm9w/nodes/",
              "meta": {}
            }
          }
        }
      },
      "type": "users"
    },
    {
      "attributes": {
        "active": true,
        "date_registered": "2016-11-27T17:43:18.303000Z",
        "family_name": "Azar",
        "full_name": "Antoine Azar",
        "given_name": "Antoine",
        "locale": "en_US",
        "middle_names": "",
        "suffix": "",
        "timezone": "America/New_York"
      },
      "id": "ab7ta",
      "links": {
        "html": "http://osf.io/ab7ta/",
        "profile_image": "http://secure.gravatar.com/avatar/eb7d646bbc6aac9830b1147d5014fc66?d=identicon",
        "self": "http://localhost:8000/v2/users/ab7ta/"
      },
      "relationships": {
        "institutions": {
          "links": {
            "related": {
              "href": "http://localhost:8000/v2/users/ab7ta/institutions/",
              "meta": {}
            },
            "self": {
              "href": "http://localhost:8000/v2/users/ab7ta/relationships/institutions/",
              "meta": {}
            }
          }
        },
        "nodes": {
          "links": {
            "related": {
              "href": "http://localhost:8000/v2/users/ab7ta/nodes/",
              "meta": {}
            }
          }
        }
      },
      "type": "users"
    }
  ],
  "links": {
    "first": null,
    "last": "http://localhost:8000/v2/institutions/jhu/users/?page=2",
    "next": "http://localhost:8000/v2/institutions/jhu/users/?page=2",
    "prev": null,
    "self": "http://localhost:8000/v2/institutions/jhu/users/"
  },
  "meta": {
    "per_page": 10,
    "total": 14
  }
}
