{
  "data": [
    {
      "attributes": {
        "action": "external_ids_added",
        "date": "2016-09-08T16:23:43.565000Z",
        "params": {
          "contributors": [],
          "identifiers": {
            "ark": "c7605/osf.io/3e69d",
            "doi": "10.17605/OSF.IO/3E69D"
          },
          "params_node": {
            "id": "3e69d",
            "title": "Preserving and Sharing Software for Transparent and Reproducible Research: A Review"
          },
          "params_project": null,
          "preprint_provider": null
        }
      },
      "id": "57d1908f9ad5a101f6e54fd1",
      "links": {
        "self": "http://localhost:8000/v2/logs/57d1908f9ad5a101f6e54fd1/"
      },
      "relationships": {
        "node": {
          "links": {
            "related": {
              "href": "http://localhost:8000/v2/registrations/3e69d/",
              "meta": {}
            }
          }
        },
        "original_node": {
          "links": {
            "related": {
              "href": "http://localhost:8000/v2/registrations/3e69d/",
              "meta": {}
            }
          }
        },
        "user": {
          "links": {
            "related": {
              "href": "http://localhost:8000/v2/users/8qm9w/",
              "meta": {}
            }
          }
        }
      },
      "type": "logs"
    },
    {
      "attributes": {
        "action": "github_file_updated",
        "date": "2016-08-18T12:57:47.000000Z",
        "params": {
          "contributors": [],
          "github_repo": "software-preservation-review-report",
          "github_user": "zoidy",
          "params_node": {
            "id": "d4kef",
            "title": "Preserving and Sharing Software for Transparent and Reproducible Research: A Review"
          },
          "params_project": null,
          "path": "report.tex",
          "preprint_provider": null,
          "urls": {
            "download": "/project/d4kef/files/github/report.tex/?action=download&ref=9f84f730517a60089f95e6ab17d54bfd97abf8a9",
            "view": "/project/d4kef/files/github/report.tex/?ref=9f84f730517a60089f95e6ab17d54bfd97abf8a9"
          }
        }
      },
      "id": "57d1902c594d9001ecd4e065",
      "links": {
        "self": "http://localhost:8000/v2/logs/57d1902c594d9001ecd4e065/"
      },
      "relationships": {
        "node": {
          "links": {
            "related": {
              "href": "http://localhost:8000/v2/registrations/3e69d/",
              "meta": {}
            }
          }
        },
        "original_node": {
          "links": {
            "related": {
              "href": "http://localhost:8000/v2/nodes/d4kef/",
              "meta": {}
            }
          }
        }
      },
      "type": "logs"
    },
    {
      "attributes": {
        "action": "github_file_updated",
        "date": "2016-08-18T12:57:47.000000Z",
        "params": {
          "contributors": [],
          "github_repo": "software-preservation-review-report",
          "github_user": "zoidy",
          "params_node": {
            "id": "d4kef",
            "title": "Preserving and Sharing Software for Transparent and Reproducible Research: A Review"
          },
          "params_project": null,
          "path": "research.bib",
          "preprint_provider": null,
          "urls": {
            "download": "/project/d4kef/files/github/research.bib/?action=download&ref=9f84f730517a60089f95e6ab17d54bfd97abf8a9",
            "view": "/project/d4kef/files/github/research.bib/?ref=9f84f730517a60089f95e6ab17d54bfd97abf8a9"
          }
        }
      },
      "id": "57d1902c594d9001ecd4e066",
      "links": {
        "self": "http://localhost:8000/v2/logs/57d1902c594d9001ecd4e066/"
      },
      "relationships": {
        "node": {
          "links": {
            "related": {
              "href": "http://localhost:8000/v2/registrations/3e69d/",
              "meta": {}
            }
          }
        },
        "original_node": {
          "links": {
            "related": {
              "href": "http://localhost:8000/v2/nodes/d4kef/",
              "meta": {}
            }
          }
        }
      },
      "type": "logs"
    },
    {
      "attributes": {
        "action": "osf_storage_file_updated",
        "date": "2016-08-18T12:55:26.235000Z",
        "params": {
          "contributors": [],
          "params_node": {
            "id": "d4kef",
            "title": "Preserving and Sharing Software for Transparent and Reproducible Research: A Review"
          },
          "params_project": null,
          "path": "/Rios2016 - [v1.4] Preserving and Sharing Research Software Review.pdf",
          "preprint_provider": null,
          "urls": {
            "download": "/project/d4kef/files/osfstorage/57b5ac1bb83f6901ded4ffd9/?action=download",
            "view": "/project/d4kef/files/osfstorage/57b5ac1bb83f6901ded4ffd9/"
          }
        }
      },
      "id": "57d1902c594d9001ecd4e064",
      "links": {
        "self": "http://localhost:8000/v2/logs/57d1902c594d9001ecd4e064/"
      },
      "relationships": {
        "node": {
          "links": {
            "related": {
              "href": "http://localhost:8000/v2/registrations/3e69d/",
              "meta": {}
            }
          }
        },
        "original_node": {
          "links": {
            "related": {
              "href": "http://localhost:8000/v2/nodes/d4kef/",
              "meta": {}
            }
          }
        },
        "user": {
          "links": {
            "related": {
              "href": "http://localhost:8000/v2/users/8qm9w/",
              "meta": {}
            }
          }
        }
      },
      "type": "logs"
    },
    {
      "attributes": {
        "action": "osf_storage_file_updated",
        "date": "2016-08-18T12:53:29.391000Z",
        "params": {
          "contributors": [],
          "params_node": {
            "id": "d4kef",
            "title": "Preserving and Sharing Software for Transparent and Reproducible Research: A Review"
          },
          "params_project": null,
          "path": "/Rios2016 - [v1.4] Preserving and Sharing Research Software Review.pdf",
          "preprint_provider": null,
          "urls": {
            "download": "/project/d4kef/files/osfstorage/57b5ac1bb83f6901ded4ffd9/?action=download",
            "view": "/project/d4kef/files/osfstorage/57b5ac1bb83f6901ded4ffd9/"
          }
        }
      },
      "id": "57d1902c594d9001ecd4e063",
      "links": {
        "self": "http://localhost:8000/v2/logs/57d1902c594d9001ecd4e063/"
      },
      "relationships": {
        "node": {
          "links": {
            "related": {
              "href": "http://localhost:8000/v2/registrations/3e69d/",
              "meta": {}
            }
          }
        },
        "original_node": {
          "links": {
            "related": {
              "href": "http://localhost:8000/v2/nodes/d4kef/",
              "meta": {}
            }
          }
        },
        "user": {
          "links": {
            "related": {
              "href": "http://localhost:8000/v2/users/8qm9w/",
              "meta": {}
            }
          }
        }
      },
      "type": "logs"
    },
    {
      "attributes": {
        "action": "wiki_updated",
        "date": "2016-08-18T12:43:05.362000Z",
        "params": {
          "contributors": [],
          "page": "home",
          "page_id": "fh963",
          "params_node": {
            "id": "d4kef",
            "title": "Preserving and Sharing Software for Transparent and Reproducible Research: A Review"
          },
          "params_project": null,
          "preprint_provider": null,
          "version": "4"
        }
      },
      "id": "57d1902c594d9001ecd4e062",
      "links": {
        "self": "http://localhost:8000/v2/logs/57d1902c594d9001ecd4e062/"
      },
      "relationships": {
        "node": {
          "links": {
            "related": {
              "href": "http://localhost:8000/v2/registrations/3e69d/",
              "meta": {}
            }
          }
        },
        "original_node": {
          "links": {
            "related": {
              "href": "http://localhost:8000/v2/nodes/d4kef/",
              "meta": {}
            }
          }
        },
        "user": {
          "links": {
            "related": {
              "href": "http://localhost:8000/v2/users/8qm9w/",
              "meta": {}
            }
          }
        }
      },
      "type": "logs"
    },
    {
      "attributes": {
        "action": "github_repo_linked",
        "date": "2016-08-18T12:40:34.444000Z",
        "params": {
          "contributors": [],
          "github_repo": "software-preservation-review-report",
          "github_user": "zoidy",
          "params_node": {
            "id": "d4kef",
            "title": "Preserving and Sharing Software for Transparent and Reproducible Research: A Review"
          },
          "params_project": null,
          "preprint_provider": null
        }
      },
      "id": "57d1902c594d9001ecd4e061",
      "links": {
        "self": "http://localhost:8000/v2/logs/57d1902c594d9001ecd4e061/"
      },
      "relationships": {
        "node": {
          "links": {
            "related": {
              "href": "http://localhost:8000/v2/registrations/3e69d/",
              "meta": {}
            }
          }
        },
        "original_node": {
          "links": {
            "related": {
              "href": "http://localhost:8000/v2/nodes/d4kef/",
              "meta": {}
            }
          }
        },
        "user": {
          "links": {
            "related": {
              "href": "http://localhost:8000/v2/users/8qm9w/",
              "meta": {}
            }
          }
        }
      },
      "type": "logs"
    },
    {
      "attributes": {
        "action": "osf_storage_file_added",
        "date": "2016-08-18T12:37:56.005000Z",
        "params": {
          "contributors": [],
          "params_node": {
            "id": "d4kef",
            "title": "Preserving and Sharing Software for Transparent and Reproducible Research: A Review"
          },
          "params_project": null,
          "path": "/Rios2016 - [v1.4] Preserving and Sharing Research Software Review.pdf",
          "preprint_provider": null,
          "urls": {
            "download": "/project/d4kef/files/osfstorage/57b5ac1bb83f6901ded4ffd9/?action=download",
            "view": "/project/d4kef/files/osfstorage/57b5ac1bb83f6901ded4ffd9/"
          }
        }
      },
      "id": "57d1902c594d9001ecd4e060",
      "links": {
        "self": "http://localhost:8000/v2/logs/57d1902c594d9001ecd4e060/"
      },
      "relationships": {
        "node": {
          "links": {
            "related": {
              "href": "http://localhost:8000/v2/registrations/3e69d/",
              "meta": {}
            }
          }
        },
        "original_node": {
          "links": {
            "related": {
              "href": "http://localhost:8000/v2/nodes/d4kef/",
              "meta": {}
            }
          }
        },
        "user": {
          "links": {
            "related": {
              "href": "http://localhost:8000/v2/users/8qm9w/",
              "meta": {}
            }
          }
        }
      },
      "type": "logs"
    },
    {
      "attributes": {
        "action": "wiki_updated",
        "date": "2016-08-17T21:54:27.272000Z",
        "params": {
          "contributors": [],
          "page": "home",
          "page_id": "8nez3",
          "params_node": {
            "id": "d4kef",
            "title": "Preserving and Sharing Software for Transparent and Reproducible Research: A Review"
          },
          "params_project": null,
          "preprint_provider": null,
          "version": "3"
        }
      },
      "id": "57d1902c594d9001ecd4e05f",
      "links": {
        "self": "http://localhost:8000/v2/logs/57d1902c594d9001ecd4e05f/"
      },
      "relationships": {
        "node": {
          "links": {
            "related": {
              "href": "http://localhost:8000/v2/registrations/3e69d/",
              "meta": {}
            }
          }
        },
        "original_node": {
          "links": {
            "related": {
              "href": "http://localhost:8000/v2/nodes/d4kef/",
              "meta": {}
            }
          }
        },
        "user": {
          "links": {
            "related": {
              "href": "http://localhost:8000/v2/users/8qm9w/",
              "meta": {}
            }
          }
        }
      },
      "type": "logs"
    },
    {
      "attributes": {
        "action": "wiki_updated",
        "date": "2016-08-17T13:08:55.430000Z",
        "params": {
          "contributors": [],
          "page": "home",
          "page_id": "s9ryq",
          "params_node": {
            "id": "d4kef",
            "title": "Preserving and Sharing Software for Transparent and Reproducible Research: A Review"
          },
          "params_project": null,
          "preprint_provider": null,
          "version": "2"
        }
      },
      "id": "57d1902c594d9001ecd4e05e",
      "links": {
        "self": "http://localhost:8000/v2/logs/57d1902c594d9001ecd4e05e/"
      },
      "relationships": {
        "node": {
          "links": {
            "related": {
              "href": "http://localhost:8000/v2/registrations/3e69d/",
              "meta": {}
            }
          }
        },
        "original_node": {
          "links": {
            "related": {
              "href": "http://localhost:8000/v2/nodes/d4kef/",
              "meta": {}
            }
          }
        },
        "user": {
          "links": {
            "related": {
              "href": "http://localhost:8000/v2/users/kp3bd/",
              "meta": {}
            }
          }
        }
      },
      "type": "logs"
    }
  ],
  "links": {
    "first": null,
    "last": "http://localhost:8000/v2/registrations/3e69d/logs/?page=4",
    "next": "http://localhost:8000/v2/registrations/3e69d/logs/?page=2",
    "prev": null,
    "self": "http://localhost:8000/v2/registrations/3e69d/logs/"
  },
  "meta": {
    "per_page": 10,
    "total": 37
  }
}
